%YAML 1.1
%TAG !u! tag:unity3d.com,2011:
--- !u!1001 &4726105191302451315
PrefabInstance:
  m_ObjectHideFlags: 0
  serializedVersion: 2
  m_Modification:
    m_TransformParent: {fileID: 0}
    m_Modifications:
    - target: {fileID: 4870035101213072928, guid: a8a86f4fd6df05a4b8a171f771c85317, type: 3}
      propertyPath: m_RootOrder
      value: 0
      objectReference: {fileID: 0}
    - target: {fileID: 4870035101213072928, guid: a8a86f4fd6df05a4b8a171f771c85317, type: 3}
      propertyPath: m_LocalPosition.x
      value: 0
      objectReference: {fileID: 0}
    - target: {fileID: 4870035101213072928, guid: a8a86f4fd6df05a4b8a171f771c85317, type: 3}
      propertyPath: m_LocalPosition.y
      value: 0
      objectReference: {fileID: 0}
    - target: {fileID: 4870035101213072928, guid: a8a86f4fd6df05a4b8a171f771c85317, type: 3}
      propertyPath: m_LocalPosition.z
      value: 0
      objectReference: {fileID: 0}
    - target: {fileID: 4870035101213072928, guid: a8a86f4fd6df05a4b8a171f771c85317, type: 3}
      propertyPath: m_LocalRotation.w
      value: 1
      objectReference: {fileID: 0}
    - target: {fileID: 4870035101213072928, guid: a8a86f4fd6df05a4b8a171f771c85317, type: 3}
      propertyPath: m_LocalRotation.x
      value: 0
      objectReference: {fileID: 0}
    - target: {fileID: 4870035101213072928, guid: a8a86f4fd6df05a4b8a171f771c85317, type: 3}
      propertyPath: m_LocalRotation.y
      value: 0
      objectReference: {fileID: 0}
    - target: {fileID: 4870035101213072928, guid: a8a86f4fd6df05a4b8a171f771c85317, type: 3}
      propertyPath: m_LocalRotation.z
      value: 0
      objectReference: {fileID: 0}
    - target: {fileID: 4870035101213072928, guid: a8a86f4fd6df05a4b8a171f771c85317, type: 3}
      propertyPath: m_LocalEulerAnglesHint.x
      value: 0
      objectReference: {fileID: 0}
    - target: {fileID: 4870035101213072928, guid: a8a86f4fd6df05a4b8a171f771c85317, type: 3}
      propertyPath: m_LocalEulerAnglesHint.y
      value: 0
      objectReference: {fileID: 0}
    - target: {fileID: 4870035101213072928, guid: a8a86f4fd6df05a4b8a171f771c85317, type: 3}
      propertyPath: m_LocalEulerAnglesHint.z
      value: 0
      objectReference: {fileID: 0}
    - target: {fileID: 4870035101213072931, guid: a8a86f4fd6df05a4b8a171f771c85317, type: 3}
      propertyPath: m_Name
      value: STAGE
      objectReference: {fileID: 0}
    - target: {fileID: 8497235291166612276, guid: a8a86f4fd6df05a4b8a171f771c85317, type: 3}
      propertyPath: m_Materials.Array.data[0]
      value: 
      objectReference: {fileID: 2100000, guid: b42c1b14399de864b8805496a42754bd, type: 2}
    m_RemovedComponents: []
  m_SourcePrefab: {fileID: 100100000, guid: a8a86f4fd6df05a4b8a171f771c85317, type: 3}
