# WaveFront *.obj file (generated by Autodesk ATF)

mtllib Hand.mtl

g Solid1

v -10.000000 -3.500000 0.000000
v -10.000000 -2.831559 -2.057248
v -10.000000 -2.831559 2.057248
v -10.000000 -1.081560 -3.328698
v -10.000000 -1.081560 3.328698
v -10.000000 1.081560 -3.328698
v -10.000000 1.081560 3.328698
v -10.000000 2.831559 -2.057248
v -10.000000 2.831559 2.057248
v -10.000000 3.500000 0.000000
v -9.599146 -63.719087 55.864315
v -9.442044 -62.564459 56.411552
v -9.418907 -64.215069 56.946344
v -9.357993 -64.962320 55.256038
v -9.232562 -63.017621 57.489405
v -9.203572 -63.093801 54.904294
v -9.157218 -65.494819 56.308036
v -9.122893 -64.431148 57.426000
v -8.950461 -64.480157 54.237771
v -8.948628 -61.737208 55.577292
v -8.936630 -63.268347 57.941265
v -8.925088 -61.475487 56.930733
v -8.866743 -65.666704 56.803727
v -8.652058 -61.910691 57.955489
v -8.364451 -62.197018 58.361959
v -8.301804 -64.718366 58.079801
v -8.301737 -60.780535 57.307868
v -8.191909 -66.564713 54.512110
v -8.139139 -63.707995 58.509984
v -8.080658 -65.777593 57.537642
v -8.031775 -60.367422 56.441660
v -7.976322 -61.236553 58.242941
v -7.934722 -66.045923 53.653173
v -7.899772 -60.625925 57.719755
v -7.886848 -67.014132 55.488477
v -7.827351 -66.933985 54.669352
v -7.707386 -61.552281 58.597779
v -7.644525 -62.774010 58.833065
v -7.629949 -67.083702 55.980778
v -7.473130 -67.021642 54.332600
v -7.364882 -61.341195 58.679266
v -7.363957 -59.985933 57.056975
v -7.319788 -67.241483 55.886164
v -7.256154 -64.827976 58.357100
v -7.251227 -66.730461 53.733439
v -7.248006 -67.336011 55.317564
v -7.139038 -64.059834 58.674622
v -7.093893 -65.618715 57.947707
v -7.088820 -62.215295 58.982115
v -7.036555 -66.930976 56.783142
v -6.839858 -67.338042 54.551630
v -6.822770 -67.236223 56.316018
v -6.819130 -60.278993 58.076787
v -6.779964 -63.339529 58.900723
v -6.699561 -67.453375 55.474963
v -6.670310 -60.921564 58.654108
v -6.574420 -62.316656 59.056172
v -6.560876 -66.878238 56.946783
v -6.537606 -60.004826 57.717052
v -6.426415 -67.211280 54.154701
v -6.424961 -67.217698 56.402049
v -6.420771 -64.697752 58.315454
v -6.395512 -61.739416 58.990726
v -6.386619 -62.905107 58.988981
v -6.364627 -66.448011 57.360539
v -6.292548 -66.727662 57.103343
v -6.270407 -65.423269 57.937384
v -6.235647 -63.938622 58.603053
v -6.147714 -67.440186 54.936528
v -6.126086 -60.553403 58.380179
v -6.090460 -67.398696 55.738940
v -6.088962 -66.664090 57.127385
v -6.066794 -61.177239 58.766265
v -6.062018 -62.578993 59.005928
v -5.977667 -67.088218 56.529713
v -5.953466 -61.921258 58.967590
v -5.856956 -66.560130 57.155972
v -5.831643 -62.662940 58.945465
v -5.773166 -65.950770 57.540183
v -5.745696 -63.284116 58.746848
v -5.695165 -60.472436 58.163457
v -5.631526 -62.766619 58.873982
v -5.606623 -67.266388 54.793863
v -5.558995 -62.178135 58.890872
v -5.516092 -61.581655 58.770609
v -5.485240 -61.045651 58.521652
v -5.378537 -62.579823 58.806982
v -5.344766 -66.473312 56.994443
v -5.259327 -65.300822 57.674370
v -5.227373 -63.804650 58.346176
v -5.147282 -62.619796 58.685784
v -5.118642 -61.845860 58.639040
v -5.065170 -64.534564 57.962370
v -5.051303 -66.812491 56.250634
v -5.041660 -62.418251 58.641586
v -4.992394 -61.156735 58.260074
v -4.976786 -62.819753 58.562360
v -4.928200 -66.927366 55.398545
v -4.857047 -62.645359 58.513737
v -4.819440 -65.890384 57.105355
v -4.768850 -61.737099 58.355551
v -4.681971 -65.949121 56.940293
v -4.540026 -59.908729 48.315458
v -4.529390 -62.047396 58.231931
v -4.436115 -58.592343 48.909507
v -4.432614 -64.666100 57.586403
v -4.430117 -64.191408 57.805476
v -4.304397 -66.065884 56.294861
v -4.278475 -64.641786 57.480102
v -4.277040 -64.135656 57.715898
v -4.179884 -66.045699 56.023011
v -4.109489 -62.340045 57.851644
v -4.092645 -61.060638 47.590580
v -3.821606 -64.520044 57.045350
v -3.821379 -63.915401 57.336516
v -3.806991 -65.177526 56.483455
v -3.796060 -57.281928 49.296451
v -3.729779 -63.399205 57.355485
v -3.157742 -61.906204 46.827440
v -2.703260 -56.144743 49.427547
v -1.850543 -62.334123 46.123519
v -1.296292 -55.325093 49.286127
v -0.758797 -56.622124 42.813668
v -0.678901 -55.316334 43.434124
v -0.336832 -62.290378 45.567961
v -0.296376 -57.743707 42.051759
v -0.068708 -53.995481 43.833480
v 0.000000 -4.602414 0.000000
v 0.000000 -4.252076 -1.533688
v 0.000000 -4.252076 1.533688
v 0.000000 -3.500000 0.000000
v 0.000000 -3.254398 -2.833886
v 0.000000 -3.254398 2.833886
v 0.000000 -2.831559 -2.057248
v 0.000000 -2.831559 2.057248
v 0.000000 -1.761268 -3.702650
v 0.000000 -1.761268 3.702650
v 0.000000 -1.081560 -3.328698
v 0.000000 -1.081560 3.328698
v 0.000000 0.000000 -4.007720
v 0.000000 0.000000 4.007720
v 0.000000 1.081560 -3.328698
v 0.000000 1.081560 3.328698
v 0.000000 1.761268 -3.702650
v 0.000000 1.761268 3.702650
v 0.000000 2.831559 -2.057248
v 0.000000 2.831559 2.057248
v 0.000000 3.254398 -2.833886
v 0.000000 3.254398 2.833886
v 0.000000 3.500000 0.000000
v 0.000000 4.252076 -1.533688
v 0.000000 4.252076 1.533688
v 0.000000 4.602414 0.000000
v 0.244868 -54.930329 48.889070
v 0.642836 -58.543296 41.245761
v 0.992214 -52.828231 43.961453
v 1.186867 -61.776185 45.235043
v 1.724808 -55.005560 48.289108
v 1.942959 -58.915329 40.498581
v 2.369331 -51.962686 43.801770
v 2.530818 -60.865803 45.161300
v 2.652175 -53.233352 37.484903
v 2.701313 -51.942902 38.139982
v 2.950585 -55.547962 47.561097
v 3.132868 -54.314227 36.676438
v 3.159907 -8.311571 2.614877
v 3.163076 -7.295555 3.730306
v 3.193628 -8.808562 1.255354
v 3.202614 -5.891852 4.460014
v 3.259988 -8.720529 -0.172983
v 3.272269 -50.610113 38.557589
v 3.273509 -4.278492 4.711375
v 3.350221 -8.066741 -1.490383
v 3.366772 -2.662606 4.449553
v 3.439109 -58.812876 39.904854
v 3.452986 -6.925643 -2.526903
v 3.470422 -1.247594 3.713028
v 3.520258 -59.671717 45.359159
v 3.555257 -5.442030 -3.151360
v 3.571164 -0.220034 2.590368
v 3.623967 -57.390194 46.991901
v 3.643619 -3.807175 -3.277921
v 3.689318 0.341480 0.520732
v 3.707387 -2.227733 -2.901740
v 3.731464 -0.017052 -0.871263
v 3.738083 -0.907317 -2.065441
v 3.886530 -51.512046 43.373590
v 3.994650 -57.052693 46.439095
v 4.025375 -58.343582 45.806031
v 4.075754 -55.053191 35.817935
v 4.290514 -49.405270 38.685164
v 4.936967 -58.244824 39.543903
v 4.946718 -1.211688 0.781047
v 5.351351 -51.528568 42.733703
v 5.364343 -55.352263 35.018985
v 5.626925 -48.481236 38.506482
v 5.791273 -12.279240 3.747537
v 5.802998 -11.213485 4.815484
v 5.857521 -12.840945 2.414668
v 5.890954 -9.781319 5.483010
v 5.993412 -12.824268 0.988639
v 6.043994 -8.164389 5.665373
v 6.180952 -12.239453 -0.350744
v 6.242695 -6.570408 5.336608
v 6.250191 -57.292023 39.455531
v 6.396590 -11.156079 -1.430952
v 6.435303 -48.643975 30.877278
v 6.436111 -47.385144 31.592863
v 6.461558 -5.199748 4.543598
v 6.572943 -52.016993 41.962008
v 6.612995 -9.711635 -2.115255
v 6.672481 -4.233560 3.382395
v 6.801794 -8.092079 -2.310126
v 6.835220 -55.173764 34.380774
v 6.916527 -3.777834 1.297829
v 6.940247 -49.650831 29.991798
v 6.940109 -6.502687 -2.002040
v 6.940974 -46.037636 32.046716
v 7.000689 -4.203454 -0.073206
v 7.009590 -5.148060 -1.224866
v 7.110654 -47.958655 38.043063
v 7.207911 -56.072540 39.654198
v 7.631553 -53.464131 40.779753
v 7.684355 -54.739442 40.117364
v 7.880610 -50.283241 29.049654
v 7.883855 -44.773746 32.181723
v 7.916884 -16.047250 5.122201
v 7.943870 -14.930497 6.136405
v 8.012770 -16.680019 3.823418
v 8.089896 -13.473849 6.737453
v 8.219501 -16.745334 2.407343
v 8.297249 -54.536524 33.988535
v 8.336453 -11.862059 6.849037
v 8.509636 -16.243021 1.052876
v 8.553374 -47.898974 37.356300
v 8.652231 -10.302329 6.454304
v 8.846773 -15.232091 -0.065758
v 8.996739 -8.990403 5.608385
v 9.035438 -6.767846 2.041661
v 9.139971 -50.456581 28.171086
v 9.145192 -43.753834 31.980712
v 9.188178 -13.840855 -0.806951
v 9.311371 -42.598696 25.505443
v 9.325700 -8.100175 4.414392
v 9.363251 -43.805704 24.707358
v 9.489121 -12.248113 -1.069891
v 9.562213 -19.617716 6.716759
v 9.568775 -53.529849 33.885672
v 9.611760 -18.450636 7.671678
v 9.683529 -20.326509 5.460100
v 9.700628 -7.768468 2.325860
v 9.713057 -10.656382 -0.832343
v 9.733884 -41.242876 26.015158
v 9.767270 -48.316774 36.532011
v 9.825305 -16.975698 8.203906
v 9.824917 -8.268656 0.983354
v 9.830329 -9.270231 -0.119137
v 9.884304 -44.707136 23.723345
v 9.894553 -50.883799 36.967461
v 9.960536 -20.483780 4.063483
v 10.175779 -15.379983 8.245862
v 10.356368 -20.077620 2.703688
v 10.484220 -52.278905 34.088697
v 10.558631 -50.149102 27.467375
v 10.563824 -43.110733 31.467936
v 10.575358 -39.911799 26.172347
v 10.618645 -13.868788 7.789674
v 10.760003 -22.997620 8.510825
v 10.802697 -45.194464 22.679191
v 10.821406 -19.154751 1.555391
v 10.840071 -21.783090 9.402433
v 10.842367 -49.687443 35.275047
v 10.900224 -23.785098 7.303922
v 10.923203 -50.940990 34.574702
v 11.097170 -12.631403 6.898122
v 11.129513 -20.297899 9.865918
v 11.211934 -37.534554 19.938889
v 11.243272 -24.042201 5.937018
v 11.296704 -17.832336 0.763969
v 11.313426 -38.661442 19.035380
v 11.537731 -36.184757 20.529211
v 11.545264 -26.195302 10.485644
v 11.549786 -11.832429 5.680470
v 11.591636 -18.730433 9.842420
v 11.664805 -24.938457 11.311600
v 11.694933 -27.061615 9.335337
v 11.720030 -16.279963 0.436622
v 11.729094 -38.774340 25.957017
v 11.743349 -23.744226 4.583458
v 11.759017 -34.875107 17.360331
v 11.830415 -39.418788 17.934694
v 11.881527 -35.949223 16.397177
v 11.952080 -49.396524 27.032471
v 11.953766 -29.226663 12.625433
v 11.959511 -42.921319 30.711291
v 12.004462 -45.201287 21.708181
v 12.015258 -32.112849 14.920214
v 12.032191 -33.536747 18.001117
v 12.037449 -23.452756 11.708786
v 12.039870 -14.695750 0.603909
v 12.057525 -11.642557 3.602492
v 12.095282 -27.423978 8.008613
v 12.102394 -30.168574 11.536353
v 12.120724 -27.934797 13.386122
v 12.154180 -33.124774 13.894383
v 12.167675 -17.282537 9.332530
v 12.213939 -13.282930 1.249960
v 12.218583 -12.223562 2.297008
v 12.234484 -30.793700 15.618405
v 12.247882 -34.785066 20.731969
v 12.311244 -12.098428 3.771691
v 12.337835 -22.924106 3.416895
v 12.385105 -36.619165 15.235363
v 12.481265 -47.392697 32.162347
v 12.548360 -30.637445 10.258875
v 12.580961 -26.458991 13.722345
v 12.615951 -21.926656 11.626755
v 12.634391 -33.697460 12.672715
v 12.664928 -32.105827 18.238750
v 12.692332 -39.717011 16.777382
v 12.692665 -27.244141 6.674023
v 12.782743 -29.336696 15.900857
v 12.783906 -16.135156 8.405660
v 12.951372 -21.685987 2.585032
v 13.047786 -37.978241 25.395086
v 13.147552 -48.302197 26.914585
v 13.150809 -43.216867 29.805357
v 13.201348 -36.806777 14.023111
v 13.231649 -30.581264 8.955553
v 13.252342 -33.513050 20.521393
v 13.276126 -24.986453 13.591388
v 13.326700 -20.556877 11.073686
v 13.337216 -44.726968 20.933301
v 13.360958 -15.441608 7.175928
v 13.390971 -33.765421 11.410885
v 13.412368 -26.540015 5.502583
v 13.503684 -20.188227 2.200159
v 13.577005 -30.763872 18.043027
v 13.590523 -27.926660 15.731679
v 13.791955 -39.513521 15.711272
v 13.927416 -18.622802 2.300365
v 13.989158 -47.002864 27.132478
v 13.997231 -15.408599 5.124959
v 14.066919 -30.002248 7.793227
v 14.078815 -19.514132 10.124261
v 14.117700 -23.707211 13.007809
v 14.163157 -25.401049 4.642628
v 14.166648 -17.190120 2.878293
v 14.189022 -16.074398 3.864861
v 14.228580 -36.483433 12.915349
v 14.242182 -44.451270 28.427246
v 14.329553 -33.315158 10.270277
v 14.363688 -37.620022 24.561009
v 14.365966 -45.662389 27.661636
v 14.422977 -32.533484 19.922580
v 14.554894 -26.745775 15.130436
v 14.622296 -43.718901 27.541194
v 14.627444 -43.829093 20.458043
v 14.652131 -29.684489 17.437031
v 14.775313 -18.938555 8.895832
v 14.802482 -17.226987 5.964268
v 14.846871 -23.972440 4.209909
v 14.948276 -28.973999 6.919085
v 14.989859 -38.834333 14.871385
v 14.998183 -22.780187 12.049927
v 15.331140 -32.403955 9.395338
v 15.336564 -35.690336 12.052373
v 15.379940 -22.438219 4.248897
v 15.506005 -37.752628 23.559003
v 15.528306 -19.074022 6.889374
v 15.552795 -25.940199 14.177454
v 15.610664 -31.966507 19.015074
v 15.692142 -20.994351 4.759952
v 15.715594 -42.628622 20.334959
v 15.741442 -19.826065 5.682473
v 15.753237 -29.000700 16.501449
v 15.760586 -27.627053 6.450517
v 15.803900 -22.330868 10.836518
v 16.129900 -37.763958 14.370027
v 16.257050 -39.845078 23.138924
v 16.264993 -31.146889 8.903345
v 16.380776 -34.526992 11.549690
v 16.404325 -26.135921 6.436925
v 16.455232 -25.620000 12.991201
v 16.459526 -41.276379 20.583878
v 16.528150 -22.167923 8.609051
v 16.592809 -38.798008 22.029681
v 16.656210 -22.639928 8.890690
v 16.661537 -31.891775 17.912080
v 16.737825 -28.807070 15.352820
v 16.760871 -39.943509 21.176682
v 16.794842 -24.690595 6.885237
v 16.879791 -23.476048 7.742763
v 17.016443 -29.707887 8.847113
v 17.071544 -36.444094 14.262147
v 17.232734 -33.146198 11.461940
v 17.322459 -35.756364 18.996028
v 17.388771 -26.101003 11.118675
v 17.486839 -28.269808 9.238826
v 17.506284 -26.912587 11.683924
v 17.613362 -27.016263 10.032885
v 17.691520 -35.041518 14.566088
v 17.702490 -32.685781 16.209500
v 17.734104 -29.451692 13.562757
v 17.758319 -31.446326 15.160828
v 17.780761 -31.722937 11.805122
v 17.907507 -33.734486 15.247099
v 17.951896 -30.438492 12.539666
vt -0.607062 0.033591 0.000000
vt -0.455297 0.033591 0.000000
vt -0.303531 0.033591 0.000000
vt -0.151766 0.033591 0.000000
vt -0.000000 0.033591 0.000000
vt -0.000000 0.216138 0.000000
vt -0.000000 0.398684 0.000000
vt -0.000000 0.581231 0.000000
vt -0.000000 0.763777 0.000000
vt -0.151766 0.763778 0.000000
vt -0.303531 0.763778 0.000000
vt -0.455297 0.763778 0.000000
vt -0.607054 0.763798 0.000000
vt -0.607062 0.581231 0.000000
vt -0.607062 0.398684 0.000000
vt -0.607062 0.216138 0.000000
vt -0.485536 0.379683 0.000000
vt -0.084337 0.241434 0.000000
vt -0.485536 0.640818 0.000000
vt -0.084337 0.640818 0.000000
vt -0.084337 0.058781 0.000000
vt -0.193934 0.058781 0.000000
vt -0.303531 0.058781 0.000000
vt -0.364010 0.058781 0.000000
vt -0.485536 0.058781 0.000000
vt -0.193934 0.241434 0.000000
vt -0.303531 0.241434 0.000000
vt -0.364010 0.241434 0.000000
vt -0.485536 0.241434 0.000000
vt -0.084337 0.510250 0.000000
vt -0.193934 0.510250 0.000000
vt -0.303531 0.510250 0.000000
vt -0.364010 0.510250 0.000000
vt -0.485536 0.510250 0.000000
vt -0.364010 0.379683 0.000000
vt -0.303531 0.379683 0.000000
vt -0.193934 0.379683 0.000000
vt -0.084337 0.379683 0.000000
vt -0.193934 0.640818 0.000000
vt -0.303531 0.640818 0.000000
vt -0.364010 0.640818 0.000000
vt -0.485536 0.730490 0.000000
vt -0.364010 0.730490 0.000000
vt -0.303531 0.730490 0.000000
vt -0.193934 0.730490 0.000000
vt -0.084337 0.730490 0.000000
vt -0.179074 0.023576 0.000000
vt -0.119381 0.023561 0.000000
vt -0.059688 0.023557 0.000000
vt -0.000000 0.023555 0.000000
vt -0.000000 0.101475 0.000000
vt -0.000000 0.179374 0.000000
vt -0.000000 0.335174 0.000000
vt -0.000000 0.426575 0.000000
vt -0.000000 0.517995 0.000000
vt -0.059689 0.517993 0.000000
vt -0.119381 0.517989 0.000000
vt -0.179074 0.517976 0.000000
vt -0.179074 0.394376 0.000000
vt -0.179074 0.270776 0.000000
vt -0.179074 0.147176 0.000000
vt -0.025836 0.243152 0.000000
vt -0.108215 0.470512 0.000000
vt -0.025836 0.470512 0.000000
vt -0.025836 0.098848 0.000000
vt -0.089537 0.098848 0.000000
vt -0.108215 0.098848 0.000000
vt -0.089537 0.243152 0.000000
vt -0.108215 0.243152 0.000000
vt -0.089537 0.470512 0.000000
vt -0.108215 0.299020 0.000000
vt -0.089537 0.299020 0.000000
vt -0.025836 0.299020 0.000000
vt -0.108215 0.496479 0.000000
vt -0.089537 0.496479 0.000000
vt -0.025836 0.496479 0.000000
vt -0.424487 0.000000 0.000000
vt -0.282992 0.000000 0.000000
vt -0.141496 0.000000 0.000000
vt -0.000000 0.000000 0.000000
vt -0.000000 0.067679 0.000000
vt -0.000000 0.135358 0.000000
vt -0.000000 0.203037 0.000000
vt -0.000000 0.270716 0.000000
vt -0.106106 0.270716 0.000000
vt -0.212215 0.270716 0.000000
vt -0.318373 0.270716 0.000000
vt -0.424487 0.270716 0.000000
vt -0.424487 0.158472 0.000000
vt -0.424487 0.102350 0.000000
vt -0.424487 0.046228 0.000000
vt -0.072487 0.046228 0.000000
vt -0.160487 0.046228 0.000000
vt -0.248487 0.046228 0.000000
vt -0.336487 0.046228 0.000000
vt -0.072487 0.102350 0.000000
vt -0.160487 0.102350 0.000000
vt -0.248487 0.102350 0.000000
vt -0.336487 0.102350 0.000000
vt -0.072487 0.158472 0.000000
vt -0.160487 0.158472 0.000000
vt -0.248487 0.158472 0.000000
vt -0.336487 0.158472 0.000000
vt -0.448656 0.000001 0.000000
vt -0.336511 0.000001 0.000000
vt -0.224309 0.000000 0.000000
vt -0.112164 0.000000 0.000000
vt -0.000000 0.000000 0.000000
vt -0.000000 0.069328 0.000000
vt -0.000000 0.138656 0.000000
vt -0.000000 0.207984 0.000000
vt -0.000000 0.277312 0.000000
vt -0.149553 0.277312 0.000000
vt -0.299104 0.277312 0.000000
vt -0.448656 0.277312 0.000000
vt -0.448656 0.162333 0.000000
vt -0.448656 0.104844 0.000000
vt -0.448656 0.047355 0.000000
vt -0.076614 0.047355 0.000000
vt -0.169624 0.047355 0.000000
vt -0.262635 0.047355 0.000000
vt -0.355646 0.047355 0.000000
vt -0.076614 0.104844 0.000000
vt -0.169624 0.104844 0.000000
vt -0.262635 0.104844 0.000000
vt -0.355646 0.104844 0.000000
vt -0.076614 0.162333 0.000000
vt -0.169624 0.162333 0.000000
vt -0.262635 0.162333 0.000000
vt -0.355646 0.162333 0.000000
vt 2.518125 17.519184 0.000000
vt 2.318713 17.510555 0.000000
vt 2.211376 17.491819 0.000000
vt 2.067123 17.444670 0.000000
vt 1.946599 17.376049 0.000000
vt 1.806726 17.279661 0.000000
vt 1.666518 17.184389 0.000000
vt 1.545666 17.118793 0.000000
vt 1.332388 17.067612 0.000000
vt 1.174902 17.060810 0.000000
vt 1.020863 17.074635 0.000000
vt 0.820905 17.132029 0.000000
vt 0.699217 17.202168 0.000000
vt 0.557286 17.301462 0.000000
vt 0.415026 17.399220 0.000000
vt 0.293041 17.465260 0.000000
vt 0.125471 17.508034 0.000000
vt 0.000000 17.519184 0.000000
vt 0.000000 16.428720 0.000000
vt 0.000000 16.369787 0.000000
vt 0.000000 15.759082 0.000000
vt 0.000000 15.338240 0.000000
vt 0.000000 15.148376 0.000000
vt 0.000000 14.792963 0.000000
vt 0.000000 14.354279 0.000000
vt 0.000000 14.247801 0.000000
vt 0.000000 13.702592 0.000000
vt 0.000000 13.560182 0.000000
vt 0.000000 13.157276 0.000000
vt 0.000000 12.766085 0.000000
vt 0.000000 12.612146 0.000000
vt 0.000000 12.369037 0.000000
vt 0.000000 12.067033 0.000000
vt 0.000000 11.971988 0.000000
vt 0.000000 11.574939 0.000000
vt 0.000000 11.521863 0.000000
vt 0.000000 11.177891 0.000000
vt 0.000000 10.976498 0.000000
vt 0.000000 10.780843 0.000000
vt 0.000000 10.431310 0.000000
vt 0.000000 10.383794 0.000000
vt 0.000000 9.986746 0.000000
vt 0.000000 9.886048 0.000000
vt 0.000000 9.589697 0.000000
vt 0.000000 9.340855 0.000000
vt 0.000000 9.192648 0.000000
vt 0.000000 8.795600 0.000000
vt 0.157383 8.795600 0.000000
vt 0.314766 8.795600 0.000000
vt 0.472148 8.795600 0.000000
vt 0.629531 8.795600 0.000000
vt 0.786914 8.795600 0.000000
vt 0.944297 8.795600 0.000000
vt 1.101680 8.795600 0.000000
vt 1.259062 8.795600 0.000000
vt 1.416445 8.795600 0.000000
vt 1.573828 8.795600 0.000000
vt 1.731211 8.795600 0.000000
vt 1.888594 8.795600 0.000000
vt 2.045976 8.795600 0.000000
vt 2.203359 8.795600 0.000000
vt 2.360742 8.795600 0.000000
vt 2.518125 8.795600 0.000000
vt 2.518125 9.192648 0.000000
vt 2.518125 9.340855 0.000000
vt 2.518125 9.589697 0.000000
vt 2.518125 9.886048 0.000000
vt 2.518125 9.986746 0.000000
vt 2.518125 10.383794 0.000000
vt 2.518125 10.431310 0.000000
vt 2.518125 10.780843 0.000000
vt 2.518125 10.976498 0.000000
vt 2.518125 11.177891 0.000000
vt 2.518125 11.521863 0.000000
vt 2.518125 11.574939 0.000000
vt 2.518125 11.971988 0.000000
vt 2.518125 12.067033 0.000000
vt 2.518125 12.369037 0.000000
vt 2.518125 12.612146 0.000000
vt 2.518125 12.766085 0.000000
vt 2.518125 13.157276 0.000000
vt 2.518125 13.560182 0.000000
vt 2.518125 13.702592 0.000000
vt 2.518125 14.247801 0.000000
vt 2.518125 14.354279 0.000000
vt 2.518125 14.792963 0.000000
vt 2.518125 15.148376 0.000000
vt 2.518125 15.338240 0.000000
vt 2.518125 15.759082 0.000000
vt 2.518125 16.369787 0.000000
vt 2.518125 16.428720 0.000000
vt 0.215001 16.369787 0.000000
vt 0.358947 16.369787 0.000000
vt 0.502892 16.369787 0.000000
vt 0.646837 16.369787 0.000000
vt 0.790782 16.369787 0.000000
vt 0.934727 16.369787 0.000000
vt 1.078673 16.369787 0.000000
vt 1.222618 16.369787 0.000000
vt 1.366563 16.369787 0.000000
vt 1.510508 16.369787 0.000000
vt 1.654453 16.369787 0.000000
vt 1.798399 16.369787 0.000000
vt 1.942344 16.369787 0.000000
vt 2.086289 16.369787 0.000000
vt 2.230234 16.369787 0.000000
vt 2.374180 16.369787 0.000000
vt 0.215001 15.148376 0.000000
vt 0.358947 15.148376 0.000000
vt 0.502892 15.148376 0.000000
vt 0.646837 15.148376 0.000000
vt 0.790782 15.148376 0.000000
vt 0.934727 15.148376 0.000000
vt 1.078673 15.148376 0.000000
vt 1.222618 15.148376 0.000000
vt 1.366563 15.148376 0.000000
vt 1.510508 15.148376 0.000000
vt 1.654453 15.148376 0.000000
vt 1.798399 15.148376 0.000000
vt 1.942344 15.148376 0.000000
vt 2.086289 15.148376 0.000000
vt 2.230234 15.148376 0.000000
vt 2.374180 15.148376 0.000000
vt 2.374180 15.759082 0.000000
vt 2.230234 15.759082 0.000000
vt 2.086289 15.759082 0.000000
vt 1.942344 15.759082 0.000000
vt 1.798399 15.759082 0.000000
vt 1.654453 15.759082 0.000000
vt 1.510508 15.759082 0.000000
vt 1.366563 15.759082 0.000000
vt 1.222618 15.759082 0.000000
vt 1.078673 15.759082 0.000000
vt 0.934727 15.759082 0.000000
vt 0.790782 15.759082 0.000000
vt 0.646837 15.759082 0.000000
vt 0.502892 15.759082 0.000000
vt 0.358947 15.759082 0.000000
vt 0.215001 15.759082 0.000000
vt 0.215001 14.354279 0.000000
vt 0.358947 14.354279 0.000000
vt 0.502892 14.354279 0.000000
vt 0.646837 14.354279 0.000000
vt 0.790782 14.354279 0.000000
vt 0.934727 14.354279 0.000000
vt 1.078673 14.354279 0.000000
vt 1.222618 14.354279 0.000000
vt 1.366563 14.354279 0.000000
vt 1.510508 14.354279 0.000000
vt 1.654453 14.354279 0.000000
vt 1.798399 14.354279 0.000000
vt 1.942344 14.354279 0.000000
vt 2.086289 14.354279 0.000000
vt 2.230234 14.354279 0.000000
vt 2.374180 14.354279 0.000000
vt 0.215001 13.560182 0.000000
vt 0.358947 13.560182 0.000000
vt 0.502892 13.560182 0.000000
vt 0.646837 13.560182 0.000000
vt 0.790782 13.560182 0.000000
vt 0.934727 13.560182 0.000000
vt 1.078673 13.560182 0.000000
vt 1.222618 13.560182 0.000000
vt 1.366563 13.560182 0.000000
vt 1.510508 13.560182 0.000000
vt 1.654453 13.560182 0.000000
vt 1.798399 13.560182 0.000000
vt 1.942344 13.560182 0.000000
vt 2.086289 13.560182 0.000000
vt 2.230234 13.560182 0.000000
vt 2.374180 13.560182 0.000000
vt 0.215001 12.766085 0.000000
vt 0.358947 12.766085 0.000000
vt 0.502892 12.766085 0.000000
vt 0.646837 12.766085 0.000000
vt 0.790782 12.766085 0.000000
vt 0.934727 12.766085 0.000000
vt 1.078673 12.766085 0.000000
vt 1.222618 12.766085 0.000000
vt 1.366563 12.766085 0.000000
vt 1.510508 12.766085 0.000000
vt 1.654453 12.766085 0.000000
vt 1.798399 12.766085 0.000000
vt 1.942344 12.766085 0.000000
vt 2.086289 12.766085 0.000000
vt 2.230234 12.766085 0.000000
vt 2.374180 12.766085 0.000000
vt 0.215001 12.369037 0.000000
vt 0.358947 12.369037 0.000000
vt 0.502892 12.369037 0.000000
vt 0.646837 12.369037 0.000000
vt 0.790782 12.369037 0.000000
vt 0.934727 12.369037 0.000000
vt 1.078673 12.369037 0.000000
vt 1.222618 12.369037 0.000000
vt 1.366563 12.369037 0.000000
vt 1.510508 12.369037 0.000000
vt 1.654453 12.369037 0.000000
vt 1.798399 12.369037 0.000000
vt 1.942344 12.369037 0.000000
vt 2.086289 12.369037 0.000000
vt 2.230234 12.369037 0.000000
vt 2.374180 12.369037 0.000000
vt 0.215001 11.971988 0.000000
vt 0.358947 11.971988 0.000000
vt 0.502892 11.971988 0.000000
vt 0.646837 11.971988 0.000000
vt 0.790782 11.971988 0.000000
vt 0.934727 11.971988 0.000000
vt 1.078673 11.971988 0.000000
vt 1.222618 11.971988 0.000000
vt 1.366563 11.971988 0.000000
vt 1.510508 11.971988 0.000000
vt 1.654453 11.971988 0.000000
vt 1.798399 11.971988 0.000000
vt 1.942344 11.971988 0.000000
vt 2.086289 11.971988 0.000000
vt 2.230234 11.971988 0.000000
vt 2.374180 11.971988 0.000000
vt 0.215001 11.177891 0.000000
vt 0.358947 11.177891 0.000000
vt 0.502892 11.177891 0.000000
vt 0.646837 11.177891 0.000000
vt 0.790782 11.177891 0.000000
vt 0.934727 11.177891 0.000000
vt 1.078673 11.177891 0.000000
vt 1.222618 11.177891 0.000000
vt 1.366563 11.177891 0.000000
vt 1.510508 11.177891 0.000000
vt 1.654453 11.177891 0.000000
vt 1.798399 11.177891 0.000000
vt 1.942344 11.177891 0.000000
vt 2.086289 11.177891 0.000000
vt 2.230234 11.177891 0.000000
vt 2.374180 11.177891 0.000000
vt 2.374180 11.574939 0.000000
vt 2.230234 11.574939 0.000000
vt 2.086289 11.574939 0.000000
vt 1.942344 11.574939 0.000000
vt 1.798399 11.574939 0.000000
vt 1.654453 11.574939 0.000000
vt 1.510508 11.574939 0.000000
vt 1.366563 11.574939 0.000000
vt 1.222618 11.574939 0.000000
vt 1.078673 11.574939 0.000000
vt 0.934727 11.574939 0.000000
vt 0.790782 11.574939 0.000000
vt 0.646837 11.574939 0.000000
vt 0.502892 11.574939 0.000000
vt 0.358947 11.574939 0.000000
vt 0.215001 11.574939 0.000000
vt 0.215001 10.780843 0.000000
vt 0.358947 10.780843 0.000000
vt 0.502892 10.780843 0.000000
vt 0.646837 10.780843 0.000000
vt 0.790782 10.780843 0.000000
vt 0.934727 10.780843 0.000000
vt 1.078673 10.780843 0.000000
vt 1.222618 10.780843 0.000000
vt 1.366563 10.780843 0.000000
vt 1.510508 10.780843 0.000000
vt 1.654453 10.780843 0.000000
vt 1.798399 10.780843 0.000000
vt 1.942344 10.780843 0.000000
vt 2.086289 10.780843 0.000000
vt 2.230234 10.780843 0.000000
vt 2.374180 10.780843 0.000000
vt 0.215001 10.383794 0.000000
vt 0.358947 10.383794 0.000000
vt 0.502892 10.383794 0.000000
vt 0.646837 10.383794 0.000000
vt 0.790782 10.383794 0.000000
vt 0.934727 10.383794 0.000000
vt 1.078673 10.383794 0.000000
vt 1.222618 10.383794 0.000000
vt 1.366563 10.383794 0.000000
vt 1.510508 10.383794 0.000000
vt 1.654453 10.383794 0.000000
vt 1.798399 10.383794 0.000000
vt 1.942344 10.383794 0.000000
vt 2.086289 10.383794 0.000000
vt 2.230234 10.383794 0.000000
vt 2.374180 10.383794 0.000000
vt 0.215001 9.589697 0.000000
vt 0.358947 9.589697 0.000000
vt 0.502892 9.589697 0.000000
vt 0.646837 9.589697 0.000000
vt 0.790782 9.589697 0.000000
vt 0.934727 9.589697 0.000000
vt 1.078673 9.589697 0.000000
vt 1.222618 9.589697 0.000000
vt 1.366563 9.589697 0.000000
vt 1.510508 9.589697 0.000000
vt 1.654453 9.589697 0.000000
vt 1.798399 9.589697 0.000000
vt 1.942344 9.589697 0.000000
vt 2.086289 9.589697 0.000000
vt 2.230234 9.589697 0.000000
vt 2.374180 9.589697 0.000000
vt 2.374180 9.986746 0.000000
vt 2.230234 9.986746 0.000000
vt 2.086289 9.986746 0.000000
vt 1.942344 9.986746 0.000000
vt 1.798399 9.986746 0.000000
vt 1.654453 9.986746 0.000000
vt 1.510508 9.986746 0.000000
vt 1.366563 9.986746 0.000000
vt 1.222618 9.986746 0.000000
vt 1.078673 9.986746 0.000000
vt 0.934727 9.986746 0.000000
vt 0.790782 9.986746 0.000000
vt 0.646837 9.986746 0.000000
vt 0.502892 9.986746 0.000000
vt 0.358947 9.986746 0.000000
vt 0.215001 9.986746 0.000000
vt 0.215001 9.192648 0.000000
vt 0.358947 9.192648 0.000000
vt 0.502892 9.192648 0.000000
vt 0.646837 9.192648 0.000000
vt 0.790782 9.192648 0.000000
vt 0.934727 9.192648 0.000000
vt 1.078673 9.192648 0.000000
vt 1.222618 9.192648 0.000000
vt 1.366563 9.192648 0.000000
vt 1.510508 9.192648 0.000000
vt 1.654453 9.192648 0.000000
vt 1.798399 9.192648 0.000000
vt 1.942344 9.192648 0.000000
vt 2.086289 9.192648 0.000000
vt 2.230234 9.192648 0.000000
vt 2.374180 9.192648 0.000000
vt -0.105430 0.322882 0.000000
vt -0.052000 0.259350 0.000000
vt 0.023195 0.223597 0.000000
vt 0.106358 0.221832 0.000000
vt 0.180213 0.258957 0.000000
vt 0.128098 0.324750 0.000000
vt 0.052448 0.361560 0.000000
vt -0.031596 0.362254 0.000000
vt -0.000000 0.460241 0.000000
vt -0.153369 0.425208 0.000000
vt -0.283389 0.325440 0.000000
vt -0.370265 0.176127 0.000000
vt -0.400772 0.000000 0.000000
vt -0.370265 -0.176127 0.000000
vt -0.283389 -0.325440 0.000000
vt -0.153369 -0.425208 0.000000
vt -0.000000 -0.460241 0.000000
vt 0.153369 -0.425208 0.000000
vt 0.283389 -0.325440 0.000000
vt 0.370265 -0.176127 0.000000
vt 0.400772 0.000000 0.000000
vt 0.370265 0.176127 0.000000
vt 0.283389 0.325440 0.000000
vt 0.153369 0.425208 0.000000
vt -0.000000 0.350000 0.000000
vt 0.205725 0.283156 0.000000
vt 0.332870 0.108156 0.000000
vt 0.332870 -0.108156 0.000000
vt 0.205725 -0.283156 0.000000
vt -0.000000 -0.350000 0.000000
vt -0.205725 -0.283156 0.000000
vt -0.332870 -0.108156 0.000000
vt -0.332870 0.108156 0.000000
vt -0.205725 0.283156 0.000000
vt -1.000000 0.000000 0.000000
vt -1.000000 -0.219911 0.000000
vt -1.000000 -0.439823 0.000000
vt -1.000000 -0.659734 0.000000
vt -1.000000 -0.879646 0.000000
vt -1.000000 1.099557 0.000000
vt -1.000000 0.879646 0.000000
vt -1.000000 0.659734 0.000000
vt -1.000000 0.439823 0.000000
vt -1.000000 0.219911 0.000000
vt -0.000000 0.000000 0.000000
vt -0.000000 0.219911 0.000000
vt -0.000000 0.439823 0.000000
vt -0.000000 0.659734 0.000000
vt -0.000000 0.879646 0.000000
vt -0.000000 -1.099557 0.000000
vt -0.000000 -0.879646 0.000000
vt -0.000000 -0.659734 0.000000
vt -0.000000 -0.439823 0.000000
vt -0.000000 -0.219911 0.000000
vt -0.000000 1.099557 0.000000
vt -1.000000 -1.099557 0.000000
vt -0.000000 0.350000 0.000000
vt -0.205725 0.283156 0.000000
vt -0.332870 0.108156 0.000000
vt -0.332870 -0.108156 0.000000
vt -0.205725 -0.283156 0.000000
vt -0.000000 -0.350000 0.000000
vt 0.205725 -0.283156 0.000000
vt 0.332870 -0.108156 0.000000
vt 0.332870 0.108156 0.000000
vt 0.205725 0.283156 0.000000
vn -0.058898 -0.043661 -0.068006
vn -0.054600 -0.079187 -0.027354
vn -0.034294 -0.091487 0.021310
vn -0.003935 -0.076963 0.063728
vn 0.027580 -0.039863 0.087466
vn 0.027580 -0.039863 0.087466
vn 0.027580 -0.039863 0.087466
vn 0.027580 -0.039863 0.087466
vn 0.027580 -0.039863 0.087466
vn -0.005557 -0.001152 0.099839
vn -0.037159 0.037872 0.084764
vn -0.058543 0.066489 0.046389
vn -0.063819 0.076842 -0.004738
vn -0.080935 0.048198 -0.033562
vn -0.083731 0.024304 -0.048974
vn -0.079592 -0.002144 -0.060503
vn -0.099534 0.002538 -0.009299
vn -0.003636 -0.051418 0.085691
vn -0.085131 0.049362 0.017778
vn 0.000740 -0.025259 0.096754
vn 0.007478 -0.061772 0.078284
vn -0.019531 -0.081158 0.055063
vn -0.043203 -0.087182 0.023083
vn -0.053541 -0.084394 0.003328
vn -0.065718 -0.066339 -0.035781
vn -0.043315 -0.057790 0.069168
vn -0.074595 -0.053317 0.039911
vn -0.086288 -0.046409 0.020015
vn -0.094260 -0.025013 -0.022123
vn -0.004101 -0.033091 0.094277
vn -0.044311 -0.018905 0.087631
vn -0.076043 -0.001371 0.064928
vn -0.087949 0.008709 0.046789
vn -0.096255 0.026872 0.003580
vn -0.092402 -0.017359 0.034066
vn -0.080489 -0.026038 0.053325
vn -0.047823 -0.037497 0.079416
vn -0.005766 -0.041913 0.090609
vn -0.034011 -0.002518 0.094005
vn -0.062689 0.020452 0.075179
vn -0.074258 0.031947 0.058866
vn -0.070100 0.064571 0.030275
vn -0.057148 0.046291 0.067759
vn -0.046357 0.033598 0.081989
vn -0.021734 0.007153 0.097347
vn 0.006425 -0.020618 0.097640
vn 0.027580 -0.039863 0.087466
vn 0.044719 -0.060767 0.065632
vn 0.056444 -0.074330 0.035903
vn 0.061379 -0.078926 0.001814
vn 0.077075 -0.058875 0.024355
vn 0.082363 -0.042686 0.037340
vn 0.082540 -0.010214 0.055523
vn 0.076327 0.012205 0.063445
vn 0.057767 0.045195 0.067973
vn 0.052689 0.017636 0.083143
vn 0.042282 -0.011695 0.089864
vn 0.027580 -0.039863 0.087466
vn 0.027580 -0.039863 0.087466
vn 0.027580 -0.039863 0.087466
vn 0.027580 -0.039863 0.087466
vn 0.077858 -0.032324 0.053789
vn 0.048693 -0.014831 0.086076
vn 0.066519 0.016112 0.072909
vn 0.072449 -0.059176 0.035347
vn 0.057286 -0.054604 0.061129
vn 0.051772 -0.052282 0.067722
vn 0.059582 -0.037205 0.071174
vn 0.053416 -0.038180 0.075425
vn 0.053467 -0.007844 0.084141
vn 0.053170 -0.033167 0.077929
vn 0.059294 -0.030940 0.074344
vn 0.077521 -0.022140 0.059164
vn 0.046936 -0.010703 0.087650
vn 0.051170 -0.002644 0.085876
vn 0.062105 0.024588 0.074420
vn 0.027581 -0.039861 0.087466
vn 0.042238 -0.011705 0.089883
vn 0.052595 0.017661 0.083197
vn 0.057712 0.045233 0.067995
vn 0.033743 0.069401 0.063600
vn -0.003673 0.088788 0.045862
vn -0.042287 0.088741 0.018356
vn -0.063863 0.076805 -0.004741
vn -0.058571 0.066487 0.046356
vn -0.036712 0.038566 0.084646
vn -0.005446 -0.001467 0.099841
vn 0.027579 -0.039860 0.087468
vn 0.027580 -0.039860 0.087467
vn 0.027580 -0.039861 0.087467
vn 0.027580 -0.039861 0.087467
vn 0.039366 0.047179 0.078895
vn 0.034965 0.027023 0.089706
vn 0.031997 0.005132 0.094604
vn 0.028867 -0.017948 0.094046
vn 0.012055 0.064895 0.075122
vn 0.013783 0.040704 0.090295
vn 0.019178 0.014815 0.097019
vn 0.023686 -0.013422 0.096223
vn -0.017194 0.076429 0.062153
vn -0.008491 0.051261 0.085441
vn 0.005664 0.022871 0.097185
vn 0.018542 -0.009304 0.097824
vn 0.027579 -0.039866 0.087465
vn -0.003838 -0.076734 0.064010
vn -0.033697 -0.091865 0.020623
vn -0.054585 -0.079181 -0.027400
vn -0.058882 -0.043669 -0.068014
vn -0.035450 -0.068064 -0.064114
vn 0.001261 -0.087925 -0.047619
vn 0.039114 -0.089613 -0.020968
vn 0.061379 -0.078927 0.001801
vn 0.056366 -0.074378 0.035927
vn 0.044681 -0.060765 0.065660
vn 0.027581 -0.039864 0.087465
vn 0.027580 -0.039865 0.087465
vn 0.027580 -0.039865 0.087465
vn 0.027579 -0.039866 0.087465
vn -0.045427 -0.080219 -0.038748
vn -0.035167 -0.093602 0.001412
vn -0.015256 -0.090883 0.038826
vn 0.007827 -0.071151 0.069830
vn -0.017365 -0.094047 -0.029216
vn -0.009173 -0.099231 0.008310
vn 0.005250 -0.090922 0.041300
vn 0.018491 -0.069526 0.069456
vn 0.012197 -0.098490 -0.012290
vn 0.014208 -0.097003 0.019714
vn 0.019955 -0.085777 0.047373
vn 0.024280 -0.065607 0.071458
vn 0.082549 -0.010240 0.055505
vn 0.082374 -0.042597 0.037417
vn 0.077020 -0.058909 0.024447
vn 0.061101 -0.079149 0.001476
vn 0.039001 -0.089699 -0.020809
vn 0.001788 -0.087966 -0.047527
vn -0.035303 -0.068163 -0.064090
vn -0.059078 -0.043406 -0.068013
vn -0.079509 -0.002446 -0.060600
vn -0.083733 0.024309 -0.048968
vn -0.080919 0.048270 -0.033499
vn -0.063768 0.076892 -0.004615
vn -0.041891 0.088925 0.018372
vn -0.004236 0.088618 0.046141
vn 0.033488 0.069578 0.063541
vn 0.057889 0.045001 0.067998
vn 0.076299 0.012325 0.063455
vn 0.082549 -0.010240 0.055505
vn 0.084946 -0.008270 0.052114
vn 0.085100 -0.008131 0.051884
vn 0.086833 -0.006410 0.049183
vn 0.088154 -0.004834 0.046963
vn 0.088777 -0.003998 0.045855
vn 0.089976 -0.002215 0.043582
vn 0.091482 0.000419 0.040384
vn 0.091844 0.001138 0.039539
vn 0.093609 0.005390 0.034761
vn 0.094023 0.006668 0.033394
vn 0.095009 0.010695 0.029308
vn 0.095589 0.015246 0.025107
vn 0.095682 0.017218 0.023420
vn 0.095642 0.020541 0.020751
vn 0.095244 0.024929 0.017525
vn 0.095036 0.026352 0.016548
vn 0.093734 0.032436 0.012722
vn 0.093509 0.033259 0.012245
vn 0.091779 0.038588 0.009363
vn 0.090568 0.041665 0.007839
vn 0.089290 0.044557 0.006483
vn 0.086794 0.049471 0.004399
vn 0.086438 0.050113 0.004151
vn 0.083360 0.055184 0.002419
vn 0.082564 0.056381 0.002074
vn 0.080214 0.059701 0.001234
vn 0.078252 0.062258 0.000705
vn 0.077101 0.063680 0.000457
vn 0.074123 0.067125 0.000000
vn 0.069180 0.065199 0.031036
vn 0.054606 0.055072 0.063129
vn 0.025268 0.032860 0.091004
vn -0.016051 -0.000111 0.098703
vn -0.050290 -0.029199 0.081353
vn -0.069350 -0.047341 0.054308
vn -0.077256 -0.057361 0.027225
vn -0.077996 -0.062583 -0.000008
vn -0.071633 -0.063004 -0.029987
vn -0.054801 -0.054984 -0.063037
vn -0.023788 -0.033042 -0.091336
vn 0.015145 0.000449 -0.098845
vn 0.044939 0.030042 -0.084130
vn 0.063479 0.050930 -0.058109
vn 0.072188 0.062456 -0.029802
vn 0.074123 0.067125 0.000000
vn 0.077101 0.063680 0.000457
vn 0.078252 0.062258 0.000705
vn 0.080214 0.059701 0.001234
vn 0.082564 0.056381 0.002074
vn 0.083360 0.055184 0.002419
vn 0.086438 0.050113 0.004151
vn 0.086794 0.049471 0.004399
vn 0.089290 0.044557 0.006483
vn 0.090568 0.041665 0.007839
vn 0.091779 0.038588 0.009363
vn 0.093509 0.033259 0.012245
vn 0.093734 0.032436 0.012722
vn 0.095036 0.026352 0.016548
vn 0.095244 0.024929 0.017525
vn 0.095642 0.020541 0.020751
vn 0.095682 0.017218 0.023420
vn 0.095589 0.015246 0.025107
vn 0.095009 0.010695 0.029308
vn 0.094023 0.006668 0.033394
vn 0.093609 0.005390 0.034761
vn 0.091844 0.001138 0.039539
vn 0.091482 0.000419 0.040384
vn 0.089976 -0.002215 0.043582
vn 0.088777 -0.003998 0.045855
vn 0.088154 -0.004834 0.046963
vn 0.086833 -0.006410 0.049183
vn 0.085100 -0.008131 0.051884
vn 0.084946 -0.008270 0.052114
vn 0.069550 0.030241 0.065179
vn 0.045867 0.058769 0.066651
vn 0.010010 0.082137 0.056155
vn -0.031320 0.089553 0.031610
vn -0.061476 0.078792 0.003531
vn -0.077939 0.059339 -0.020107
vn -0.084517 0.037952 -0.037637
vn -0.084674 0.015560 -0.050874
vn -0.078705 -0.009304 -0.060983
vn -0.064804 -0.036482 -0.066855
vn -0.037852 -0.065747 -0.065150
vn 0.000739 -0.086142 -0.050783
vn 0.040354 -0.087929 -0.025298
vn 0.066744 -0.074466 0.000016
vn 0.081503 -0.053583 0.022050
vn 0.086658 -0.031707 0.038537
vn 0.071164 0.032268 0.062405
vn 0.045704 0.058569 0.066939
vn 0.007831 0.079727 0.059852
vn -0.035495 0.085532 0.037740
vn -0.066480 0.073997 0.010240
vn -0.082651 0.054606 -0.013673
vn -0.088566 0.033880 -0.031751
vn -0.088030 0.012403 -0.045791
vn -0.081233 -0.011457 -0.057183
vn -0.066078 -0.037544 -0.064993
vn -0.037096 -0.065196 -0.066132
vn 0.003618 -0.083405 -0.055051
vn 0.044565 -0.083427 -0.032465
vn 0.071535 -0.069348 -0.008574
vn 0.086427 -0.048463 0.013484
vn 0.091216 -0.026888 0.030929
vn 0.088784 -0.029706 0.035143
vn 0.083783 -0.051457 0.018238
vn 0.068946 -0.072333 -0.003799
vn 0.042267 -0.086042 -0.028465
vn 0.002016 -0.084998 -0.052643
vn -0.037556 -0.065521 -0.065547
vn -0.065430 -0.036923 -0.065997
vn -0.079895 -0.010195 -0.059270
vn -0.086230 0.014245 -0.048594
vn -0.086376 0.036245 -0.035007
vn -0.080085 0.057350 -0.017247
vn -0.063740 0.076779 0.006491
vn -0.033202 0.087871 0.034297
vn 0.009046 0.081126 0.057764
vn 0.045841 0.058678 0.066749
vn 0.070345 0.031084 0.063917
vn 0.072232 0.034341 0.060027
vn 0.045424 0.058277 0.067383
vn 0.005979 0.077087 0.063419
vn -0.039001 0.081159 0.043498
vn -0.070635 0.068852 0.016435
vn -0.086475 0.049611 -0.007795
vn -0.091798 0.029611 -0.026389
vn -0.090684 0.009074 -0.041158
vn -0.083202 -0.013763 -0.053741
vn -0.066977 -0.038681 -0.063387
vn -0.036284 -0.064534 -0.067222
vn 0.006074 -0.080362 -0.059203
vn 0.047910 -0.078505 -0.039262
vn 0.075234 -0.063741 -0.016638
vn 0.090189 -0.042844 0.005498
vn 0.094657 -0.021644 0.023908
vn 0.073263 0.037093 0.057068
vn 0.045255 0.057627 0.068053
vn 0.004293 0.073054 0.068152
vn -0.042555 0.074660 0.051136
vn -0.075008 0.061392 0.024593
vn -0.090509 0.042523 -0.000119
vn -0.095213 0.023628 -0.019396
vn -0.093533 0.004429 -0.035100
vn -0.085371 -0.016956 -0.049237
vn -0.068010 -0.040164 -0.061331
vn -0.035464 -0.063360 -0.068759
vn 0.008540 -0.075774 -0.064695
vn 0.051094 -0.071263 -0.048072
vn 0.078662 -0.055509 -0.027037
vn 0.093690 -0.034630 -0.004802
vn 0.097882 -0.014071 0.014872
vn 0.073950 0.040758 0.053574
vn 0.045286 0.056645 0.068852
vn 0.003273 0.067301 0.073891
vn -0.045319 0.065319 0.060660
vn -0.078732 0.050802 0.034934
vn -0.094053 0.032570 0.009658
vn -0.098281 0.015189 -0.010491
vn -0.096149 -0.002226 -0.027394
vn -0.087409 -0.021573 -0.043523
vn -0.069033 -0.042201 -0.058766
vn -0.034879 -0.061434 -0.070777
vn 0.010343 -0.069081 -0.071560
vn 0.053179 -0.060979 -0.058767
vn 0.080745 -0.043838 -0.039477
vn 0.095807 -0.023016 -0.017067
vn 0.099854 -0.003488 0.004132
vn 0.073964 0.043021 0.051754
vn 0.045320 0.056073 0.069296
vn 0.003138 0.063730 0.076998
vn -0.046091 0.059408 0.065926
vn -0.079971 0.044102 0.040739
vn -0.095285 0.026279 0.015169
vn -0.099368 0.009804 -0.005473
vn -0.097084 -0.006542 -0.023063
vn -0.088137 -0.024610 -0.040325
vn -0.069386 -0.043539 -0.057358
vn -0.034679 -0.060181 -0.071941
vn 0.010809 -0.064846 -0.075353
vn 0.053481 -0.054542 -0.064536
vn 0.080870 -0.036532 -0.046103
vn 0.095899 -0.015752 -0.023564
vn 0.099940 0.003096 -0.001537
vn 0.073684 0.045491 0.050012
vn 0.045334 0.055454 0.069783
vn 0.003259 0.059730 0.080136
vn -0.046309 0.052645 0.071302
vn -0.080529 0.036398 0.046801
vn -0.095901 0.019010 0.021015
vn -0.099938 0.003505 -0.000140
vn -0.097580 -0.011671 -0.018491
vn -0.088505 -0.028258 -0.036992
vn -0.069524 -0.045148 -0.055929
vn -0.034538 -0.058738 -0.073191
vn 0.010913 -0.060018 -0.079239
vn 0.053185 -0.047257 -0.070272
vn 0.080231 -0.028291 -0.052561
vn 0.095141 -0.007612 -0.029837
vn 0.099211 0.010400 -0.007000
vn 0.072306 0.050611 0.047015
vn 0.045568 0.054003 0.070761
vn 0.004968 0.050762 0.086014
vn -0.043906 0.037269 0.081752
vn -0.078401 0.018717 0.059186
vn -0.094303 0.002033 0.033210
vn -0.098730 -0.011577 0.010883
vn -0.096579 -0.024214 -0.009288
vn -0.087653 -0.037240 -0.030499
vn -0.068987 -0.049038 -0.053256
vn -0.034824 -0.055326 -0.075672
vn 0.009264 -0.049068 -0.086640
vn 0.050101 -0.031057 -0.080780
vn 0.076223 -0.010162 -0.063928
vn 0.090832 0.010064 -0.040598
vn 0.095174 0.026010 -0.016290
vn 0.097615 0.018124 -0.011951
vn 0.093462 0.001092 -0.035547
vn 0.078723 -0.019402 -0.058534
vn 0.052127 -0.039344 -0.075729
vn 0.010465 -0.054706 -0.083052
vn -0.034551 -0.057110 -0.074463
vn -0.069389 -0.047012 -0.054544
vn -0.088368 -0.032525 -0.033663
vn -0.097458 -0.017635 -0.013821
vn -0.099785 -0.003706 0.005412
vn -0.095632 0.010832 0.027150
vn -0.080049 0.027828 0.053082
vn -0.045606 0.045163 0.076684
vn 0.003846 0.055350 0.083196
vn 0.045396 0.054760 0.070289
vn 0.073116 0.048054 0.048425
vn 0.071344 0.053072 0.045754
vn 0.045876 0.053229 0.071148
vn 0.006557 0.046156 0.088468
vn -0.041310 0.029277 0.086234
vn -0.075602 0.009427 0.064773
vn -0.091855 -0.007034 0.038899
vn -0.096704 -0.019773 0.016045
vn -0.094905 -0.031106 -0.005054
vn -0.086376 -0.042166 -0.027592
vn -0.068373 -0.051117 -0.052078
vn -0.035403 -0.053463 -0.076735
vn 0.007312 -0.043322 -0.089832
vn 0.047137 -0.022694 -0.085223
vn 0.072781 -0.000917 -0.068572
vn 0.087333 0.018948 -0.044877
vn 0.091999 0.033732 -0.019959
vn 0.070255 0.055402 0.044664
vn 0.046262 0.052498 0.071441
vn 0.008564 0.041683 0.090494
vn -0.037792 0.021464 0.090062
vn -0.071627 0.000257 0.069782
vn -0.088291 -0.016116 0.044103
vn -0.093715 -0.028071 0.020724
vn -0.092453 -0.038089 -0.001309
vn -0.084570 -0.047104 -0.025084
vn -0.067587 -0.053148 -0.051062
vn -0.036252 -0.051615 -0.077599
vn 0.004804 -0.037736 -0.092482
vn 0.043554 -0.014613 -0.088823
vn 0.068736 0.007933 -0.072197
vn 0.083265 0.027337 -0.048162
vn 0.088334 0.040945 -0.022818
vn 0.067781 0.059484 0.043213
vn 0.047028 0.051176 0.071899
vn 0.013125 0.033609 0.093264
vn -0.029352 0.007374 0.095311
vn -0.061611 -0.016449 0.077029
vn -0.078913 -0.032954 0.051834
vn -0.085651 -0.043623 0.027584
vn -0.085824 -0.051173 0.003957
vn -0.079770 -0.056245 -0.021752
vn -0.065526 -0.056817 -0.049780
vn -0.038304 -0.048232 -0.078781
vn -0.001170 -0.027647 -0.096095
vn 0.035310 -0.000065 -0.093559
vn 0.059719 0.023697 -0.076629
vn 0.074367 0.042042 -0.051981
vn 0.080370 0.053431 -0.026186
vn 0.084391 0.047541 -0.024859
vn 0.078872 0.035078 -0.050485
vn 0.064314 0.016193 -0.074843
vn 0.039547 -0.007013 -0.091580
vn 0.001915 -0.032468 -0.094563
vn -0.037256 -0.049853 -0.078273
vn -0.066627 -0.055064 -0.050288
vn -0.082320 -0.051851 -0.023129
vn -0.089355 -0.044863 0.001712
vn -0.089944 -0.036123 0.024601
vn -0.083871 -0.024860 0.048452
vn -0.066847 -0.008459 0.073891
vn -0.033715 0.014099 0.093083
vn 0.010787 0.037476 0.092083
vn 0.046645 0.051820 0.071686
vn 0.069045 0.057558 0.043816
vn 0.066522 0.061190 0.042786
vn 0.047429 0.050586 0.072052
vn 0.015517 0.030144 0.094077
vn -0.024912 0.001394 0.096837
vn -0.056238 -0.023561 0.079260
vn -0.073743 -0.040187 0.054285
vn -0.081133 -0.050335 0.029728
vn -0.082116 -0.056802 0.005520
vn -0.077128 -0.060141 -0.020838
vn -0.064407 -0.058357 -0.049458
vn -0.039377 -0.046789 -0.079122
vn -0.004313 -0.023354 -0.097139
vn 0.031008 0.006133 -0.094873
vn 0.055101 0.030365 -0.077729
vn 0.069887 0.048191 -0.052853
vn 0.076395 0.058613 -0.026988
vn 0.027580 -0.039863 0.087466
vn 0.027580 -0.039863 0.087466
vn 0.027580 -0.039863 0.087466
vn 0.027580 -0.039863 0.087466
vn 0.027580 -0.039863 0.087466
vn 0.027580 -0.039863 0.087466
vn 0.027580 -0.039863 0.087466
vn 0.027580 -0.039863 0.087466
vn -0.100000 0.000000 0.000000
vn -0.100000 0.000000 0.000000
vn -0.100000 0.000000 0.000000
vn -0.100000 0.000000 0.000000
vn -0.100000 0.000000 0.000000
vn -0.100000 0.000000 0.000000
vn -0.100000 0.000000 0.000000
vn -0.100000 0.000000 0.000000
vn -0.100000 0.000000 0.000000
vn -0.100000 0.000000 0.000000
vn -0.100000 0.000000 0.000000
vn -0.100000 0.000000 0.000000
vn -0.100000 0.000000 0.000000
vn -0.100000 0.000000 0.000000
vn -0.100000 0.000000 0.000000
vn -0.100000 0.000000 0.000000
vn -0.100000 0.000000 0.000000
vn -0.100000 0.000000 0.000000
vn -0.100000 0.000000 0.000000
vn -0.100000 0.000000 0.000000
vn -0.100000 0.000000 0.000000
vn -0.100000 0.000000 0.000000
vn -0.100000 0.000000 0.000000
vn -0.100000 0.000000 0.000000
vn -0.100000 0.000000 0.000000
vn -0.100000 0.000000 0.000000
vn 0.000000 0.100000 0.000000
vn 0.000000 0.080902 0.058779
vn 0.000000 0.030902 0.095106
vn 0.000000 -0.030902 0.095106
vn 0.000000 -0.080902 0.058779
vn 0.000000 -0.100000 0.000000
vn 0.000000 -0.080902 -0.058779
vn 0.000000 -0.030902 -0.095106
vn 0.000000 0.030902 -0.095106
vn 0.000000 0.080902 -0.058779
vn 0.000000 0.100000 0.000000
vn 0.000000 0.080902 -0.058779
vn 0.000000 0.030902 -0.095106
vn 0.000000 -0.030902 -0.095106
vn 0.000000 -0.080902 -0.058779
vn 0.000000 -0.100000 0.000000
vn 0.000000 -0.080902 0.058779
vn 0.000000 -0.030902 0.095106
vn 0.000000 0.030902 0.095106
vn 0.000000 0.080902 0.058779
vn 0.000000 -0.100000 0.000000
vn 0.000000 -0.100000 0.000000
vn -0.100000 0.000000 0.000000
vn -0.100000 0.000000 0.000000
vn -0.100000 0.000000 0.000000
vn -0.100000 0.000000 0.000000
vn -0.100000 0.000000 0.000000
vn -0.100000 0.000000 0.000000
vn -0.100000 0.000000 0.000000
vn -0.100000 0.000000 0.000000
vn -0.100000 0.000000 0.000000
vn -0.100000 0.000000 0.000000
usemtl A5649B429840776B57407337F9B8E1C99B7F8104
f 19/16/16 33/1/1 28/25/25
f 28/25/25 33/1/1 36/2/2
f 28/25/25 36/2/2 35/24/24
f 35/24/24 36/2/2 43/3/3
f 35/24/24 43/3/3 39/23/23
f 39/23/23 43/3/3 50/22/22
f 39/23/23 50/22/22 23/27/27
f 23/27/27 50/22/22 30/26/26
f 23/27/27 30/26/26 18/36/36
f 18/36/36 30/26/26 26/37/37
f 18/36/36 26/37/37 21/32/32
f 21/32/32 26/37/37 29/31/31
f 21/32/32 29/31/31 25/40/40
f 25/40/40 29/31/31 38/39/39
f 25/40/40 38/39/39 37/44/44
f 37/44/44 38/39/39 49/45/45
f 37/44/44 49/45/45 41/11/11
f 41/11/11 49/45/45 57/10/10
f 57/10/10 49/45/45 54/20/20
f 57/10/10 54/20/20 64/46/46
f 64/46/46 54/20/20 80/9/9
f 64/46/46 80/9/9 57/10/10
f 43/3/3 58/4/4 50/22/22
f 50/22/22 58/4/4 65/21/21
f 50/22/22 65/21/21 30/26/26
f 30/26/26 65/21/21 48/18/18
f 30/26/26 48/18/18 26/37/37
f 26/37/37 48/18/18 44/38/38
f 26/37/37 44/38/38 29/31/31
f 29/31/31 44/38/38 47/30/30
f 29/31/31 47/30/30 38/39/39
f 38/39/39 47/30/30 54/20/20
f 38/39/39 54/20/20 49/45/45
f 58/4/4 79/5/5 65/21/21
f 65/21/21 79/5/5 67/6/6
f 65/21/21 67/6/6 48/18/18
f 48/18/18 67/6/6 62/7/7
f 48/18/18 62/7/7 44/38/38
f 44/38/38 62/7/7 47/30/30
f 62/7/7 68/8/8 47/30/30
f 47/30/30 68/8/8 54/20/20
f 68/8/8 80/9/9 54/20/20
f 37/44/44 41/11/11 32/43/43
f 32/43/43 41/11/11 34/12/12
f 32/43/43 34/12/12 27/42/42
f 27/42/42 34/12/12 31/13/13
f 27/42/42 31/13/13 22/19/19
f 22/19/19 31/13/13 20/14/14
f 22/19/19 20/14/14 12/34/34
f 12/34/34 20/14/14 16/15/15
f 12/34/34 16/15/15 11/17/17
f 11/17/17 16/15/15 19/16/16
f 11/17/17 19/16/16 14/29/29
f 14/29/29 19/16/16 28/25/25
f 14/29/29 28/25/25 35/24/24
f 35/24/24 39/23/23 17/28/28
f 17/28/28 39/23/23 23/27/27
f 17/28/28 23/27/27 13/35/35
f 13/35/35 23/27/27 18/36/36
f 13/35/35 18/36/36 15/33/33
f 15/33/33 18/36/36 21/32/32
f 15/33/33 21/32/32 24/41/41
f 24/41/41 21/32/32 25/40/40
f 24/41/41 25/40/40 32/43/43
f 32/43/43 25/40/40 37/44/44
f 11/17/17 14/29/29 17/28/28
f 17/28/28 14/29/29 35/24/24
f 11/17/17 17/28/28 13/35/35
f 11/17/17 13/35/35 12/34/34
f 12/34/34 13/35/35 15/33/33
f 12/34/34 15/33/33 22/19/19
f 22/19/19 15/33/33 24/41/41
f 22/19/19 24/41/41 27/42/42
f 27/42/42 24/41/41 32/43/43
f 89/61/61 79/47/47 100/67/67
f 100/67/67 79/47/47 88/48/48
f 100/67/67 88/48/48 102/66/66
f 102/66/66 88/48/48 94/49/49
f 102/66/66 94/49/49 108/65/65
f 108/65/65 94/49/49 98/50/50
f 108/65/65 98/50/50 111/51/51
f 111/51/51 116/52/52 108/65/65
f 108/65/65 116/52/52 114/62/62
f 108/65/65 114/62/62 109/68/68
f 109/68/68 114/62/62 110/72/72
f 109/68/68 110/72/72 107/71/71
f 107/71/71 110/72/72 97/63/63
f 107/71/71 97/63/63 90/59/59
f 90/59/59 97/63/63 80/58/58
f 80/58/58 97/63/63 87/57/57
f 87/57/57 97/63/63 91/74/74
f 87/57/57 91/74/74 95/75/75
f 95/75/75 91/74/74 99/70/70
f 95/75/75 99/70/70 104/64/64
f 104/64/64 99/70/70 115/73/73
f 104/64/64 115/73/73 112/54/54
f 112/54/54 115/73/73 118/53/53
f 118/53/53 115/73/73 114/62/62
f 118/53/53 114/62/62 116/52/52
f 112/54/54 96/55/55 104/64/64
f 104/64/64 96/55/55 101/76/76
f 104/64/64 101/76/76 92/56/56
f 92/56/56 101/76/76 96/55/55
f 104/64/64 92/56/56 95/75/75
f 95/75/75 92/56/56 87/57/57
f 90/59/59 93/60/60 107/71/71
f 107/71/71 93/60/60 106/69/69
f 107/71/71 106/69/69 109/68/68
f 109/68/68 106/69/69 102/66/66
f 109/68/68 102/66/66 108/65/65
f 93/60/60 89/61/61 106/69/69
f 106/69/69 89/61/61 100/67/67
f 106/69/69 100/67/67 102/66/66
f 110/72/72 114/62/62 115/73/73
f 110/72/72 115/73/73 99/70/70
f 91/74/74 97/63/63 99/70/70
f 99/70/70 97/63/63 110/72/72
f 92/79/79 84/94/94 87/78/78
f 87/78/78 84/94/94 82/95/95
f 87/78/78 82/95/95 80/91/91
f 96/80/80 86/92/92 92/79/79
f 92/79/79 86/92/92 85/93/93
f 92/79/79 85/93/93 84/94/94
f 84/94/94 85/93/93 76/98/98
f 84/94/94 76/98/98 78/99/99
f 78/99/99 76/98/98 74/103/103
f 78/99/99 74/103/103 80/89/89
f 96/80/80 81/81/81 86/92/92
f 86/92/92 81/81/81 70/96/96
f 86/92/92 70/96/96 73/97/97
f 73/97/97 70/96/96 56/101/101
f 73/97/97 56/101/101 63/102/102
f 63/102/102 56/101/101 41/86/86
f 63/102/102 41/86/86 57/87/87
f 81/81/81 59/82/82 70/96/96
f 70/96/96 59/82/82 53/100/100
f 70/96/96 53/100/100 56/101/101
f 56/101/101 53/100/100 41/86/86
f 59/82/82 42/83/83 53/100/100
f 53/100/100 42/83/83 34/85/85
f 53/100/100 34/85/85 41/86/86
f 42/83/83 31/84/84 34/85/85
f 63/102/102 57/87/87 74/103/103
f 74/103/103 57/87/87 80/88/88
f 78/99/99 80/90/90 82/95/95
f 76/98/98 85/93/93 73/97/97
f 73/97/97 85/93/93 86/92/92
f 78/99/99 82/95/95 84/94/94
f 74/103/103 76/98/98 63/102/102
f 63/102/102 76/98/98 73/97/97
f 58/105/105 43/106/106 79/118/118
f 79/118/118 43/106/106 66/122/122
f 36/107/107 46/120/120 43/106/106
f 43/106/106 46/120/120 52/121/121
f 43/106/106 52/121/121 66/122/122
f 66/122/122 52/121/121 72/126/126
f 66/122/122 72/126/126 79/117/117
f 46/120/120 36/107/107 40/119/119
f 40/119/119 36/107/107 33/108/108
f 40/119/119 33/108/108 45/109/109
f 40/119/119 45/109/109 51/123/123
f 51/123/123 45/109/109 60/110/110
f 51/123/123 60/110/110 69/127/127
f 69/127/127 60/110/110 83/111/111
f 69/127/127 83/111/111 94/113/113
f 94/113/113 83/111/111 98/112/112
f 88/114/114 75/129/129 94/113/113
f 94/113/113 75/129/129 71/128/128
f 94/113/113 71/128/128 69/127/127
f 69/127/127 71/128/128 51/123/123
f 75/129/129 88/114/114 77/130/130
f 77/130/130 88/114/114 79/115/115
f 77/130/130 79/116/116 72/126/126
f 46/120/120 40/119/119 55/124/124
f 55/124/124 40/119/119 51/123/123
f 55/124/124 51/123/123 71/128/128
f 52/121/121 46/120/120 61/125/125
f 61/125/125 46/120/120 55/124/124
f 61/125/125 55/124/124 75/129/129
f 75/129/129 55/124/124 71/128/128
f 77/130/130 72/126/126 61/125/125
f 61/125/125 72/126/126 52/121/121
f 77/130/130 61/125/125 75/129/129
f 181/221/221 118/131/131 189/237/237
f 189/237/237 118/131/131 116/132/132
f 189/237/237 116/132/132 178/236/236
f 178/236/236 116/132/132 111/133/133
f 178/236/236 111/133/133 161/235/235
f 161/235/235 111/133/133 98/134/134
f 161/235/235 98/134/134 83/135/135
f 161/235/235 83/135/135 157/234/234
f 157/234/234 83/135/135 60/136/136
f 157/234/234 60/136/136 125/233/233
f 125/233/233 60/136/136 45/137/137
f 125/233/233 45/137/137 121/232/232
f 121/232/232 45/137/137 33/138/138
f 121/232/232 33/138/138 119/231/231
f 119/231/231 33/138/138 19/139/139
f 119/231/231 19/139/139 113/230/230
f 113/230/230 19/139/139 103/229/229
f 113/230/230 103/229/229 126/261/261
f 126/261/261 103/229/229 123/262/262
f 126/261/261 123/262/262 165/246/246
f 165/246/246 123/262/262 162/245/245
f 165/246/246 162/245/245 216/278/278
f 216/278/278 162/245/245 207/277/277
f 216/278/278 207/277/277 258/294/294
f 258/294/294 207/277/277 245/293/293
f 258/294/294 245/293/293 291/310/310
f 291/310/310 245/293/293 280/309/309
f 291/310/310 280/309/309 313/326/326
f 313/326/326 280/309/309 292/325/325
f 313/326/326 292/325/325 318/342/342
f 318/342/342 292/325/325 305/341/341
f 318/342/342 305/341/341 315/373/373
f 315/373/373 305/341/341 303/374/374
f 315/373/373 303/374/374 302/358/358
f 302/358/358 303/374/374 286/357/357
f 302/358/358 286/357/357 278/390/390
f 278/390/390 286/357/357 273/389/389
f 278/390/390 273/389/389 260/406/406
f 260/406/406 273/389/389 250/405/405
f 260/406/406 250/405/405 231/437/437
f 231/437/437 250/405/405 229/438/438
f 231/437/437 229/438/438 201/422/422
f 201/422/422 229/438/438 199/421/421
f 201/422/422 199/421/421 170/454/454
f 170/454/454 199/421/421 168/453/453
f 170/454/454 168/453/453 128/185/185
f 128/185/185 168/453/453 130/184/184
f 130/184/184 168/453/453 166/452/452
f 130/184/184 166/452/452 133/183/183
f 133/183/183 166/452/452 167/451/451
f 133/183/183 167/451/451 137/182/182
f 137/182/182 167/451/451 169/450/450
f 137/182/182 169/450/450 172/449/449
f 172/449/449 169/450/450 202/417/417
f 172/449/449 202/417/417 204/416/416
f 204/416/416 202/417/417 236/443/443
f 204/416/416 236/443/443 238/444/444
f 238/444/444 236/443/443 275/399/399
f 238/444/444 275/399/399 283/398/398
f 283/398/398 275/399/399 334/382/382
f 283/398/398 334/382/382 343/169/169
f 343/169/169 334/382/382 361/168/168
f 361/168/168 334/382/382 360/350/350
f 361/168/168 360/350/350 370/167/167
f 370/167/167 360/350/350 386/166/166
f 386/166/166 360/350/350 378/381/381
f 386/166/166 378/381/381 388/165/165
f 388/165/165 378/381/381 398/164/164
f 398/164/164 378/381/381 384/334/334
f 398/164/164 384/334/334 400/163/163
f 400/163/163 384/334/334 404/162/162
f 404/162/162 384/334/334 390/318/318
f 404/162/162 390/318/318 405/161/161
f 405/161/161 390/318/318 389/302/302
f 405/161/161 389/302/302 403/160/160
f 403/160/160 389/302/302 397/159/159
f 397/159/159 389/302/302 369/286/286
f 397/159/159 369/286/286 387/158/158
f 387/158/158 369/286/286 380/157/157
f 380/157/157 369/286/286 357/156/156
f 357/156/156 369/286/286 327/270/270
f 357/156/156 327/270/270 351/155/155
f 351/155/155 327/270/270 314/154/154
f 314/154/154 327/270/270 254/238/238
f 314/154/154 254/238/238 272/153/153
f 272/153/153 254/238/238 259/152/152
f 259/152/152 254/238/238 210/269/269
f 259/152/152 210/269/269 223/151/151
f 223/151/151 210/269/269 188/150/150
f 188/150/150 210/269/269 164/222/222
f 188/150/150 164/222/222 181/149/149
f 181/149/149 164/222/222 112/147/147
f 181/149/149 112/147/147 118/148/148
f 19/139/139 16/140/140 103/229/229
f 103/229/229 16/140/140 105/228/228
f 103/229/229 105/228/228 123/262/262
f 123/262/262 105/228/228 124/263/263
f 123/262/262 124/263/263 162/245/245
f 162/245/245 124/263/263 163/244/244
f 162/245/245 163/244/244 207/277/277
f 207/277/277 163/244/244 208/276/276
f 207/277/277 208/276/276 245/293/293
f 245/293/293 208/276/276 243/292/292
f 245/293/293 243/292/292 280/309/309
f 280/309/309 243/292/292 277/308/308
f 280/309/309 277/308/308 292/325/325
f 292/325/325 277/308/308 290/324/324
f 292/325/325 290/324/324 305/341/341
f 305/341/341 290/324/324 297/340/340
f 305/341/341 297/340/340 303/374/374
f 303/374/374 297/340/340 294/375/375
f 303/374/374 294/375/375 286/357/357
f 286/357/357 294/375/375 282/356/356
f 286/357/357 282/356/356 273/389/389
f 273/389/389 282/356/356 268/388/388
f 273/389/389 268/388/388 250/405/405
f 250/405/405 268/388/388 247/404/404
f 250/405/405 247/404/404 229/438/438
f 229/438/438 247/404/404 227/439/439
f 229/438/438 227/439/439 199/421/421
f 199/421/421 227/439/439 197/420/420
f 199/421/421 197/420/420 168/453/453
f 168/453/453 197/420/420 166/452/452
f 16/140/140 20/141/141 105/228/228
f 105/228/228 20/141/141 117/227/227
f 105/228/228 117/227/227 124/263/263
f 124/263/263 117/227/227 127/264/264
f 124/263/263 127/264/264 163/244/244
f 163/244/244 127/264/264 171/243/243
f 163/244/244 171/243/243 208/276/276
f 208/276/276 171/243/243 218/275/275
f 208/276/276 218/275/275 243/292/292
f 243/292/292 218/275/275 253/291/291
f 243/292/292 253/291/291 277/308/308
f 277/308/308 253/291/291 281/307/307
f 277/308/308 281/307/307 290/324/324
f 290/324/324 281/307/307 298/323/323
f 290/324/324 298/323/323 297/340/340
f 297/340/340 298/323/323 309/339/339
f 297/340/340 309/339/339 294/375/375
f 294/375/375 309/339/339 304/376/376
f 294/375/375 304/376/376 282/356/356
f 282/356/356 304/376/376 285/355/355
f 282/356/356 285/355/355 268/388/388
f 268/388/388 285/355/355 271/387/387
f 268/388/388 271/387/387 247/404/404
f 247/404/404 271/387/387 249/403/403
f 247/404/404 249/403/403 227/439/439
f 227/439/439 249/403/403 228/440/440
f 227/439/439 228/440/440 197/420/420
f 197/420/420 228/440/440 198/419/419
f 197/420/420 198/419/419 166/452/452
f 166/452/452 198/419/419 167/451/451
f 20/141/141 31/142/142 117/227/227
f 117/227/227 31/142/142 120/226/226
f 117/227/227 120/226/226 127/264/264
f 127/264/264 120/226/226 156/265/265
f 127/264/264 156/265/265 171/243/243
f 171/243/243 156/265/265 191/242/242
f 171/243/243 191/242/242 218/275/275
f 218/275/275 191/242/242 226/274/274
f 218/275/275 226/274/274 253/291/291
f 253/291/291 226/274/274 266/290/290
f 253/291/291 266/290/290 281/307/307
f 281/307/307 266/290/290 310/306/306
f 281/307/307 310/306/306 298/323/323
f 298/323/323 310/306/306 319/322/322
f 298/323/323 319/322/322 309/339/339
f 309/339/339 319/322/322 322/338/338
f 309/339/339 322/338/338 304/376/376
f 304/376/376 322/338/338 316/377/377
f 304/376/376 316/377/377 285/355/355
f 285/355/355 316/377/377 299/354/354
f 285/355/355 299/354/354 271/387/387
f 271/387/387 299/354/354 276/386/386
f 271/387/387 276/386/386 249/403/403
f 249/403/403 276/386/386 255/402/402
f 249/403/403 255/402/402 228/440/440
f 228/440/440 255/402/402 230/441/441
f 228/440/440 230/441/441 198/419/419
f 198/419/419 230/441/441 200/418/418
f 198/419/419 200/418/418 167/451/451
f 167/451/451 200/418/418 169/450/450
f 31/142/142 42/143/143 120/226/226
f 120/226/226 42/143/143 122/225/225
f 120/226/226 122/225/225 156/265/265
f 156/265/265 122/225/225 160/266/266
f 156/265/265 160/266/266 191/242/242
f 191/242/242 160/266/266 196/241/241
f 191/242/242 196/241/241 226/274/274
f 226/274/274 196/241/241 241/273/273
f 226/274/274 241/273/273 266/290/290
f 266/290/290 241/273/273 288/289/289
f 266/290/290 288/289/289 310/306/306
f 310/306/306 288/289/289 330/305/305
f 310/306/306 330/305/305 319/322/322
f 319/322/322 330/305/305 338/321/321
f 319/322/322 338/321/321 322/338/338
f 322/338/338 338/321/321 339/337/337
f 322/338/338 339/337/337 316/377/377
f 316/377/377 339/337/337 331/378/378
f 316/377/377 331/378/378 299/354/354
f 299/354/354 331/378/378 317/353/353
f 299/354/354 317/353/353 276/386/386
f 276/386/386 317/353/353 284/385/385
f 276/386/386 284/385/385 255/402/402
f 255/402/402 284/385/385 261/401/401
f 255/402/402 261/401/401 230/441/441
f 230/441/441 261/401/401 233/442/442
f 230/441/441 233/442/442 200/418/418
f 200/418/418 233/442/442 202/417/417
f 200/418/418 202/417/417 169/450/450
f 42/143/143 59/144/144 122/225/225
f 122/225/225 59/144/144 154/224/224
f 122/225/225 154/224/224 160/266/266
f 160/266/266 154/224/224 187/267/267
f 160/266/266 187/267/267 196/241/241
f 196/241/241 187/267/267 221/240/240
f 196/241/241 221/240/240 241/273/273
f 241/273/273 221/240/240 265/272/272
f 241/273/273 265/272/272 288/289/289
f 288/289/289 265/272/272 325/288/288
f 288/289/289 325/288/288 330/305/305
f 330/305/305 325/288/288 355/304/304
f 330/305/305 355/304/304 338/321/321
f 338/321/321 355/304/304 359/320/320
f 338/321/321 359/320/320 339/337/337
f 339/337/337 359/320/320 356/336/336
f 339/337/337 356/336/336 331/378/378
f 331/378/378 356/336/336 346/379/379
f 331/378/378 346/379/379 317/353/353
f 317/353/353 346/379/379 332/352/352
f 317/353/353 332/352/352 284/385/385
f 284/385/385 332/352/352 306/384/384
f 284/385/385 306/384/384 261/401/401
f 261/401/401 306/384/384 267/400/400
f 261/401/401 267/400/400 233/442/442
f 233/442/442 267/400/400 236/443/443
f 233/442/442 236/443/443 202/417/417
f 59/144/144 81/145/145 154/224/224
f 154/224/224 81/145/145 158/223/223
f 154/224/224 158/223/223 187/267/267
f 187/267/267 158/223/223 194/268/268
f 187/267/267 194/268/268 221/240/240
f 221/240/240 194/268/268 235/239/239
f 221/240/240 235/239/239 265/272/272
f 265/272/272 235/239/239 295/271/271
f 265/272/272 295/271/271 325/288/288
f 325/288/288 295/271/271 353/287/287
f 325/288/288 353/287/287 355/304/304
f 355/304/304 353/287/287 372/303/303
f 355/304/304 372/303/303 359/320/320
f 359/320/320 372/303/303 376/319/319
f 359/320/320 376/319/319 356/336/336
f 356/336/336 376/319/319 371/335/335
f 356/336/336 371/335/335 346/379/379
f 346/379/379 371/335/335 365/380/380
f 346/379/379 365/380/380 332/352/352
f 332/352/352 365/380/380 345/351/351
f 332/352/352 345/351/351 306/384/384
f 306/384/384 345/351/351 323/383/383
f 306/384/384 323/383/383 267/400/400
f 267/400/400 323/383/383 275/399/399
f 267/400/400 275/399/399 236/443/443
f 81/145/145 96/146/146 158/223/223
f 158/223/223 96/146/146 164/222/222
f 158/223/223 164/222/222 194/268/268
f 194/268/268 164/222/222 210/269/269
f 194/268/268 210/269/269 235/239/239
f 235/239/239 210/269/269 254/238/238
f 235/239/239 254/238/238 295/271/271
f 295/271/271 254/238/238 327/270/270
f 295/271/271 327/270/270 353/287/287
f 353/287/287 327/270/270 369/286/286
f 353/287/287 369/286/286 372/303/303
f 372/303/303 369/286/286 389/302/302
f 372/303/303 389/302/302 376/319/319
f 376/319/319 389/302/302 390/318/318
f 376/319/319 390/318/318 371/335/335
f 371/335/335 390/318/318 384/334/334
f 371/335/335 384/334/334 365/380/380
f 365/380/380 384/334/334 378/381/381
f 365/380/380 378/381/381 345/351/351
f 345/351/351 378/381/381 360/350/350
f 345/351/351 360/350/350 323/383/383
f 323/383/383 360/350/350 334/382/382
f 323/383/383 334/382/382 275/399/399
f 96/146/146 112/147/147 164/222/222
f 343/169/169 311/170/170 283/398/398
f 283/398/398 311/170/170 301/171/171
f 283/398/398 301/171/171 244/445/445
f 244/445/445 301/171/171 251/172/172
f 244/445/445 251/172/172 239/173/173
f 244/445/445 239/173/173 212/414/414
f 212/414/414 239/173/173 215/174/174
f 212/414/414 215/174/174 193/175/175
f 212/414/414 193/175/175 180/446/446
f 180/446/446 193/175/175 183/176/176
f 180/446/446 183/176/176 152/178/178
f 152/178/178 183/176/176 153/177/177
f 152/178/178 149/179/179 180/446/446
f 180/446/446 149/179/179 177/447/447
f 180/446/446 177/447/447 212/414/414
f 212/414/414 177/447/447 209/415/415
f 212/414/414 209/415/415 244/445/445
f 244/445/445 209/415/415 238/444/444
f 244/445/445 238/444/444 283/398/398
f 149/179/179 145/180/180 177/447/447
f 177/447/447 145/180/180 174/448/448
f 177/447/447 174/448/448 209/415/415
f 209/415/415 174/448/448 204/416/416
f 209/415/415 204/416/416 238/444/444
f 145/180/180 141/181/181 174/448/448
f 174/448/448 141/181/181 172/449/449
f 174/448/448 172/449/449 204/416/416
f 141/181/181 137/182/182 172/449/449
f 128/185/185 129/186/186 170/454/454
f 170/454/454 129/186/186 173/455/455
f 170/454/454 173/455/455 201/422/422
f 201/422/422 173/455/455 203/423/423
f 201/422/422 203/423/423 231/437/437
f 231/437/437 203/423/423 234/436/436
f 231/437/437 234/436/436 260/406/406
f 260/406/406 234/436/436 262/407/407
f 260/406/406 262/407/407 278/390/390
f 278/390/390 262/407/407 289/391/391
f 278/390/390 289/391/391 302/358/358
f 302/358/358 289/391/391 321/359/359
f 302/358/358 321/359/359 315/373/373
f 315/373/373 321/359/359 329/372/372
f 315/373/373 329/372/372 318/342/342
f 318/342/342 329/372/372 335/343/343
f 318/342/342 335/343/343 313/326/326
f 313/326/326 335/343/343 328/327/327
f 313/326/326 328/327/327 291/310/310
f 291/310/310 328/327/327 320/311/311
f 291/310/310 320/311/311 258/294/294
f 258/294/294 320/311/311 269/295/295
f 258/294/294 269/295/295 216/278/278
f 216/278/278 269/295/295 225/279/279
f 216/278/278 225/279/279 165/246/246
f 165/246/246 225/279/279 190/247/247
f 165/246/246 190/247/247 126/261/261
f 126/261/261 190/247/247 155/260/260
f 126/261/261 155/260/260 113/230/230
f 113/230/230 155/260/260 119/231/231
f 129/186/186 132/187/187 173/455/455
f 173/455/455 132/187/187 176/456/456
f 173/455/455 176/456/456 203/423/423
f 203/423/423 176/456/456 206/424/424
f 203/423/423 206/424/424 234/436/436
f 234/436/436 206/424/424 237/435/435
f 234/436/436 237/435/435 262/407/407
f 262/407/407 237/435/435 270/408/408
f 262/407/407 270/408/408 289/391/391
f 289/391/391 270/408/408 312/392/392
f 289/391/391 312/392/392 321/359/359
f 321/359/359 312/392/392 336/360/360
f 321/359/359 336/360/360 329/372/372
f 329/372/372 336/360/360 344/371/371
f 329/372/372 344/371/371 335/343/343
f 335/343/343 344/371/371 352/344/344
f 335/343/343 352/344/344 328/327/327
f 328/327/327 352/344/344 350/328/328
f 328/327/327 350/328/328 320/311/311
f 320/311/311 350/328/328 340/312/312
f 320/311/311 340/312/312 269/295/295
f 269/295/295 340/312/312 296/296/296
f 269/295/295 296/296/296 225/279/279
f 225/279/279 296/296/296 240/280/280
f 225/279/279 240/280/280 190/247/247
f 190/247/247 240/280/280 195/248/248
f 190/247/247 195/248/248 155/260/260
f 155/260/260 195/248/248 159/259/259
f 155/260/260 159/259/259 119/231/231
f 119/231/231 159/259/259 121/232/232
f 132/187/187 136/188/188 176/456/456
f 176/456/456 136/188/188 179/457/457
f 176/456/456 179/457/457 206/424/424
f 206/424/424 179/457/457 211/425/425
f 206/424/424 211/425/425 237/435/435
f 237/435/435 211/425/425 242/434/434
f 237/435/435 242/434/434 270/408/408
f 270/408/408 242/434/434 279/409/409
f 270/408/408 279/409/409 312/392/392
f 312/392/392 279/409/409 324/393/393
f 312/392/392 324/393/393 336/360/360
f 336/360/360 324/393/393 347/361/361
f 336/360/360 347/361/361 344/371/371
f 344/371/371 347/361/361 363/370/370
f 344/371/371 363/370/370 352/344/344
f 352/344/344 363/370/370 366/345/345
f 352/344/344 366/345/345 350/328/328
f 350/328/328 366/345/345 367/329/329
f 350/328/328 367/329/329 340/312/312
f 340/312/312 367/329/329 364/313/313
f 340/312/312 364/313/313 296/296/296
f 296/296/296 364/313/313 333/297/297
f 296/296/296 333/297/297 240/280/280
f 240/280/280 333/297/297 264/281/281
f 240/280/280 264/281/281 195/248/248
f 195/248/248 264/281/281 214/249/249
f 195/248/248 214/249/249 159/259/259
f 159/259/259 214/249/249 175/258/258
f 159/259/259 175/258/258 121/232/232
f 121/232/232 175/258/258 125/233/233
f 136/188/188 140/189/189 179/457/457
f 179/457/457 140/189/189 182/458/458
f 179/457/457 182/458/458 211/425/425
f 211/425/425 182/458/458 213/426/426
f 211/425/425 213/426/426 242/434/434
f 242/434/434 213/426/426 246/433/433
f 242/434/434 246/433/433 279/409/409
f 279/409/409 246/433/433 287/410/410
f 279/409/409 287/410/410 324/393/393
f 324/393/393 287/410/410 337/394/394
f 324/393/393 337/394/394 347/361/361
f 347/361/361 337/394/394 362/362/362
f 347/361/361 362/362/362 363/370/370
f 363/370/370 362/362/362 377/369/369
f 363/370/370 377/369/369 366/345/345
f 366/345/345 377/369/369 381/346/346
f 366/345/345 381/346/346 367/329/329
f 367/329/329 381/346/346 382/330/330
f 367/329/329 382/330/330 364/313/313
f 364/313/313 382/330/330 379/314/314
f 364/313/313 379/314/314 333/297/297
f 333/297/297 379/314/314 358/298/298
f 333/297/297 358/298/298 264/281/281
f 264/281/281 358/298/298 293/282/282
f 264/281/281 293/282/282 214/249/249
f 214/249/249 293/282/282 232/250/250
f 214/249/249 232/250/250 175/258/258
f 175/258/258 232/250/250 192/257/257
f 175/258/258 192/257/257 125/233/233
f 125/233/233 192/257/257 157/234/234
f 140/189/189 144/190/190 182/458/458
f 182/458/458 144/190/190 184/459/459
f 182/458/458 184/459/459 213/426/426
f 213/426/426 184/459/459 217/427/427
f 213/426/426 217/427/427 246/433/433
f 246/433/433 217/427/427 252/432/432
f 246/433/433 252/432/432 287/410/410
f 287/410/410 252/432/432 300/411/411
f 287/410/410 300/411/411 337/394/394
f 337/394/394 300/411/411 341/395/395
f 337/394/394 341/395/395 362/362/362
f 362/362/362 341/395/395 368/363/363
f 362/362/362 368/363/363 377/369/369
f 377/369/369 368/363/363 383/368/368
f 377/369/369 383/368/368 381/346/346
f 381/346/346 383/368/368 394/347/347
f 381/346/346 394/347/347 382/330/330
f 382/330/330 394/347/347 396/331/331
f 382/330/330 396/331/331 379/314/314
f 379/314/314 396/331/331 395/315/315
f 379/314/314 395/315/315 358/298/298
f 358/298/298 395/315/315 374/299/299
f 358/298/298 374/299/299 293/282/282
f 293/282/282 374/299/299 326/283/283
f 293/282/282 326/283/283 232/250/250
f 232/250/250 326/283/283 248/251/251
f 232/250/250 248/251/251 192/257/257
f 192/257/257 248/251/251 205/256/256
f 192/257/257 205/256/256 157/234/234
f 157/234/234 205/256/256 161/235/235
f 144/190/190 148/191/191 184/459/459
f 184/459/459 148/191/191 186/460/460
f 184/459/459 186/460/460 217/427/427
f 217/427/427 186/460/460 220/428/428
f 217/427/427 220/428/428 252/432/432
f 252/432/432 220/428/428 257/431/431
f 252/432/432 257/431/431 300/411/411
f 300/411/411 257/431/431 307/412/412
f 300/411/411 307/412/412 341/395/395
f 341/395/395 307/412/412 348/396/396
f 341/395/395 348/396/396 368/363/363
f 368/363/363 348/396/396 373/364/364
f 368/363/363 373/364/364 383/368/368
f 383/368/368 373/364/364 392/367/367
f 383/368/368 392/367/367 394/347/347
f 394/347/347 392/367/367 399/348/348
f 394/347/347 399/348/348 396/331/331
f 396/331/331 399/348/348 406/332/332
f 396/331/331 406/332/332 395/315/315
f 395/315/315 406/332/332 402/316/316
f 395/315/315 402/316/316 374/299/299
f 374/299/299 402/316/316 385/300/300
f 374/299/299 385/300/300 326/283/283
f 326/283/283 385/300/300 342/284/284
f 326/283/283 342/284/284 248/251/251
f 248/251/251 342/284/284 263/252/252
f 248/251/251 263/252/252 205/256/256
f 205/256/256 263/252/252 222/255/255
f 205/256/256 222/255/255 161/235/235
f 161/235/235 222/255/255 178/236/236
f 148/191/191 151/192/192 186/460/460
f 186/460/460 151/192/192 185/461/461
f 186/460/460 185/461/461 220/428/428
f 220/428/428 185/461/461 219/429/429
f 220/428/428 219/429/429 257/431/431
f 257/431/431 219/429/429 256/430/430
f 257/431/431 256/430/430 307/412/412
f 307/412/412 256/430/430 308/413/413
f 307/412/412 308/413/413 348/396/396
f 348/396/396 308/413/413 349/397/397
f 348/396/396 349/397/397 373/364/364
f 373/364/364 349/397/397 375/365/365
f 373/364/364 375/365/365 392/367/367
f 392/367/367 375/365/365 393/366/366
f 392/367/367 393/366/366 399/348/348
f 399/348/348 393/366/366 401/349/349
f 399/348/348 401/349/349 406/332/332
f 406/332/332 401/349/349 408/333/333
f 406/332/332 408/333/333 402/316/316
f 402/316/316 408/333/333 407/317/317
f 402/316/316 407/317/317 385/300/300
f 385/300/300 407/317/317 391/301/301
f 385/300/300 391/301/301 342/284/284
f 342/284/284 391/301/301 354/285/285
f 342/284/284 354/285/285 263/252/252
f 263/252/252 354/285/285 274/253/253
f 263/252/252 274/253/253 222/255/255
f 222/255/255 274/253/253 224/254/254
f 222/255/255 224/254/254 178/236/236
f 178/236/236 224/254/254 189/237/237
f 151/192/192 153/193/193 185/461/461
f 185/461/461 153/193/193 183/194/194
f 185/461/461 183/194/194 193/195/195
f 185/461/461 193/195/195 219/429/429
f 219/429/429 193/195/195 215/196/196
f 219/429/429 215/196/196 239/197/197
f 219/429/429 239/197/197 256/430/430
f 256/430/430 239/197/197 251/198/198
f 256/430/430 251/198/198 308/413/413
f 308/413/413 251/198/198 301/199/199
f 308/413/413 301/199/199 311/200/200
f 308/413/413 311/200/200 349/397/397
f 349/397/397 311/200/200 343/201/201
f 349/397/397 343/201/201 361/202/202
f 349/397/397 361/202/202 375/365/365
f 375/365/365 361/202/202 370/203/203
f 375/365/365 370/203/203 386/204/204
f 375/365/365 386/204/204 393/366/366
f 393/366/366 386/204/204 388/205/205
f 393/366/366 388/205/205 401/349/349
f 401/349/349 388/205/205 398/206/206
f 401/349/349 398/206/206 400/207/207
f 401/349/349 400/207/207 408/333/333
f 408/333/333 400/207/207 404/208/208
f 408/333/333 404/208/208 405/209/209
f 408/333/333 405/209/209 407/317/317
f 407/317/317 405/209/209 403/210/210
f 407/317/317 403/210/210 397/211/211
f 407/317/317 397/211/211 391/301/301
f 391/301/301 397/211/211 387/212/212
f 391/301/301 387/212/212 380/213/213
f 391/301/301 380/213/213 354/285/285
f 354/285/285 380/213/213 357/214/214
f 354/285/285 357/214/214 351/215/215
f 272/217/217 274/253/253 314/216/216
f 314/216/216 274/253/253 354/285/285
f 314/216/216 354/285/285 351/215/215
f 223/219/219 224/254/254 259/218/218
f 259/218/218 224/254/254 274/253/253
f 259/218/218 274/253/253 272/217/217
f 188/220/220 181/221/221 189/237/237
f 224/254/254 223/219/219 189/237/237
f 189/237/237 223/219/219 188/220/220
f 80/462/462 68/463/463 90/469/469
f 90/469/469 68/463/463 93/468/468
f 93/468/468 68/463/463 62/464/464
f 93/468/468 62/464/464 89/467/467
f 89/467/467 62/464/464 67/465/465
f 89/467/467 67/465/465 79/466/466
f 152/485/485 153/470/470 150/486/486
f 150/486/486 153/470/470 151/471/471
f 150/486/486 151/471/471 146/495/495
f 146/495/495 151/471/471 148/472/472
f 146/495/495 148/472/472 144/473/473
f 146/495/495 144/473/473 142/494/494
f 142/494/494 144/473/473 140/474/474
f 142/494/494 140/474/474 138/493/493
f 138/493/493 140/474/474 136/475/475
f 138/493/493 136/475/475 134/492/492
f 134/492/492 136/475/475 132/476/476
f 134/492/492 132/476/476 129/477/477
f 134/492/492 129/477/477 131/491/491
f 131/491/491 129/477/477 128/478/478
f 131/491/491 128/478/478 130/479/479
f 131/491/491 130/479/479 135/490/490
f 135/490/490 130/479/479 133/480/480
f 135/490/490 133/480/480 137/481/481
f 135/490/490 137/481/481 139/489/489
f 139/489/489 137/481/481 141/482/482
f 139/489/489 141/482/482 143/488/488
f 143/488/488 141/482/482 145/483/483
f 143/488/488 145/483/483 147/487/487
f 147/487/487 145/483/483 149/484/484
f 147/487/487 149/484/484 152/485/485
f 147/487/487 152/485/485 150/486/486
f 9/497/497 147/515/515 10/496/496
f 10/496/496 147/515/515 150/506/506
f 10/496/496 150/506/506 8/505/505
f 8/505/505 150/506/506 146/507/507
f 8/505/505 146/507/507 6/504/504
f 6/504/504 146/507/507 142/508/508
f 6/504/504 142/508/508 4/503/503
f 4/503/503 142/508/508 138/509/509
f 4/503/503 138/509/509 2/502/502
f 2/502/502 138/509/509 134/510/510
f 2/502/502 134/510/510 1/501/501
f 1/501/501 134/510/510 131/516/516
f 1/517/517 131/511/511 3/500/500
f 3/500/500 131/511/511 135/512/512
f 3/500/500 135/512/512 5/499/499
f 5/499/499 135/512/512 139/513/513
f 5/499/499 139/513/513 7/498/498
f 7/498/498 139/513/513 143/514/514
f 7/498/498 143/514/514 9/497/497
f 9/497/497 143/514/514 147/515/515
f 8/519/519 1/523/523 10/518/518
f 10/518/518 1/523/523 3/524/524
f 10/518/518 3/524/524 9/527/527
f 9/527/527 3/524/524 5/525/525
f 9/527/527 5/525/525 7/526/526
f 1/523/523 8/519/519 2/522/522
f 2/522/522 8/519/519 6/520/520
f 2/522/522 6/520/520 4/521/521

# 408 vertices
# 527 texture params
# 527 normals
# 812 facets

# 1 groups
