%YAML 1.1
%TAG !u! tag:unity3d.com,2011:
--- !u!21 &2100000
Material:
  serializedVersion: 6
  m_ObjectHideFlags: 0
  m_CorrespondingSourceObject: {fileID: 0}
  m_PrefabInstance: {fileID: 0}
  m_PrefabAsset: {fileID: 0}
  m_Name: Leaf
  m_Shader: {fileID: 10721, guid: 0000000000000000f000000000000000, type: 0}
  m_ShaderKeywords: 
  m_LightmapFlags: 5
  m_EnableInstancingVariants: 0
  m_DoubleSidedGI: 0
  m_CustomRenderQueue: -1
  stringTagMap: {}
  disabledShaderPasses: []
  m_SavedProperties:
    serializedVersion: 3
    m_TexEnvs:
    - _MainTex:
        m_Texture: {fileID: 2800000, guid: 95a3549abc9cac04291c286b84334845, type: 3}
        m_Scale: {x: 1, y: 1}
        m_Offset: {x: 0, y: 0}
    m_Ints: []
    m_Floats:
    - _Cutoff: 0.5
    - _InvFade: 0.01
    - _Shininess: 0.7
    m_Colors:
    - _Color: {r: 1, g: 1, b: 1, a: 1}
    - _EmisColor: {r: 1, g: 1, b: 1, a: 0}
    - _Emission: {r: 0.2761194, g: 0.2761194, b: 0.2761194, a: 0}
    - _SpecColor: {r: 1, g: 1, b: 1, a: 0}
    - _TintColor: {r: 1, g: 1, b: 1, a: 0.5019608}
  m_BuildTextureStacks: []
--- !u!1002 &2100001
EditorExtensionImpl:
  serializedVersion: 6
