%YAML 1.1
%TAG !u! tag:unity3d.com,2011:
--- !u!1 &371773528786082950
GameObject:
  m_ObjectHideFlags: 0
  m_CorrespondingSourceObject: {fileID: 0}
  m_PrefabInstance: {fileID: 0}
  m_PrefabAsset: {fileID: 0}
  serializedVersion: 6
  m_Component:
  - component: {fileID: 371773528786082949}
  m_Layer: 0
  m_Name: HairJoint_1be31375_8e0b_4df8_a0ee_52d1bedd9b55
  m_TagString: Untagged
  m_Icon: {fileID: 0}
  m_NavMeshLayer: 0
  m_StaticEditorFlags: 0
  m_IsActive: 1
--- !u!4 &371773528786082949
Transform:
  m_ObjectHideFlags: 0
  m_CorrespondingSourceObject: {fileID: 0}
  m_PrefabInstance: {fileID: 0}
  m_PrefabAsset: {fileID: 0}
  m_GameObject: {fileID: 371773528786082950}
  m_LocalRotation: {x: 0.91566503, y: 0.006443525, z: 0.006443525, w: -0.4018389}
  m_LocalPosition: {x: -0.07952529, y: 0.116717815, z: -0.052400764}
  m_LocalScale: {x: 1, y: 1, z: 1.0000001}
  m_Children:
  - {fileID: 371773530206750234}
  m_Father: {fileID: 371773529952469062}
  m_RootOrder: 2
  m_LocalEulerAnglesHint: {x: 0, y: 0, z: 0}
--- !u!1 &371773528790162225
GameObject:
  m_ObjectHideFlags: 0
  m_CorrespondingSourceObject: {fileID: 0}
  m_PrefabInstance: {fileID: 0}
  m_PrefabAsset: {fileID: 0}
  serializedVersion: 6
  m_Component:
  - component: {fileID: 371773528790162224}
  m_Layer: 0
  m_Name: RingFinger2_L
  m_TagString: Untagged
  m_Icon: {fileID: 0}
  m_NavMeshLayer: 0
  m_StaticEditorFlags: 0
  m_IsActive: 1
--- !u!4 &371773528790162224
Transform:
  m_ObjectHideFlags: 0
  m_CorrespondingSourceObject: {fileID: 0}
  m_PrefabInstance: {fileID: 0}
  m_PrefabAsset: {fileID: 0}
  m_GameObject: {fileID: 371773528790162225}
  m_LocalRotation: {x: 0.026162032, y: -0.026269313, z: 0.0045111454, w: 0.9993023}
  m_LocalPosition: {x: -4.656613e-10, y: 0.032367397, z: -0.00000012178498}
  m_LocalScale: {x: 1, y: 1, z: 1.0000001}
  m_Children:
  - {fileID: 371773530506525949}
  m_Father: {fileID: 371773529686140311}
  m_RootOrder: 0
  m_LocalEulerAnglesHint: {x: 0, y: 0, z: 0}
--- !u!1 &371773528800580993
GameObject:
  m_ObjectHideFlags: 0
  m_CorrespondingSourceObject: {fileID: 0}
  m_PrefabInstance: {fileID: 0}
  m_PrefabAsset: {fileID: 0}
  serializedVersion: 6
  m_Component:
  - component: {fileID: 371773528800580992}
  m_Layer: 0
  m_Name: HairJoint_07253a6e_1fcd_4b10_ad83_dc8bd00055dc
  m_TagString: Untagged
  m_Icon: {fileID: 0}
  m_NavMeshLayer: 0
  m_StaticEditorFlags: 0
  m_IsActive: 1
--- !u!4 &371773528800580992
Transform:
  m_ObjectHideFlags: 0
  m_CorrespondingSourceObject: {fileID: 0}
  m_PrefabInstance: {fileID: 0}
  m_PrefabAsset: {fileID: 0}
  m_GameObject: {fileID: 371773528800580993}
  m_LocalRotation: {x: 0.97708476, y: 0.13457647, z: 0.1345754, w: -0.09531057}
  m_LocalPosition: {x: 0.07465841, y: 0.097029924, z: 0.07825148}
  m_LocalScale: {x: 1.0000004, y: 1, z: 1}
  m_Children:
  - {fileID: 371773530038266864}
  m_Father: {fileID: 371773529952469062}
  m_RootOrder: 4
  m_LocalEulerAnglesHint: {x: 0, y: 0, z: 0}
--- !u!1 &371773528829751043
GameObject:
  m_ObjectHideFlags: 0
  m_CorrespondingSourceObject: {fileID: 0}
  m_PrefabInstance: {fileID: 0}
  m_PrefabAsset: {fileID: 0}
  serializedVersion: 6
  m_Component:
  - component: {fileID: 371773528829751042}
  m_Layer: 0
  m_Name: Left ankle
  m_TagString: Untagged
  m_Icon: {fileID: 0}
  m_NavMeshLayer: 0
  m_StaticEditorFlags: 0
  m_IsActive: 1
--- !u!4 &371773528829751042
Transform:
  m_ObjectHideFlags: 0
  m_CorrespondingSourceObject: {fileID: 0}
  m_PrefabInstance: {fileID: 0}
  m_PrefabAsset: {fileID: 0}
  m_GameObject: {fileID: 371773528829751043}
  m_LocalRotation: {x: -0.53346795, y: -0.032049213, z: 0.02058912, w: 0.84496206}
  m_LocalPosition: {x: -0.0000000012223609, y: 0.37655511, z: -0.0000000010477379}
  m_LocalScale: {x: 1, y: 1, z: 1}
  m_Children:
  - {fileID: 371773529754057912}
  m_Father: {fileID: 371773529906136290}
  m_RootOrder: 0
  m_LocalEulerAnglesHint: {x: 0, y: 0, z: 0}
--- !u!1 &371773528904361759
GameObject:
  m_ObjectHideFlags: 0
  m_CorrespondingSourceObject: {fileID: 0}
  m_PrefabInstance: {fileID: 0}
  m_PrefabAsset: {fileID: 0}
  serializedVersion: 6
  m_Component:
  - component: {fileID: 371773528904361758}
  m_Layer: 0
  m_Name: IndexFinger1_L
  m_TagString: Untagged
  m_Icon: {fileID: 0}
  m_NavMeshLayer: 0
  m_StaticEditorFlags: 0
  m_IsActive: 1
--- !u!4 &371773528904361758
Transform:
  m_ObjectHideFlags: 0
  m_CorrespondingSourceObject: {fileID: 0}
  m_PrefabInstance: {fileID: 0}
  m_PrefabAsset: {fileID: 0}
  m_GameObject: {fileID: 371773528904361759}
  m_LocalRotation: {x: -0.038489234, y: 0.04457448, z: 0.06858697, w: 0.9959054}
  m_LocalPosition: {x: -0.01952441, y: 0.060855214, z: 0.0017858474}
  m_LocalScale: {x: 1, y: 0.99999994, z: 1}
  m_Children:
  - {fileID: 371773530016007942}
  m_Father: {fileID: 371773529751934180}
  m_RootOrder: 0
  m_LocalEulerAnglesHint: {x: 0, y: 0, z: 0}
--- !u!1 &371773528957993240
GameObject:
  m_ObjectHideFlags: 0
  m_CorrespondingSourceObject: {fileID: 0}
  m_PrefabInstance: {fileID: 0}
  m_PrefabAsset: {fileID: 0}
  serializedVersion: 6
  m_Component:
  - component: {fileID: 371773528957993247}
  m_Layer: 0
  m_Name: Thumb1_R
  m_TagString: Untagged
  m_Icon: {fileID: 0}
  m_NavMeshLayer: 0
  m_StaticEditorFlags: 0
  m_IsActive: 1
--- !u!4 &371773528957993247
Transform:
  m_ObjectHideFlags: 0
  m_CorrespondingSourceObject: {fileID: 0}
  m_PrefabInstance: {fileID: 0}
  m_PrefabAsset: {fileID: 0}
  m_GameObject: {fileID: 371773528957993240}
  m_LocalRotation: {x: 0.008267673, y: 0.013260204, z: 0.036225844, w: 0.99922144}
  m_LocalPosition: {x: -0.000000026077032, y: 0.044690315, z: 0.0000000037252903}
  m_LocalScale: {x: 1, y: 0.99999994, z: 0.9999999}
  m_Children:
  - {fileID: 371773529078559553}
  m_Father: {fileID: 371773529511914810}
  m_RootOrder: 0
  m_LocalEulerAnglesHint: {x: 0, y: 0, z: 0}
--- !u!1 &371773528981046756
GameObject:
  m_ObjectHideFlags: 0
  m_CorrespondingSourceObject: {fileID: 0}
  m_PrefabInstance: {fileID: 0}
  m_PrefabAsset: {fileID: 0}
  serializedVersion: 6
  m_Component:
  - component: {fileID: 371773528981046779}
  m_Layer: 0
  m_Name: Neck
  m_TagString: Untagged
  m_Icon: {fileID: 0}
  m_NavMeshLayer: 0
  m_StaticEditorFlags: 0
  m_IsActive: 1
--- !u!4 &371773528981046779
Transform:
  m_ObjectHideFlags: 0
  m_CorrespondingSourceObject: {fileID: 0}
  m_PrefabInstance: {fileID: 0}
  m_PrefabAsset: {fileID: 0}
  m_GameObject: {fileID: 371773528981046756}
  m_LocalRotation: {x: 0.11203927, y: 0.0000002257489, z: 0.00000022982664, w: 0.9937038}
  m_LocalPosition: {x: -7.754131e-12, y: 0.20382464, z: -0.0000000047097584}
  m_LocalScale: {x: 1, y: 1, z: 1}
  m_Children:
  - {fileID: 371773529952469062}
  m_Father: {fileID: 371773529665206308}
  m_RootOrder: 1
  m_LocalEulerAnglesHint: {x: 0, y: 0, z: 0}
--- !u!1 &371773529078559554
GameObject:
  m_ObjectHideFlags: 0
  m_CorrespondingSourceObject: {fileID: 0}
  m_PrefabInstance: {fileID: 0}
  m_PrefabAsset: {fileID: 0}
  serializedVersion: 6
  m_Component:
  - component: {fileID: 371773529078559553}
  m_Layer: 0
  m_Name: Thumb2_R
  m_TagString: Untagged
  m_Icon: {fileID: 0}
  m_NavMeshLayer: 0
  m_StaticEditorFlags: 0
  m_IsActive: 1
--- !u!4 &371773529078559553
Transform:
  m_ObjectHideFlags: 0
  m_CorrespondingSourceObject: {fileID: 0}
  m_PrefabInstance: {fileID: 0}
  m_PrefabAsset: {fileID: 0}
  m_GameObject: {fileID: 371773529078559554}
  m_LocalRotation: {x: 0.0026024368, y: 0.012267097, z: -0.03957146, w: 0.99913806}
  m_LocalPosition: {x: -0.000000044703484, y: 0.027407177, z: -0.000000026542693}
  m_LocalScale: {x: 0.99999994, y: 0.9999998, z: 1}
  m_Children: []
  m_Father: {fileID: 371773528957993247}
  m_RootOrder: 0
  m_LocalEulerAnglesHint: {x: 0, y: 0, z: 0}
--- !u!1 &371773529096523406
GameObject:
  m_ObjectHideFlags: 0
  m_CorrespondingSourceObject: {fileID: 0}
  m_PrefabInstance: {fileID: 0}
  m_PrefabAsset: {fileID: 0}
  serializedVersion: 6
  m_Component:
  - component: {fileID: 371773529096523405}
  m_Layer: 0
  m_Name: LittleFinger2_L
  m_TagString: Untagged
  m_Icon: {fileID: 0}
  m_NavMeshLayer: 0
  m_StaticEditorFlags: 0
  m_IsActive: 1
--- !u!4 &371773529096523405
Transform:
  m_ObjectHideFlags: 0
  m_CorrespondingSourceObject: {fileID: 0}
  m_PrefabInstance: {fileID: 0}
  m_PrefabAsset: {fileID: 0}
  m_GameObject: {fileID: 371773529096523406}
  m_LocalRotation: {x: 0.024522655, y: -0.024294162, z: -0.027118236, w: 0.9990361}
  m_LocalPosition: {x: -9.313226e-10, y: 0.029607229, z: 0.000000018064384}
  m_LocalScale: {x: 0.99999994, y: 0.99999994, z: 0.9999999}
  m_Children:
  - {fileID: 371773529550273237}
  m_Father: {fileID: 371773529980431594}
  m_RootOrder: 0
  m_LocalEulerAnglesHint: {x: 0, y: 0, z: 0}
--- !u!1 &371773529115334859
GameObject:
  m_ObjectHideFlags: 0
  m_CorrespondingSourceObject: {fileID: 0}
  m_PrefabInstance: {fileID: 0}
  m_PrefabAsset: {fileID: 0}
  serializedVersion: 6
  m_Component:
  - component: {fileID: 371773529115334858}
  m_Layer: 0
  m_Name: LittleFinger1_R
  m_TagString: Untagged
  m_Icon: {fileID: 0}
  m_NavMeshLayer: 0
  m_StaticEditorFlags: 0
  m_IsActive: 1
--- !u!4 &371773529115334858
Transform:
  m_ObjectHideFlags: 0
  m_CorrespondingSourceObject: {fileID: 0}
  m_PrefabInstance: {fileID: 0}
  m_PrefabAsset: {fileID: 0}
  m_GameObject: {fileID: 371773529115334859}
  m_LocalRotation: {x: -0.040772885, y: -0.04075026, z: 0.01217341, w: 0.9982629}
  m_LocalPosition: {x: -0.027721617, y: 0.059217565, z: -0.0023659805}
  m_LocalScale: {x: 0.9999999, y: 0.9999999, z: 0.9999999}
  m_Children:
  - {fileID: 371773530191076177}
  m_Father: {fileID: 371773529335189347}
  m_RootOrder: 1
  m_LocalEulerAnglesHint: {x: 0, y: 0, z: 0}
--- !u!1 &371773529155235529
GameObject:
  m_ObjectHideFlags: 0
  m_CorrespondingSourceObject: {fileID: 0}
  m_PrefabInstance: {fileID: 0}
  m_PrefabAsset: {fileID: 0}
  serializedVersion: 6
  m_Component:
  - component: {fileID: 371773529155235528}
  m_Layer: 0
  m_Name: IndexFinger3_R
  m_TagString: Untagged
  m_Icon: {fileID: 0}
  m_NavMeshLayer: 0
  m_StaticEditorFlags: 0
  m_IsActive: 1
--- !u!4 &371773529155235528
Transform:
  m_ObjectHideFlags: 0
  m_CorrespondingSourceObject: {fileID: 0}
  m_PrefabInstance: {fileID: 0}
  m_PrefabAsset: {fileID: 0}
  m_GameObject: {fileID: 371773529155235529}
  m_LocalRotation: {x: -0.0020129755, y: -0.002693932, z: 0.01068746, w: 0.99993724}
  m_LocalPosition: {x: -0.0000000037252903, y: 0.019282596, z: 0.000000054365955}
  m_LocalScale: {x: 0.99999994, y: 1, z: 1}
  m_Children: []
  m_Father: {fileID: 371773530848124109}
  m_RootOrder: 0
  m_LocalEulerAnglesHint: {x: 0, y: 0, z: 0}
--- !u!1 &371773529166921876
GameObject:
  m_ObjectHideFlags: 0
  m_CorrespondingSourceObject: {fileID: 0}
  m_PrefabInstance: {fileID: 0}
  m_PrefabAsset: {fileID: 0}
  serializedVersion: 6
  m_Component:
  - component: {fileID: 371773529166921899}
  m_Layer: 0
  m_Name: Right elbow
  m_TagString: Untagged
  m_Icon: {fileID: 0}
  m_NavMeshLayer: 0
  m_StaticEditorFlags: 0
  m_IsActive: 1
--- !u!4 &371773529166921899
Transform:
  m_ObjectHideFlags: 0
  m_CorrespondingSourceObject: {fileID: 0}
  m_PrefabInstance: {fileID: 0}
  m_PrefabAsset: {fileID: 0}
  m_GameObject: {fileID: 371773529166921876}
  m_LocalRotation: {x: 0.020927543, y: 0.02284008, z: -0.038365338, w: 0.9987835}
  m_LocalPosition: {x: -6.9849193e-10, y: 0.19492975, z: -0.00000010372605}
  m_LocalScale: {x: 1, y: 1, z: 0.99999994}
  m_Children:
  - {fileID: 371773529335189347}
  m_Father: {fileID: 371773529298111424}
  m_RootOrder: 0
  m_LocalEulerAnglesHint: {x: 0, y: 0, z: 0}
--- !u!1 &371773529245238419
GameObject:
  m_ObjectHideFlags: 0
  m_CorrespondingSourceObject: {fileID: 0}
  m_PrefabInstance: {fileID: 0}
  m_PrefabAsset: {fileID: 0}
  serializedVersion: 6
  m_Component:
  - component: {fileID: 371773529245238418}
  m_Layer: 0
  m_Name: MiddleFinger1_R
  m_TagString: Untagged
  m_Icon: {fileID: 0}
  m_NavMeshLayer: 0
  m_StaticEditorFlags: 0
  m_IsActive: 1
--- !u!4 &371773529245238418
Transform:
  m_ObjectHideFlags: 0
  m_CorrespondingSourceObject: {fileID: 0}
  m_PrefabInstance: {fileID: 0}
  m_PrefabAsset: {fileID: 0}
  m_GameObject: {fileID: 371773529245238419}
  m_LocalRotation: {x: -0.055584144, y: -0.058414873, z: -0.020929554, w: 0.996524}
  m_LocalPosition: {x: 0.0030269073, y: 0.06282999, z: 0.0037213776}
  m_LocalScale: {x: 0.9999999, y: 0.9999999, z: 1}
  m_Children:
  - {fileID: 371773530443433885}
  m_Father: {fileID: 371773529335189347}
  m_RootOrder: 2
  m_LocalEulerAnglesHint: {x: 0, y: 0, z: 0}
--- !u!1 &371773529273452934
GameObject:
  m_ObjectHideFlags: 0
  m_CorrespondingSourceObject: {fileID: 0}
  m_PrefabInstance: {fileID: 0}
  m_PrefabAsset: {fileID: 0}
  serializedVersion: 6
  m_Component:
  - component: {fileID: 371773529273452933}
  m_Layer: 0
  m_Name: HairJoint_a0c29532_e891_4d0a_9e54_333915336860
  m_TagString: Untagged
  m_Icon: {fileID: 0}
  m_NavMeshLayer: 0
  m_StaticEditorFlags: 0
  m_IsActive: 1
--- !u!4 &371773529273452933
Transform:
  m_ObjectHideFlags: 0
  m_CorrespondingSourceObject: {fileID: 0}
  m_PrefabInstance: {fileID: 0}
  m_PrefabAsset: {fileID: 0}
  m_GameObject: {fileID: 371773529273452934}
  m_LocalRotation: {x: 0.029134532, y: -0.00095253706, z: -0.013570116, w: 0.9994829}
  m_LocalPosition: {x: -0.000000048428774, y: 0.0265419, z: -9.313226e-10}
  m_LocalScale: {x: 0.99999994, y: 1, z: 0.99999994}
  m_Children: []
  m_Father: {fileID: 371773530055621208}
  m_RootOrder: 0
  m_LocalEulerAnglesHint: {x: 0, y: 0, z: 0}
--- !u!1 &371773529280821730
GameObject:
  m_ObjectHideFlags: 0
  m_CorrespondingSourceObject: {fileID: 0}
  m_PrefabInstance: {fileID: 0}
  m_PrefabAsset: {fileID: 0}
  serializedVersion: 6
  m_Component:
  - component: {fileID: 371773529280821729}
  m_Layer: 0
  m_Name: HairJoint_44ee48ec_a132_4c6b_a14f_b0b1a0526502
  m_TagString: Untagged
  m_Icon: {fileID: 0}
  m_NavMeshLayer: 0
  m_StaticEditorFlags: 0
  m_IsActive: 1
--- !u!4 &371773529280821729
Transform:
  m_ObjectHideFlags: 0
  m_CorrespondingSourceObject: {fileID: 0}
  m_PrefabInstance: {fileID: 0}
  m_PrefabAsset: {fileID: 0}
  m_GameObject: {fileID: 371773529280821730}
  m_LocalRotation: {x: 0.0012206113, y: -0.004791506, z: 0.008895741, w: 0.9999482}
  m_LocalPosition: {x: 0.00000002910383, y: 0.028476559, z: -0.000000035390258}
  m_LocalScale: {x: 1, y: 1, z: 0.99999994}
  m_Children: []
  m_Father: {fileID: 371773530498167560}
  m_RootOrder: 0
  m_LocalEulerAnglesHint: {x: 0, y: 0, z: 0}
--- !u!1 &371773529298111425
GameObject:
  m_ObjectHideFlags: 0
  m_CorrespondingSourceObject: {fileID: 0}
  m_PrefabInstance: {fileID: 0}
  m_PrefabAsset: {fileID: 0}
  serializedVersion: 6
  m_Component:
  - component: {fileID: 371773529298111424}
  m_Layer: 0
  m_Name: Right arm
  m_TagString: Untagged
  m_Icon: {fileID: 0}
  m_NavMeshLayer: 0
  m_StaticEditorFlags: 0
  m_IsActive: 1
--- !u!4 &371773529298111424
Transform:
  m_ObjectHideFlags: 0
  m_CorrespondingSourceObject: {fileID: 0}
  m_PrefabInstance: {fileID: 0}
  m_PrefabAsset: {fileID: 0}
  m_GameObject: {fileID: 371773529298111425}
  m_LocalRotation: {x: 0.065359384, y: 0.06496004, z: 0.016992742, w: 0.9956001}
  m_LocalPosition: {x: 0.00000002188608, y: 0.10000074, z: -0.000000045460183}
  m_LocalScale: {x: 1, y: 1.0000001, z: 1}
  m_Children:
  - {fileID: 371773529166921899}
  m_Father: {fileID: 371773529794450973}
  m_RootOrder: 0
  m_LocalEulerAnglesHint: {x: 0, y: 0, z: 0}
--- !u!1 &371773529322310487
GameObject:
  m_ObjectHideFlags: 0
  m_CorrespondingSourceObject: {fileID: 0}
  m_PrefabInstance: {fileID: 0}
  m_PrefabAsset: {fileID: 0}
  serializedVersion: 6
  m_Component:
  - component: {fileID: 371773529322310486}
  m_Layer: 0
  m_Name: RingFinger2_R
  m_TagString: Untagged
  m_Icon: {fileID: 0}
  m_NavMeshLayer: 0
  m_StaticEditorFlags: 0
  m_IsActive: 1
--- !u!4 &371773529322310486
Transform:
  m_ObjectHideFlags: 0
  m_CorrespondingSourceObject: {fileID: 0}
  m_PrefabInstance: {fileID: 0}
  m_PrefabAsset: {fileID: 0}
  m_GameObject: {fileID: 371773529322310487}
  m_LocalRotation: {x: 0.026161984, y: 0.026269395, z: -0.0045109093, w: 0.9993023}
  m_LocalPosition: {x: -0.0000000019790605, y: 0.032367487, z: -0.0000000017462298}
  m_LocalScale: {x: 1, y: 1, z: 1.0000001}
  m_Children:
  - {fileID: 371773530479336792}
  m_Father: {fileID: 371773529391027189}
  m_RootOrder: 0
  m_LocalEulerAnglesHint: {x: 0, y: 0, z: 0}
--- !u!1 &371773529335189356
GameObject:
  m_ObjectHideFlags: 0
  m_CorrespondingSourceObject: {fileID: 0}
  m_PrefabInstance: {fileID: 0}
  m_PrefabAsset: {fileID: 0}
  serializedVersion: 6
  m_Component:
  - component: {fileID: 371773529335189347}
  m_Layer: 0
  m_Name: Right wrist
  m_TagString: Untagged
  m_Icon: {fileID: 0}
  m_NavMeshLayer: 0
  m_StaticEditorFlags: 0
  m_IsActive: 1
--- !u!4 &371773529335189347
Transform:
  m_ObjectHideFlags: 0
  m_CorrespondingSourceObject: {fileID: 0}
  m_PrefabInstance: {fileID: 0}
  m_PrefabAsset: {fileID: 0}
  m_GameObject: {fileID: 371773529335189356}
  m_LocalRotation: {x: 0.03735096, y: 0.040495377, z: 0.030354427, w: 0.9980199}
  m_LocalPosition: {x: -0.0000000013969839, y: 0.20772746, z: 0.000000043535692}
  m_LocalScale: {x: 0.9999999, y: 0.9999999, z: 1}
  m_Children:
  - {fileID: 371773530017466751}
  - {fileID: 371773529115334858}
  - {fileID: 371773529245238418}
  - {fileID: 371773529391027189}
  - {fileID: 371773529511914810}
  m_Father: {fileID: 371773529166921899}
  m_RootOrder: 0
  m_LocalEulerAnglesHint: {x: 0, y: 0, z: 0}
--- !u!1 &371773529343117944
GameObject:
  m_ObjectHideFlags: 0
  m_CorrespondingSourceObject: {fileID: 0}
  m_PrefabInstance: {fileID: 0}
  m_PrefabAsset: {fileID: 0}
  serializedVersion: 6
  m_Component:
  - component: {fileID: 371773529343117951}
  m_Layer: 0
  m_Name: HairJoint_5806da88_2c3c_4025_9683_392e3113379d
  m_TagString: Untagged
  m_Icon: {fileID: 0}
  m_NavMeshLayer: 0
  m_StaticEditorFlags: 0
  m_IsActive: 1
--- !u!4 &371773529343117951
Transform:
  m_ObjectHideFlags: 0
  m_CorrespondingSourceObject: {fileID: 0}
  m_PrefabInstance: {fileID: 0}
  m_PrefabAsset: {fileID: 0}
  m_GameObject: {fileID: 371773529343117944}
  m_LocalRotation: {x: 0.94812924, y: 0.049468435, z: 0.04946841, w: -0.3100915}
  m_LocalPosition: {x: -0.0053337803, y: 0.12289071, z: -0.12271386}
  m_LocalScale: {x: 1, y: 1, z: 1.0000001}
  m_Children:
  - {fileID: 371773530013869268}
  m_Father: {fileID: 371773529952469062}
  m_RootOrder: 3
  m_LocalEulerAnglesHint: {x: 0, y: 0, z: 0}
--- !u!1 &371773529390797279
GameObject:
  m_ObjectHideFlags: 0
  m_CorrespondingSourceObject: {fileID: 0}
  m_PrefabInstance: {fileID: 0}
  m_PrefabAsset: {fileID: 0}
  serializedVersion: 6
  m_Component:
  - component: {fileID: 371773529390797278}
  m_Layer: 0
  m_Name: HairJoint_6a291c47_d31e_458f_b3b4_fe4e1dbd1874
  m_TagString: Untagged
  m_Icon: {fileID: 0}
  m_NavMeshLayer: 0
  m_StaticEditorFlags: 0
  m_IsActive: 1
--- !u!4 &371773529390797278
Transform:
  m_ObjectHideFlags: 0
  m_CorrespondingSourceObject: {fileID: 0}
  m_PrefabInstance: {fileID: 0}
  m_PrefabAsset: {fileID: 0}
  m_GameObject: {fileID: 371773529390797279}
  m_LocalRotation: {x: -0.07457512, y: 0.22934382, z: -0.29956788, w: 0.9230921}
  m_LocalPosition: {x: -0.000000067055225, y: 0.08144179, z: 0.00000008940697}
  m_LocalScale: {x: 0.99999994, y: 1, z: 1}
  m_Children: []
  m_Father: {fileID: 371773529923886493}
  m_RootOrder: 0
  m_LocalEulerAnglesHint: {x: 0, y: 0, z: 0}
--- !u!1 &371773529391027190
GameObject:
  m_ObjectHideFlags: 0
  m_CorrespondingSourceObject: {fileID: 0}
  m_PrefabInstance: {fileID: 0}
  m_PrefabAsset: {fileID: 0}
  serializedVersion: 6
  m_Component:
  - component: {fileID: 371773529391027189}
  m_Layer: 0
  m_Name: RingFinger1_R
  m_TagString: Untagged
  m_Icon: {fileID: 0}
  m_NavMeshLayer: 0
  m_StaticEditorFlags: 0
  m_IsActive: 1
--- !u!4 &371773529391027189
Transform:
  m_ObjectHideFlags: 0
  m_CorrespondingSourceObject: {fileID: 0}
  m_PrefabInstance: {fileID: 0}
  m_PrefabAsset: {fileID: 0}
  m_GameObject: {fileID: 371773529391027190}
  m_LocalRotation: {x: -0.04433583, y: -0.04455115, z: 0.01009111, w: 0.99797183}
  m_LocalPosition: {x: -0.012432461, y: 0.06307944, z: 0.0030182423}
  m_LocalScale: {x: 0.9999999, y: 0.9999998, z: 0.99999994}
  m_Children:
  - {fileID: 371773529322310486}
  m_Father: {fileID: 371773529335189347}
  m_RootOrder: 3
  m_LocalEulerAnglesHint: {x: 0, y: 0, z: 0}
--- !u!1 &371773529442020852
GameObject:
  m_ObjectHideFlags: 0
  m_CorrespondingSourceObject: {fileID: 0}
  m_PrefabInstance: {fileID: 0}
  m_PrefabAsset: {fileID: 0}
  serializedVersion: 6
  m_Component:
  - component: {fileID: 371773529442020363}
  m_Layer: 0
  m_Name: Spine
  m_TagString: Untagged
  m_Icon: {fileID: 0}
  m_NavMeshLayer: 0
  m_StaticEditorFlags: 0
  m_IsActive: 1
--- !u!4 &371773529442020363
Transform:
  m_ObjectHideFlags: 0
  m_CorrespondingSourceObject: {fileID: 0}
  m_PrefabInstance: {fileID: 0}
  m_PrefabAsset: {fileID: 0}
  m_GameObject: {fileID: 371773529442020852}
  m_LocalRotation: {x: -0.02794571, y: 0.00000006839587, z: 0.000000068395856, w: 0.9996095}
  m_LocalPosition: {x: -0.000000020780135, y: 0.10999453, z: 0.011873061}
  m_LocalScale: {x: 1, y: 1, z: 1}
  m_Children:
  - {fileID: 371773529665206308}
  m_Father: {fileID: 371773530157805334}
  m_RootOrder: 2
  m_LocalEulerAnglesHint: {x: 0, y: 0, z: 0}
--- !u!1 &371773529511914811
GameObject:
  m_ObjectHideFlags: 0
  m_CorrespondingSourceObject: {fileID: 0}
  m_PrefabInstance: {fileID: 0}
  m_PrefabAsset: {fileID: 0}
  serializedVersion: 6
  m_Component:
  - component: {fileID: 371773529511914810}
  m_Layer: 0
  m_Name: Thumb0_R
  m_TagString: Untagged
  m_Icon: {fileID: 0}
  m_NavMeshLayer: 0
  m_StaticEditorFlags: 0
  m_IsActive: 1
--- !u!4 &371773529511914810
Transform:
  m_ObjectHideFlags: 0
  m_CorrespondingSourceObject: {fileID: 0}
  m_PrefabInstance: {fileID: 0}
  m_PrefabAsset: {fileID: 0}
  m_GameObject: {fileID: 371773529511914811}
  m_LocalRotation: {x: -0.07424728, y: -0.10550272, z: -0.3882422, w: 0.9124826}
  m_LocalPosition: {x: 0.017602734, y: 0.0017398704, z: -0.006159656}
  m_LocalScale: {x: 1, y: 0.9999998, z: 1}
  m_Children:
  - {fileID: 371773528957993247}
  m_Father: {fileID: 371773529335189347}
  m_RootOrder: 4
  m_LocalEulerAnglesHint: {x: 0, y: 0, z: 0}
--- !u!1 &371773529531403978
GameObject:
  m_ObjectHideFlags: 0
  m_CorrespondingSourceObject: {fileID: 0}
  m_PrefabInstance: {fileID: 0}
  m_PrefabAsset: {fileID: 0}
  serializedVersion: 6
  m_Component:
  - component: {fileID: 371773529531403977}
  - component: {fileID: 371773529531403976}
  m_Layer: 0
  m_Name: Body
  m_TagString: Untagged
  m_Icon: {fileID: 0}
  m_NavMeshLayer: 0
  m_StaticEditorFlags: 0
  m_IsActive: 1
--- !u!4 &371773529531403977
Transform:
  m_ObjectHideFlags: 0
  m_CorrespondingSourceObject: {fileID: 0}
  m_PrefabInstance: {fileID: 0}
  m_PrefabAsset: {fileID: 0}
  m_GameObject: {fileID: 371773529531403978}
  m_LocalRotation: {x: -0.7071068, y: 0, z: -0, w: 0.7071067}
  m_LocalPosition: {x: -0, y: 0, z: 0}
  m_LocalScale: {x: 1, y: 1, z: 1}
  m_Children: []
  m_Father: {fileID: 371773530049164780}
  m_RootOrder: 1
  m_LocalEulerAnglesHint: {x: 0, y: 0, z: 0}
--- !u!137 &371773529531403976
SkinnedMeshRenderer:
  m_ObjectHideFlags: 0
  m_CorrespondingSourceObject: {fileID: 0}
  m_PrefabInstance: {fileID: 0}
  m_PrefabAsset: {fileID: 0}
  m_GameObject: {fileID: 371773529531403978}
  m_Enabled: 1
  m_CastShadows: 1
  m_ReceiveShadows: 1
  m_DynamicOccludee: 1
  m_StaticShadowCaster: 0
  m_MotionVectors: 1
  m_LightProbeUsage: 1
  m_ReflectionProbeUsage: 1
  m_RayTracingMode: 0
  m_RayTraceProcedural: 0
  m_RenderingLayerMask: 1
  m_RendererPriority: 0
  m_Materials:
  - {fileID: 2100000, guid: f2a2998c6148bcd419917c38f6f0afc1, type: 2}
  - {fileID: 2100000, guid: 7a5ca17d0a415be489404519deb03641, type: 2}
  - {fileID: 2100000, guid: f3efe9ccee468214d91ecf3939f4139d, type: 2}
  - {fileID: 2100000, guid: 333a3ca907c285a4d9fd3a96a37dd89c, type: 2}
  - {fileID: 2100000, guid: bc0f1929311ee974f8c26ccbc1ec5c29, type: 2}
  - {fileID: 2100000, guid: bc1f8b1f876340444972d5aab5fff958, type: 2}
  - {fileID: 2100000, guid: 566317ca1eb9c814594786d07fbe5172, type: 2}
  - {fileID: 2100000, guid: 4010861bf73189542ad2ca855a786259, type: 2}
  - {fileID: 2100000, guid: bd41d366158f43f45a9336398ef1fe03, type: 2}
  - {fileID: 2100000, guid: dccd2f345b0004749916c4d9f99cdc2c, type: 2}
  - {fileID: 2100000, guid: 019a8f5c53cc7654cbf7b5980c479f9a, type: 2}
  - {fileID: 2100000, guid: 2c600f254afc6534ca464081230476ee, type: 2}
  - {fileID: 2100000, guid: 84c4a111310767042931b9fd19473855, type: 2}
  - {fileID: 2100000, guid: f0dfe9c0cd1c0964795cef86446cae72, type: 2}
  - {fileID: 2100000, guid: f15ab58fdafadf346bbdc4356ad2e979, type: 2}
  m_StaticBatchInfo:
    firstSubMesh: 0
    subMeshCount: 0
  m_StaticBatchRoot: {fileID: 0}
  m_ProbeAnchor: {fileID: 0}
  m_LightProbeVolumeOverride: {fileID: 0}
  m_ScaleInLightmap: 1
  m_ReceiveGI: 1
  m_PreserveUVs: 0
  m_IgnoreNormalsForChartDetection: 0
  m_ImportantGI: 0
  m_StitchLightmapSeams: 1
  m_SelectedEditorRenderState: 3
  m_MinimumChartSize: 4
  m_AutoUVMaxDistance: 0.5
  m_AutoUVMaxAngle: 89
  m_LightmapParameters: {fileID: 0}
  m_SortingLayerID: 0
  m_SortingLayer: 0
  m_SortingOrder: 0
  serializedVersion: 2
  m_Quality: 0
  m_UpdateWhenOffscreen: 0
  m_SkinnedMotionVectors: 1
  m_Mesh: {fileID: 2959467708922500008, guid: 6883adb884ca31f469db2fe357ee9d6a, type: 3}
  m_Bones:
  - {fileID: 371773530157805334}
  - {fileID: 371773530278472953}
  - {fileID: 371773530357306285}
  - {fileID: 371773529960711043}
  - {fileID: 371773530096866012}
  - {fileID: 371773530363355351}
  - {fileID: 371773529906136290}
  - {fileID: 371773528829751042}
  - {fileID: 371773529754057912}
  - {fileID: 371773529442020363}
  - {fileID: 371773529665206308}
  - {fileID: 371773529794450973}
  - {fileID: 371773529298111424}
  - {fileID: 371773529166921899}
  - {fileID: 371773529335189347}
  - {fileID: 371773529511914810}
  - {fileID: 371773528957993247}
  - {fileID: 371773529078559553}
  - {fileID: 371773529391027189}
  - {fileID: 371773529322310486}
  - {fileID: 371773530479336792}
  - {fileID: 371773529245238418}
  - {fileID: 371773530443433885}
  - {fileID: 371773530615252253}
  - {fileID: 371773529115334858}
  - {fileID: 371773530191076177}
  - {fileID: 371773529766903456}
  - {fileID: 371773530017466751}
  - {fileID: 371773530848124109}
  - {fileID: 371773529155235528}
  - {fileID: 371773530561695220}
  - {fileID: 371773530169652090}
  - {fileID: 371773529833141621}
  - {fileID: 371773529751934180}
  - {fileID: 371773530810207434}
  - {fileID: 371773530507079552}
  - {fileID: 371773529627267602}
  - {fileID: 371773529686140311}
  - {fileID: 371773528790162224}
  - {fileID: 371773530506525949}
  - {fileID: 371773530876527789}
  - {fileID: 371773530336826812}
  - {fileID: 371773529856970505}
  - {fileID: 371773529980431594}
  - {fileID: 371773529096523405}
  - {fileID: 371773529550273237}
  - {fileID: 371773528904361758}
  - {fileID: 371773530016007942}
  - {fileID: 371773530562375462}
  - {fileID: 371773528981046779}
  - {fileID: 371773529952469062}
  - {fileID: 371773529923886493}
  - {fileID: 371773529390797278}
  - {fileID: 371773530498167560}
  - {fileID: 371773529280821729}
  - {fileID: 371773528786082949}
  - {fileID: 371773530206750234}
  - {fileID: 371773528800580992}
  - {fileID: 371773530038266864}
  - {fileID: 371773529628384852}
  - {fileID: 371773529642789509}
  - {fileID: 371773530580859586}
  - {fileID: 371773529887899571}
  - {fileID: 371773529343117951}
  - {fileID: 371773530013869268}
  - {fileID: 371773530055621208}
  - {fileID: 371773529273452933}
  - {fileID: 371773530857039425}
  - {fileID: 371773530754120086}
  - {fileID: 371773529696685203}
  - {fileID: 371773530240275051}
  m_BlendShapeWeights: []
  m_RootBone: {fileID: 371773530157805334}
  m_AABB:
    m_Center: {x: 0.00000023841858, y: -0.19741672, z: 0.014101073}
    m_Extent: {x: 0.66448116, y: 0.88027865, z: 0.1887527}
  m_DirtyAABB: 0
--- !u!1 &371773529550273238
GameObject:
  m_ObjectHideFlags: 0
  m_CorrespondingSourceObject: {fileID: 0}
  m_PrefabInstance: {fileID: 0}
  m_PrefabAsset: {fileID: 0}
  serializedVersion: 6
  m_Component:
  - component: {fileID: 371773529550273237}
  m_Layer: 0
  m_Name: LittleFinger3_L
  m_TagString: Untagged
  m_Icon: {fileID: 0}
  m_NavMeshLayer: 0
  m_StaticEditorFlags: 0
  m_IsActive: 1
--- !u!4 &371773529550273237
Transform:
  m_ObjectHideFlags: 0
  m_CorrespondingSourceObject: {fileID: 0}
  m_PrefabInstance: {fileID: 0}
  m_PrefabAsset: {fileID: 0}
  m_GameObject: {fileID: 371773529550273238}
  m_LocalRotation: {x: 0.010729395, y: -0.009617495, z: 0.012548022, w: 0.9998175}
  m_LocalPosition: {x: -0.0000000023283064, y: 0.017072547, z: -0.000000037965947}
  m_LocalScale: {x: 0.9999999, y: 1, z: 1}
  m_Children: []
  m_Father: {fileID: 371773529096523405}
  m_RootOrder: 0
  m_LocalEulerAnglesHint: {x: 0, y: 0, z: 0}
--- !u!1 &371773529627267603
GameObject:
  m_ObjectHideFlags: 0
  m_CorrespondingSourceObject: {fileID: 0}
  m_PrefabInstance: {fileID: 0}
  m_PrefabAsset: {fileID: 0}
  serializedVersion: 6
  m_Component:
  - component: {fileID: 371773529627267602}
  m_Layer: 0
  m_Name: Thumb2_L
  m_TagString: Untagged
  m_Icon: {fileID: 0}
  m_NavMeshLayer: 0
  m_StaticEditorFlags: 0
  m_IsActive: 1
--- !u!4 &371773529627267602
Transform:
  m_ObjectHideFlags: 0
  m_CorrespondingSourceObject: {fileID: 0}
  m_PrefabInstance: {fileID: 0}
  m_PrefabAsset: {fileID: 0}
  m_GameObject: {fileID: 371773529627267603}
  m_LocalRotation: {x: 0.0025603988, y: -0.012229784, z: 0.03961621, w: 0.99913687}
  m_LocalPosition: {x: -0.000000022351742, y: 0.027406804, z: -0.00000008800998}
  m_LocalScale: {x: 0.99999994, y: 0.99999994, z: 0.99999994}
  m_Children: []
  m_Father: {fileID: 371773530507079552}
  m_RootOrder: 0
  m_LocalEulerAnglesHint: {x: 0, y: 0, z: 0}
--- !u!1 &371773529628384853
GameObject:
  m_ObjectHideFlags: 0
  m_CorrespondingSourceObject: {fileID: 0}
  m_PrefabInstance: {fileID: 0}
  m_PrefabAsset: {fileID: 0}
  serializedVersion: 6
  m_Component:
  - component: {fileID: 371773529628384852}
  m_Layer: 0
  m_Name: HairJoint_da1cf04e_ae6f_4690_8da2_79c6a4a98b53
  m_TagString: Untagged
  m_Icon: {fileID: 0}
  m_NavMeshLayer: 0
  m_StaticEditorFlags: 0
  m_IsActive: 1
--- !u!4 &371773529628384852
Transform:
  m_ObjectHideFlags: 0
  m_CorrespondingSourceObject: {fileID: 0}
  m_PrefabInstance: {fileID: 0}
  m_PrefabAsset: {fileID: 0}
  m_GameObject: {fileID: 371773529628384853}
  m_LocalRotation: {x: 0.95601314, y: 0.11126598, z: 0.11126615, w: -0.24754515}
  m_LocalPosition: {x: 0.098675124, y: 0.10267484, z: 0.0062019443}
  m_LocalScale: {x: 1, y: 1, z: 0.9999999}
  m_Children:
  - {fileID: 371773529642789509}
  m_Father: {fileID: 371773529952469062}
  m_RootOrder: 9
  m_LocalEulerAnglesHint: {x: 0, y: 0, z: 0}
--- !u!1 &371773529642789510
GameObject:
  m_ObjectHideFlags: 0
  m_CorrespondingSourceObject: {fileID: 0}
  m_PrefabInstance: {fileID: 0}
  m_PrefabAsset: {fileID: 0}
  serializedVersion: 6
  m_Component:
  - component: {fileID: 371773529642789509}
  m_Layer: 0
  m_Name: HairJoint_827e22e3_0a38_4b89_9ad2_f16e1af526ce
  m_TagString: Untagged
  m_Icon: {fileID: 0}
  m_NavMeshLayer: 0
  m_StaticEditorFlags: 0
  m_IsActive: 1
--- !u!4 &371773529642789509
Transform:
  m_ObjectHideFlags: 0
  m_CorrespondingSourceObject: {fileID: 0}
  m_PrefabInstance: {fileID: 0}
  m_PrefabAsset: {fileID: 0}
  m_GameObject: {fileID: 371773529642789510}
  m_LocalRotation: {x: -0.043219864, y: -0.011117696, z: 0.0053113652, w: 0.99898964}
  m_LocalPosition: {x: -0.00000001169974, y: 0.025490692, z: 0.00000011222437}
  m_LocalScale: {x: 0.99999994, y: 1.0000001, z: 0.99999994}
  m_Children: []
  m_Father: {fileID: 371773529628384852}
  m_RootOrder: 0
  m_LocalEulerAnglesHint: {x: 0, y: 0, z: 0}
--- !u!1 &371773529665206309
GameObject:
  m_ObjectHideFlags: 0
  m_CorrespondingSourceObject: {fileID: 0}
  m_PrefabInstance: {fileID: 0}
  m_PrefabAsset: {fileID: 0}
  serializedVersion: 6
  m_Component:
  - component: {fileID: 371773529665206308}
  m_Layer: 0
  m_Name: Chest
  m_TagString: Untagged
  m_Icon: {fileID: 0}
  m_NavMeshLayer: 0
  m_StaticEditorFlags: 0
  m_IsActive: 1
--- !u!4 &371773529665206308
Transform:
  m_ObjectHideFlags: 0
  m_CorrespondingSourceObject: {fileID: 0}
  m_PrefabInstance: {fileID: 0}
  m_PrefabAsset: {fileID: 0}
  m_GameObject: {fileID: 371773529665206309}
  m_LocalRotation: {x: -0.004083374, y: -0.00000011176699, z: -0.000000118770835, w: 0.99999166}
  m_LocalPosition: {x: 2.1919133e-11, y: 0.070398666, z: -0.0000000045788187}
  m_LocalScale: {x: 1, y: 1, z: 1}
  m_Children:
  - {fileID: 371773530561695220}
  - {fileID: 371773528981046779}
  - {fileID: 371773529794450973}
  m_Father: {fileID: 371773529442020363}
  m_RootOrder: 0
  m_LocalEulerAnglesHint: {x: 0, y: 0, z: 0}
--- !u!1 &371773529686140304
GameObject:
  m_ObjectHideFlags: 0
  m_CorrespondingSourceObject: {fileID: 0}
  m_PrefabInstance: {fileID: 0}
  m_PrefabAsset: {fileID: 0}
  serializedVersion: 6
  m_Component:
  - component: {fileID: 371773529686140311}
  m_Layer: 0
  m_Name: RingFinger1_L
  m_TagString: Untagged
  m_Icon: {fileID: 0}
  m_NavMeshLayer: 0
  m_StaticEditorFlags: 0
  m_IsActive: 1
--- !u!4 &371773529686140311
Transform:
  m_ObjectHideFlags: 0
  m_CorrespondingSourceObject: {fileID: 0}
  m_PrefabInstance: {fileID: 0}
  m_PrefabAsset: {fileID: 0}
  m_GameObject: {fileID: 371773529686140304}
  m_LocalRotation: {x: -0.044335913, y: 0.044551063, z: -0.01009421, w: 0.9979718}
  m_LocalPosition: {x: 0.012432466, y: 0.063079625, z: 0.0030183587}
  m_LocalScale: {x: 1.0000001, y: 1, z: 0.99999994}
  m_Children:
  - {fileID: 371773528790162224}
  m_Father: {fileID: 371773529751934180}
  m_RootOrder: 3
  m_LocalEulerAnglesHint: {x: 0, y: 0, z: 0}
--- !u!1 &371773529696685212
GameObject:
  m_ObjectHideFlags: 0
  m_CorrespondingSourceObject: {fileID: 0}
  m_PrefabInstance: {fileID: 0}
  m_PrefabAsset: {fileID: 0}
  serializedVersion: 6
  m_Component:
  - component: {fileID: 371773529696685203}
  m_Layer: 0
  m_Name: Eye_R
  m_TagString: Untagged
  m_Icon: {fileID: 0}
  m_NavMeshLayer: 0
  m_StaticEditorFlags: 0
  m_IsActive: 1
--- !u!4 &371773529696685203
Transform:
  m_ObjectHideFlags: 0
  m_CorrespondingSourceObject: {fileID: 0}
  m_PrefabInstance: {fileID: 0}
  m_PrefabAsset: {fileID: 0}
  m_GameObject: {fileID: 371773529696685212}
  m_LocalRotation: {x: -0.6758278, y: 0.12849735, z: 0.1284974, w: 0.7143064}
  m_LocalPosition: {x: 0.016188713, y: 0.056627512, z: 0.028949304}
  m_LocalScale: {x: 0.99999994, y: 0.99999994, z: 0.99999994}
  m_Children: []
  m_Father: {fileID: 371773529952469062}
  m_RootOrder: 1
  m_LocalEulerAnglesHint: {x: 0, y: 0, z: 0}
--- !u!1 &371773529751934181
GameObject:
  m_ObjectHideFlags: 0
  m_CorrespondingSourceObject: {fileID: 0}
  m_PrefabInstance: {fileID: 0}
  m_PrefabAsset: {fileID: 0}
  serializedVersion: 6
  m_Component:
  - component: {fileID: 371773529751934180}
  m_Layer: 0
  m_Name: Left wrist
  m_TagString: Untagged
  m_Icon: {fileID: 0}
  m_NavMeshLayer: 0
  m_StaticEditorFlags: 0
  m_IsActive: 1
--- !u!4 &371773529751934180
Transform:
  m_ObjectHideFlags: 0
  m_CorrespondingSourceObject: {fileID: 0}
  m_PrefabInstance: {fileID: 0}
  m_PrefabAsset: {fileID: 0}
  m_GameObject: {fileID: 371773529751934181}
  m_LocalRotation: {x: 0.037352704, y: -0.04049718, z: -0.03035421, w: 0.99801975}
  m_LocalPosition: {x: -0.000000003259629, y: 0.20772746, z: -0.00000019425715}
  m_LocalScale: {x: 1, y: 1, z: 1.0000001}
  m_Children:
  - {fileID: 371773528904361758}
  - {fileID: 371773529980431594}
  - {fileID: 371773530876527789}
  - {fileID: 371773529686140311}
  - {fileID: 371773530810207434}
  m_Father: {fileID: 371773529833141621}
  m_RootOrder: 0
  m_LocalEulerAnglesHint: {x: 0, y: 0, z: 0}
--- !u!1 &371773529754057913
GameObject:
  m_ObjectHideFlags: 0
  m_CorrespondingSourceObject: {fileID: 0}
  m_PrefabInstance: {fileID: 0}
  m_PrefabAsset: {fileID: 0}
  serializedVersion: 6
  m_Component:
  - component: {fileID: 371773529754057912}
  m_Layer: 0
  m_Name: Left toe
  m_TagString: Untagged
  m_Icon: {fileID: 0}
  m_NavMeshLayer: 0
  m_StaticEditorFlags: 0
  m_IsActive: 1
--- !u!4 &371773529754057912
Transform:
  m_ObjectHideFlags: 0
  m_CorrespondingSourceObject: {fileID: 0}
  m_PrefabInstance: {fileID: 0}
  m_PrefabAsset: {fileID: 0}
  m_GameObject: {fileID: 371773529754057913}
  m_LocalRotation: {x: -0.22035018, y: -0.116705626, z: 0.035669953, w: 0.96775687}
  m_LocalPosition: {x: 4.656613e-10, y: 0.13516048, z: 2.3283064e-10}
  m_LocalScale: {x: 0.99999994, y: 0.9999998, z: 0.99999994}
  m_Children: []
  m_Father: {fileID: 371773528829751042}
  m_RootOrder: 0
  m_LocalEulerAnglesHint: {x: 0, y: 0, z: 0}
--- !u!1 &371773529766903457
GameObject:
  m_ObjectHideFlags: 0
  m_CorrespondingSourceObject: {fileID: 0}
  m_PrefabInstance: {fileID: 0}
  m_PrefabAsset: {fileID: 0}
  serializedVersion: 6
  m_Component:
  - component: {fileID: 371773529766903456}
  m_Layer: 0
  m_Name: LittleFinger3_R
  m_TagString: Untagged
  m_Icon: {fileID: 0}
  m_NavMeshLayer: 0
  m_StaticEditorFlags: 0
  m_IsActive: 1
--- !u!4 &371773529766903456
Transform:
  m_ObjectHideFlags: 0
  m_CorrespondingSourceObject: {fileID: 0}
  m_PrefabInstance: {fileID: 0}
  m_PrefabAsset: {fileID: 0}
  m_GameObject: {fileID: 371773529766903457}
  m_LocalRotation: {x: 0.010725858, y: 0.009614148, z: -0.012549178, w: 0.9998175}
  m_LocalPosition: {x: -0.0000000011641532, y: 0.017072441, z: 0.000000066298526}
  m_LocalScale: {x: 1, y: 0.99999994, z: 1}
  m_Children: []
  m_Father: {fileID: 371773530191076177}
  m_RootOrder: 0
  m_LocalEulerAnglesHint: {x: 0, y: 0, z: 0}
--- !u!1 &371773529794450974
GameObject:
  m_ObjectHideFlags: 0
  m_CorrespondingSourceObject: {fileID: 0}
  m_PrefabInstance: {fileID: 0}
  m_PrefabAsset: {fileID: 0}
  serializedVersion: 6
  m_Component:
  - component: {fileID: 371773529794450973}
  m_Layer: 0
  m_Name: Right shoulder
  m_TagString: Untagged
  m_Icon: {fileID: 0}
  m_NavMeshLayer: 0
  m_StaticEditorFlags: 0
  m_IsActive: 1
--- !u!4 &371773529794450973
Transform:
  m_ObjectHideFlags: 0
  m_CorrespondingSourceObject: {fileID: 0}
  m_PrefabInstance: {fileID: 0}
  m_PrefabAsset: {fileID: 0}
  m_GameObject: {fileID: 371773529794450974}
  m_LocalRotation: {x: 0.56120104, y: 0.48951253, z: 0.52192175, w: -0.41596702}
  m_LocalPosition: {x: 0.02191351, y: 0.17660657, z: 0.0031512405}
  m_LocalScale: {x: 1, y: 1.0000001, z: 1}
  m_Children:
  - {fileID: 371773529298111424}
  m_Father: {fileID: 371773529665206308}
  m_RootOrder: 2
  m_LocalEulerAnglesHint: {x: 0, y: 0, z: 0}
--- !u!1 &371773529833141622
GameObject:
  m_ObjectHideFlags: 0
  m_CorrespondingSourceObject: {fileID: 0}
  m_PrefabInstance: {fileID: 0}
  m_PrefabAsset: {fileID: 0}
  serializedVersion: 6
  m_Component:
  - component: {fileID: 371773529833141621}
  m_Layer: 0
  m_Name: Left elbow
  m_TagString: Untagged
  m_Icon: {fileID: 0}
  m_NavMeshLayer: 0
  m_StaticEditorFlags: 0
  m_IsActive: 1
--- !u!4 &371773529833141621
Transform:
  m_ObjectHideFlags: 0
  m_CorrespondingSourceObject: {fileID: 0}
  m_PrefabInstance: {fileID: 0}
  m_PrefabAsset: {fileID: 0}
  m_GameObject: {fileID: 371773529833141622}
  m_LocalRotation: {x: 0.020923138, y: -0.022835443, z: 0.03836532, w: 0.9987837}
  m_LocalPosition: {x: -0.000000004773028, y: 0.1949295, z: -0.000000078289304}
  m_LocalScale: {x: 1, y: 1.0000001, z: 0.9999998}
  m_Children:
  - {fileID: 371773529751934180}
  m_Father: {fileID: 371773530169652090}
  m_RootOrder: 0
  m_LocalEulerAnglesHint: {x: 0, y: 0, z: 0}
--- !u!1 &371773529856970506
GameObject:
  m_ObjectHideFlags: 0
  m_CorrespondingSourceObject: {fileID: 0}
  m_PrefabInstance: {fileID: 0}
  m_PrefabAsset: {fileID: 0}
  serializedVersion: 6
  m_Component:
  - component: {fileID: 371773529856970505}
  m_Layer: 0
  m_Name: MiddleFinger3_L
  m_TagString: Untagged
  m_Icon: {fileID: 0}
  m_NavMeshLayer: 0
  m_StaticEditorFlags: 0
  m_IsActive: 1
--- !u!4 &371773529856970505
Transform:
  m_ObjectHideFlags: 0
  m_CorrespondingSourceObject: {fileID: 0}
  m_PrefabInstance: {fileID: 0}
  m_PrefabAsset: {fileID: 0}
  m_GameObject: {fileID: 371773529856970506}
  m_LocalRotation: {x: 0.021144629, y: -0.021769866, z: -0.00028890112, w: 0.9995393}
  m_LocalPosition: {x: 9.313226e-10, y: 0.021528736, z: -0.000000014202669}
  m_LocalScale: {x: 1.0000001, y: 1.0000001, z: 0.99999994}
  m_Children: []
  m_Father: {fileID: 371773530336826812}
  m_RootOrder: 0
  m_LocalEulerAnglesHint: {x: 0, y: 0, z: 0}
--- !u!1 &371773529887899580
GameObject:
  m_ObjectHideFlags: 0
  m_CorrespondingSourceObject: {fileID: 0}
  m_PrefabInstance: {fileID: 0}
  m_PrefabAsset: {fileID: 0}
  serializedVersion: 6
  m_Component:
  - component: {fileID: 371773529887899571}
  m_Layer: 0
  m_Name: HairJoint_6e2a4b7c_1848_4e04_a969_0efc2a18c9ee
  m_TagString: Untagged
  m_Icon: {fileID: 0}
  m_NavMeshLayer: 0
  m_StaticEditorFlags: 0
  m_IsActive: 1
--- !u!4 &371773529887899571
Transform:
  m_ObjectHideFlags: 0
  m_CorrespondingSourceObject: {fileID: 0}
  m_PrefabInstance: {fileID: 0}
  m_PrefabAsset: {fileID: 0}
  m_GameObject: {fileID: 371773529887899580}
  m_LocalRotation: {x: 0.0030969596, y: 0.0065304018, z: -0.016355578, w: 0.99984014}
  m_LocalPosition: {x: 0.0000000037252903, y: 0.025791919, z: 0.000000042608008}
  m_LocalScale: {x: 1, y: 0.9999999, z: 0.9999999}
  m_Children: []
  m_Father: {fileID: 371773530580859586}
  m_RootOrder: 0
  m_LocalEulerAnglesHint: {x: 0, y: 0, z: 0}
--- !u!1 &371773529906136291
GameObject:
  m_ObjectHideFlags: 0
  m_CorrespondingSourceObject: {fileID: 0}
  m_PrefabInstance: {fileID: 0}
  m_PrefabAsset: {fileID: 0}
  serializedVersion: 6
  m_Component:
  - component: {fileID: 371773529906136290}
  m_Layer: 0
  m_Name: Left knee
  m_TagString: Untagged
  m_Icon: {fileID: 0}
  m_NavMeshLayer: 0
  m_StaticEditorFlags: 0
  m_IsActive: 1
--- !u!4 &371773529906136290
Transform:
  m_ObjectHideFlags: 0
  m_CorrespondingSourceObject: {fileID: 0}
  m_PrefabInstance: {fileID: 0}
  m_PrefabAsset: {fileID: 0}
  m_GameObject: {fileID: 371773529906136291}
  m_LocalRotation: {x: 0.017129052, y: -0.01436045, z: 0.015823063, w: 0.99962497}
  m_LocalPosition: {x: -0.000000003754394, y: 0.4555426, z: 0}
  m_LocalScale: {x: 1, y: 1, z: 1.0000001}
  m_Children:
  - {fileID: 371773528829751042}
  m_Father: {fileID: 371773530363355351}
  m_RootOrder: 0
  m_LocalEulerAnglesHint: {x: 0, y: 0, z: 0}
--- !u!1 &371773529923886494
GameObject:
  m_ObjectHideFlags: 0
  m_CorrespondingSourceObject: {fileID: 0}
  m_PrefabInstance: {fileID: 0}
  m_PrefabAsset: {fileID: 0}
  serializedVersion: 6
  m_Component:
  - component: {fileID: 371773529923886493}
  m_Layer: 0
  m_Name: HairJoint_01054420_b9a4_4cc5_ac90_9c991d7be9a4
  m_TagString: Untagged
  m_Icon: {fileID: 0}
  m_NavMeshLayer: 0
  m_StaticEditorFlags: 0
  m_IsActive: 1
--- !u!4 &371773529923886493
Transform:
  m_ObjectHideFlags: 0
  m_CorrespondingSourceObject: {fileID: 0}
  m_PrefabInstance: {fileID: 0}
  m_PrefabAsset: {fileID: 0}
  m_GameObject: {fileID: 371773529923886494}
  m_LocalRotation: {x: 0.8616765, y: -0.32767624, z: -0.32767653, w: -0.206809}
  m_LocalPosition: {x: -0.007171545, y: 0.17504072, z: 0.065218024}
  m_LocalScale: {x: 0.99999946, y: 0.9999997, z: 0.9999999}
  m_Children:
  - {fileID: 371773529390797278}
  m_Father: {fileID: 371773529952469062}
  m_RootOrder: 6
  m_LocalEulerAnglesHint: {x: 0, y: 0, z: 0}
--- !u!1 &371773529952469063
GameObject:
  m_ObjectHideFlags: 0
  m_CorrespondingSourceObject: {fileID: 0}
  m_PrefabInstance: {fileID: 0}
  m_PrefabAsset: {fileID: 0}
  serializedVersion: 6
  m_Component:
  - component: {fileID: 371773529952469062}
  m_Layer: 0
  m_Name: Head
  m_TagString: Untagged
  m_Icon: {fileID: 0}
  m_NavMeshLayer: 0
  m_StaticEditorFlags: 0
  m_IsActive: 1
--- !u!4 &371773529952469062
Transform:
  m_ObjectHideFlags: 0
  m_CorrespondingSourceObject: {fileID: 0}
  m_PrefabInstance: {fileID: 0}
  m_PrefabAsset: {fileID: 0}
  m_GameObject: {fileID: 371773529952469063}
  m_LocalRotation: {x: -0.0801562, y: -0.00000018110522, z: -0.00000018110525, w: 0.9967823}
  m_LocalPosition: {x: -1.4153123e-11, y: 0.080295764, z: -0.0000000016343387}
  m_LocalScale: {x: 1, y: 1.0000001, z: 0.99999994}
  m_Children:
  - {fileID: 371773530240275051}
  - {fileID: 371773529696685203}
  - {fileID: 371773528786082949}
  - {fileID: 371773529343117951}
  - {fileID: 371773528800580992}
  - {fileID: 371773530498167560}
  - {fileID: 371773529923886493}
  - {fileID: 371773530580859586}
  - {fileID: 371773530055621208}
  - {fileID: 371773529628384852}
  - {fileID: 371773530857039425}
  m_Father: {fileID: 371773528981046779}
  m_RootOrder: 0
  m_LocalEulerAnglesHint: {x: 0, y: 0, z: 0}
--- !u!1 &371773529960711052
GameObject:
  m_ObjectHideFlags: 0
  m_CorrespondingSourceObject: {fileID: 0}
  m_PrefabInstance: {fileID: 0}
  m_PrefabAsset: {fileID: 0}
  serializedVersion: 6
  m_Component:
  - component: {fileID: 371773529960711043}
  m_Layer: 0
  m_Name: Right ankle
  m_TagString: Untagged
  m_Icon: {fileID: 0}
  m_NavMeshLayer: 0
  m_StaticEditorFlags: 0
  m_IsActive: 1
--- !u!4 &371773529960711043
Transform:
  m_ObjectHideFlags: 0
  m_CorrespondingSourceObject: {fileID: 0}
  m_PrefabInstance: {fileID: 0}
  m_PrefabAsset: {fileID: 0}
  m_GameObject: {fileID: 371773529960711052}
  m_LocalRotation: {x: -0.5334676, y: 0.03204474, z: -0.02058324, w: 0.8449626}
  m_LocalPosition: {x: -0.0000000055879354, y: 0.37655517, z: -0.0000000024447218}
  m_LocalScale: {x: 0.99999994, y: 1, z: 0.99999994}
  m_Children:
  - {fileID: 371773530096866012}
  m_Father: {fileID: 371773530357306285}
  m_RootOrder: 0
  m_LocalEulerAnglesHint: {x: 0, y: 0, z: 0}
--- !u!1 &371773529980431595
GameObject:
  m_ObjectHideFlags: 0
  m_CorrespondingSourceObject: {fileID: 0}
  m_PrefabInstance: {fileID: 0}
  m_PrefabAsset: {fileID: 0}
  serializedVersion: 6
  m_Component:
  - component: {fileID: 371773529980431594}
  m_Layer: 0
  m_Name: LittleFinger1_L
  m_TagString: Untagged
  m_Icon: {fileID: 0}
  m_NavMeshLayer: 0
  m_StaticEditorFlags: 0
  m_IsActive: 1
--- !u!4 &371773529980431594
Transform:
  m_ObjectHideFlags: 0
  m_CorrespondingSourceObject: {fileID: 0}
  m_PrefabInstance: {fileID: 0}
  m_PrefabAsset: {fileID: 0}
  m_GameObject: {fileID: 371773529980431595}
  m_LocalRotation: {x: -0.040777218, y: 0.040753856, z: -0.01218499, w: 0.9982624}
  m_LocalPosition: {x: 0.027721621, y: 0.059217546, z: -0.002365849}
  m_LocalScale: {x: 1, y: 0.99999994, z: 1}
  m_Children:
  - {fileID: 371773529096523405}
  m_Father: {fileID: 371773529751934180}
  m_RootOrder: 1
  m_LocalEulerAnglesHint: {x: 0, y: 0, z: 0}
--- !u!1 &371773530013869269
GameObject:
  m_ObjectHideFlags: 0
  m_CorrespondingSourceObject: {fileID: 0}
  m_PrefabInstance: {fileID: 0}
  m_PrefabAsset: {fileID: 0}
  serializedVersion: 6
  m_Component:
  - component: {fileID: 371773530013869268}
  m_Layer: 0
  m_Name: HairJoint_38a1cd8b_b8f4_42db_b9a5_d39df4beedf4
  m_TagString: Untagged
  m_Icon: {fileID: 0}
  m_NavMeshLayer: 0
  m_StaticEditorFlags: 0
  m_IsActive: 1
--- !u!4 &371773530013869268
Transform:
  m_ObjectHideFlags: 0
  m_CorrespondingSourceObject: {fileID: 0}
  m_PrefabInstance: {fileID: 0}
  m_PrefabAsset: {fileID: 0}
  m_GameObject: {fileID: 371773530013869269}
  m_LocalRotation: {x: 0.0076232455, y: -0.00051482726, z: 0.002197312, w: 0.9999684}
  m_LocalPosition: {x: 0.000000017229468, y: 0.027746415, z: 0.000000099884346}
  m_LocalScale: {x: 0.9999999, y: 1, z: 0.9999999}
  m_Children: []
  m_Father: {fileID: 371773529343117951}
  m_RootOrder: 0
  m_LocalEulerAnglesHint: {x: 0, y: 0, z: 0}
--- !u!1 &371773530016007943
GameObject:
  m_ObjectHideFlags: 0
  m_CorrespondingSourceObject: {fileID: 0}
  m_PrefabInstance: {fileID: 0}
  m_PrefabAsset: {fileID: 0}
  serializedVersion: 6
  m_Component:
  - component: {fileID: 371773530016007942}
  m_Layer: 0
  m_Name: IndexFinger2_L
  m_TagString: Untagged
  m_Icon: {fileID: 0}
  m_NavMeshLayer: 0
  m_StaticEditorFlags: 0
  m_IsActive: 1
--- !u!4 &371773530016007942
Transform:
  m_ObjectHideFlags: 0
  m_CorrespondingSourceObject: {fileID: 0}
  m_PrefabInstance: {fileID: 0}
  m_PrefabAsset: {fileID: 0}
  m_GameObject: {fileID: 371773530016007943}
  m_LocalRotation: {x: -0.013985845, y: 0.01661719, z: -0.023196205, w: 0.99949497}
  m_LocalPosition: {x: 0.000000008381903, y: 0.0313244, z: -0.00000006679329}
  m_LocalScale: {x: 1, y: 1, z: 1.0000001}
  m_Children:
  - {fileID: 371773530562375462}
  m_Father: {fileID: 371773528904361758}
  m_RootOrder: 0
  m_LocalEulerAnglesHint: {x: 0, y: 0, z: 0}
--- !u!1 &371773530017466744
GameObject:
  m_ObjectHideFlags: 0
  m_CorrespondingSourceObject: {fileID: 0}
  m_PrefabInstance: {fileID: 0}
  m_PrefabAsset: {fileID: 0}
  serializedVersion: 6
  m_Component:
  - component: {fileID: 371773530017466751}
  m_Layer: 0
  m_Name: IndexFinger1_R
  m_TagString: Untagged
  m_Icon: {fileID: 0}
  m_NavMeshLayer: 0
  m_StaticEditorFlags: 0
  m_IsActive: 1
--- !u!4 &371773530017466751
Transform:
  m_ObjectHideFlags: 0
  m_CorrespondingSourceObject: {fileID: 0}
  m_PrefabInstance: {fileID: 0}
  m_PrefabAsset: {fileID: 0}
  m_GameObject: {fileID: 371773530017466744}
  m_LocalRotation: {x: -0.038491182, y: -0.044576757, z: -0.06859114, w: 0.9959049}
  m_LocalPosition: {x: 0.019524397, y: 0.06085531, z: 0.0017859503}
  m_LocalScale: {x: 0.9999999, y: 0.9999999, z: 0.9999999}
  m_Children:
  - {fileID: 371773530848124109}
  m_Father: {fileID: 371773529335189347}
  m_RootOrder: 0
  m_LocalEulerAnglesHint: {x: 0, y: 0, z: 0}
--- !u!1 &371773530038266865
GameObject:
  m_ObjectHideFlags: 0
  m_CorrespondingSourceObject: {fileID: 0}
  m_PrefabInstance: {fileID: 0}
  m_PrefabAsset: {fileID: 0}
  serializedVersion: 6
  m_Component:
  - component: {fileID: 371773530038266864}
  m_Layer: 0
  m_Name: HairJoint_67dcd927_f908_41a4_8cf3_0e14a4bb045b
  m_TagString: Untagged
  m_Icon: {fileID: 0}
  m_NavMeshLayer: 0
  m_StaticEditorFlags: 0
  m_IsActive: 1
--- !u!4 &371773530038266864
Transform:
  m_ObjectHideFlags: 0
  m_CorrespondingSourceObject: {fileID: 0}
  m_PrefabInstance: {fileID: 0}
  m_PrefabAsset: {fileID: 0}
  m_GameObject: {fileID: 371773530038266865}
  m_LocalRotation: {x: 0.0029570926, y: -0.0055176956, z: 0.007613084, w: 0.9999514}
  m_LocalPosition: {x: -0.000000018626451, y: 0.03458063, z: -0.000000022351742}
  m_LocalScale: {x: 1, y: 1.0000002, z: 1}
  m_Children: []
  m_Father: {fileID: 371773528800580992}
  m_RootOrder: 0
  m_LocalEulerAnglesHint: {x: 0, y: 0, z: 0}
--- !u!1 &371773530049164778
GameObject:
  m_ObjectHideFlags: 0
  m_CorrespondingSourceObject: {fileID: 0}
  m_PrefabInstance: {fileID: 0}
  m_PrefabAsset: {fileID: 0}
  serializedVersion: 6
  m_Component:
  - component: {fileID: 371773530049164780}
  - component: {fileID: 371773530049164781}
  - component: {fileID: 371773530049164782}
  - component: {fileID: 371773530049164783}
  - component: {fileID: 371773530049164776}
  - component: {fileID: 371773530049164777}
  m_Layer: 0
  m_Name: Yong
  m_TagString: Player
  m_Icon: {fileID: 0}
  m_NavMeshLayer: 0
  m_StaticEditorFlags: 0
  m_IsActive: 1
--- !u!4 &371773530049164780
Transform:
  m_ObjectHideFlags: 0
  m_CorrespondingSourceObject: {fileID: 0}
  m_PrefabInstance: {fileID: 0}
  m_PrefabAsset: {fileID: 0}
  m_GameObject: {fileID: 371773530049164778}
  m_LocalRotation: {x: 0, y: 0, z: 0, w: 1}
  m_LocalPosition: {x: 0, y: 0, z: 0}
  m_LocalScale: {x: 1, y: 1, z: 1}
  m_Children:
  - {fileID: 371773530435058776}
  - {fileID: 371773529531403977}
  m_Father: {fileID: 0}
  m_RootOrder: 0
  m_LocalEulerAnglesHint: {x: 0, y: 0, z: 0}
--- !u!95 &371773530049164781
Animator:
  serializedVersion: 3
  m_ObjectHideFlags: 0
  m_CorrespondingSourceObject: {fileID: 0}
  m_PrefabInstance: {fileID: 0}
  m_PrefabAsset: {fileID: 0}
  m_GameObject: {fileID: 371773530049164778}
  m_Enabled: 1
  m_Avatar: {fileID: 9000000, guid: 6883adb884ca31f469db2fe357ee9d6a, type: 3}
  m_Controller: {fileID: 9100000, guid: 80cb2ec883d1c9942a3c210228d910c7, type: 2}
  m_CullingMode: 1
  m_UpdateMode: 0
  m_ApplyRootMotion: 1
  m_LinearVelocityBlending: 0
  m_WarningMessage: 
  m_HasTransformHierarchy: 1
  m_AllowConstantClipSamplingOptimization: 1
  m_KeepAnimatorControllerStateOnDisable: 0
--- !u!54 &371773530049164782
Rigidbody:
  m_ObjectHideFlags: 0
  m_CorrespondingSourceObject: {fileID: 0}
  m_PrefabInstance: {fileID: 0}
  m_PrefabAsset: {fileID: 0}
  m_GameObject: {fileID: 371773530049164778}
  serializedVersion: 2
  m_Mass: 80
  m_Drag: 0
  m_AngularDrag: 0.05
  m_UseGravity: 1
  m_IsKinematic: 0
  m_Interpolate: 0
  m_Constraints: 112
  m_CollisionDetection: 0
--- !u!136 &371773530049164783
CapsuleCollider:
  m_ObjectHideFlags: 0
  m_CorrespondingSourceObject: {fileID: 0}
  m_PrefabInstance: {fileID: 0}
  m_PrefabAsset: {fileID: 0}
  m_GameObject: {fileID: 371773530049164778}
  m_Material: {fileID: 0}
  m_IsTrigger: 0
  m_Enabled: 1
  m_Radius: 0.23
  m_Height: 1.7
  m_Direction: 1
  m_Center: {x: 0, y: 0.81, z: 0}
--- !u!114 &371773530049164776
MonoBehaviour:
  m_ObjectHideFlags: 0
  m_CorrespondingSourceObject: {fileID: 0}
  m_PrefabInstance: {fileID: 0}
  m_PrefabAsset: {fileID: 0}
  m_GameObject: {fileID: 371773530049164778}
  m_Enabled: 1
  m_EditorHideFlags: 0
  m_Script: {fileID: 11500000, guid: 087491c380645864db23f5f773a97a47, type: 3}
  m_Name: 
  m_EditorClassIdentifier: 
  playerCamera: {fileID: 0}
  turnSmoothing: 0.06
  sprintFOV: 100
--- !u!114 &371773530049164777
MonoBehaviour:
  m_ObjectHideFlags: 0
  m_CorrespondingSourceObject: {fileID: 0}
  m_PrefabInstance: {fileID: 0}
  m_PrefabAsset: {fileID: 0}
  m_GameObject: {fileID: 371773530049164778}
  m_Enabled: 1
  m_EditorHideFlags: 0
  m_Script: {fileID: 11500000, guid: 57e79f7cb3fb8d947a2c05110b2ae5f2, type: 3}
  m_Name: 
  m_EditorClassIdentifier: 
  walkSpeed: 0.15
  runSpeed: 1
  sprintSpeed: 2
  speedDampTime: 0.1
  jumpHeight: 1.5
  jumpIntertialForce: 10
  isLock: 0
--- !u!1 &371773530055621209
GameObject:
  m_ObjectHideFlags: 0
  m_CorrespondingSourceObject: {fileID: 0}
  m_PrefabInstance: {fileID: 0}
  m_PrefabAsset: {fileID: 0}
  serializedVersion: 6
  m_Component:
  - component: {fileID: 371773530055621208}
  m_Layer: 0
  m_Name: HairJoint_afaa31fd_7753_479f_90ca_613120baa81e
  m_TagString: Untagged
  m_Icon: {fileID: 0}
  m_NavMeshLayer: 0
  m_StaticEditorFlags: 0
  m_IsActive: 1
--- !u!4 &371773530055621208
Transform:
  m_ObjectHideFlags: 0
  m_CorrespondingSourceObject: {fileID: 0}
  m_PrefabInstance: {fileID: 0}
  m_PrefabAsset: {fileID: 0}
  m_GameObject: {fileID: 371773530055621209}
  m_LocalRotation: {x: 0.947608, y: -0.21731204, z: -0.21731275, w: -0.087119356}
  m_LocalPosition: {x: -0.02215664, y: 0.12667012, z: 0.10526558}
  m_LocalScale: {x: 0.99999964, y: 0.9999998, z: 0.99999994}
  m_Children:
  - {fileID: 371773529273452933}
  m_Father: {fileID: 371773529952469062}
  m_RootOrder: 8
  m_LocalEulerAnglesHint: {x: 0, y: 0, z: 0}
--- !u!1 &371773530096866013
GameObject:
  m_ObjectHideFlags: 0
  m_CorrespondingSourceObject: {fileID: 0}
  m_PrefabInstance: {fileID: 0}
  m_PrefabAsset: {fileID: 0}
  serializedVersion: 6
  m_Component:
  - component: {fileID: 371773530096866012}
  m_Layer: 0
  m_Name: Right toe
  m_TagString: Untagged
  m_Icon: {fileID: 0}
  m_NavMeshLayer: 0
  m_StaticEditorFlags: 0
  m_IsActive: 1
--- !u!4 &371773530096866012
Transform:
  m_ObjectHideFlags: 0
  m_CorrespondingSourceObject: {fileID: 0}
  m_PrefabInstance: {fileID: 0}
  m_PrefabAsset: {fileID: 0}
  m_GameObject: {fileID: 371773530096866013}
  m_LocalRotation: {x: -0.22035, y: 0.116642326, z: -0.035651598, w: 0.96776515}
  m_LocalPosition: {x: 0.0000000026193447, y: 0.1351597, z: -0.0000000018626451}
  m_LocalScale: {x: 0.99999994, y: 0.99999994, z: 0.99999994}
  m_Children: []
  m_Father: {fileID: 371773529960711043}
  m_RootOrder: 0
  m_LocalEulerAnglesHint: {x: 0, y: 0, z: 0}
--- !u!1 &371773530157805335
GameObject:
  m_ObjectHideFlags: 0
  m_CorrespondingSourceObject: {fileID: 0}
  m_PrefabInstance: {fileID: 0}
  m_PrefabAsset: {fileID: 0}
  serializedVersion: 6
  m_Component:
  - component: {fileID: 371773530157805334}
  m_Layer: 0
  m_Name: Hips
  m_TagString: Untagged
  m_Icon: {fileID: 0}
  m_NavMeshLayer: 0
  m_StaticEditorFlags: 0
  m_IsActive: 1
--- !u!4 &371773530157805334
Transform:
  m_ObjectHideFlags: 0
  m_CorrespondingSourceObject: {fileID: 0}
  m_PrefabInstance: {fileID: 0}
  m_PrefabAsset: {fileID: 0}
  m_GameObject: {fileID: 371773530157805335}
  m_LocalRotation: {x: 0.7071068, y: 0, z: -0, w: 0.7071067}
  m_LocalPosition: {x: 0.00058532134, y: 0, z: 0.9892298}
  m_LocalScale: {x: 1, y: 1, z: 1}
  m_Children:
  - {fileID: 371773530363355351}
  - {fileID: 371773530278472953}
  - {fileID: 371773529442020363}
  m_Father: {fileID: 371773530435058776}
  m_RootOrder: 0
  m_LocalEulerAnglesHint: {x: 0, y: 0, z: 0}
--- !u!1 &371773530169652091
GameObject:
  m_ObjectHideFlags: 0
  m_CorrespondingSourceObject: {fileID: 0}
  m_PrefabInstance: {fileID: 0}
  m_PrefabAsset: {fileID: 0}
  serializedVersion: 6
  m_Component:
  - component: {fileID: 371773530169652090}
  m_Layer: 0
  m_Name: Left arm
  m_TagString: Untagged
  m_Icon: {fileID: 0}
  m_NavMeshLayer: 0
  m_StaticEditorFlags: 0
  m_IsActive: 1
--- !u!4 &371773530169652090
Transform:
  m_ObjectHideFlags: 0
  m_CorrespondingSourceObject: {fileID: 0}
  m_PrefabInstance: {fileID: 0}
  m_PrefabAsset: {fileID: 0}
  m_GameObject: {fileID: 371773530169652091}
  m_LocalRotation: {x: 0.06536202, y: -0.0649629, z: -0.01699251, w: 0.9955998}
  m_LocalPosition: {x: -0.000000020954758, y: 0.10000072, z: -0.00000008166535}
  m_LocalScale: {x: 1, y: 1.0000001, z: 1}
  m_Children:
  - {fileID: 371773529833141621}
  m_Father: {fileID: 371773530561695220}
  m_RootOrder: 0
  m_LocalEulerAnglesHint: {x: 0, y: 0, z: 0}
--- !u!1 &371773530191076178
GameObject:
  m_ObjectHideFlags: 0
  m_CorrespondingSourceObject: {fileID: 0}
  m_PrefabInstance: {fileID: 0}
  m_PrefabAsset: {fileID: 0}
  serializedVersion: 6
  m_Component:
  - component: {fileID: 371773530191076177}
  m_Layer: 0
  m_Name: LittleFinger2_R
  m_TagString: Untagged
  m_Icon: {fileID: 0}
  m_NavMeshLayer: 0
  m_StaticEditorFlags: 0
  m_IsActive: 1
--- !u!4 &371773530191076177
Transform:
  m_ObjectHideFlags: 0
  m_CorrespondingSourceObject: {fileID: 0}
  m_PrefabInstance: {fileID: 0}
  m_PrefabAsset: {fileID: 0}
  m_GameObject: {fileID: 371773530191076178}
  m_LocalRotation: {x: 0.024525316, y: 0.024297552, z: 0.027118979, w: 0.9990359}
  m_LocalPosition: {x: -6.9849193e-10, y: 0.02960711, z: -0.00000003981222}
  m_LocalScale: {x: 1.0000001, y: 1, z: 1.0000001}
  m_Children:
  - {fileID: 371773529766903456}
  m_Father: {fileID: 371773529115334858}
  m_RootOrder: 0
  m_LocalEulerAnglesHint: {x: 0, y: 0, z: 0}
--- !u!1 &371773530206750235
GameObject:
  m_ObjectHideFlags: 0
  m_CorrespondingSourceObject: {fileID: 0}
  m_PrefabInstance: {fileID: 0}
  m_PrefabAsset: {fileID: 0}
  serializedVersion: 6
  m_Component:
  - component: {fileID: 371773530206750234}
  m_Layer: 0
  m_Name: HairJoint_be66e7fb_a995_49fb_a75c_41a2e6c1e36c
  m_TagString: Untagged
  m_Icon: {fileID: 0}
  m_NavMeshLayer: 0
  m_StaticEditorFlags: 0
  m_IsActive: 1
--- !u!4 &371773530206750234
Transform:
  m_ObjectHideFlags: 0
  m_CorrespondingSourceObject: {fileID: 0}
  m_PrefabInstance: {fileID: 0}
  m_PrefabAsset: {fileID: 0}
  m_GameObject: {fileID: 371773530206750235}
  m_LocalRotation: {x: 0.0029941015, y: -0.005070679, z: 0.013076837, w: 0.9998972}
  m_LocalPosition: {x: -6.9849193e-10, y: 0.027768536, z: -0.00000012287637}
  m_LocalScale: {x: 1, y: 0.99999994, z: 0.9999999}
  m_Children: []
  m_Father: {fileID: 371773528786082949}
  m_RootOrder: 0
  m_LocalEulerAnglesHint: {x: 0, y: 0, z: 0}
--- !u!1 &371773530240275028
GameObject:
  m_ObjectHideFlags: 0
  m_CorrespondingSourceObject: {fileID: 0}
  m_PrefabInstance: {fileID: 0}
  m_PrefabAsset: {fileID: 0}
  serializedVersion: 6
  m_Component:
  - component: {fileID: 371773530240275051}
  m_Layer: 0
  m_Name: Eye_L
  m_TagString: Untagged
  m_Icon: {fileID: 0}
  m_NavMeshLayer: 0
  m_StaticEditorFlags: 0
  m_IsActive: 1
--- !u!4 &371773530240275051
Transform:
  m_ObjectHideFlags: 0
  m_CorrespondingSourceObject: {fileID: 0}
  m_PrefabInstance: {fileID: 0}
  m_PrefabAsset: {fileID: 0}
  m_GameObject: {fileID: 371773530240275028}
  m_LocalRotation: {x: -0.6758292, y: -0.12849699, z: -0.12849705, w: 0.7143053}
  m_LocalPosition: {x: -0.016188731, y: 0.056627274, z: 0.028949322}
  m_LocalScale: {x: 1, y: 0.9999999, z: 0.99999994}
  m_Children: []
  m_Father: {fileID: 371773529952469062}
  m_RootOrder: 0
  m_LocalEulerAnglesHint: {x: 0, y: 0, z: 0}
--- !u!1 &371773530278472954
GameObject:
  m_ObjectHideFlags: 0
  m_CorrespondingSourceObject: {fileID: 0}
  m_PrefabInstance: {fileID: 0}
  m_PrefabAsset: {fileID: 0}
  serializedVersion: 6
  m_Component:
  - component: {fileID: 371773530278472953}
  m_Layer: 0
  m_Name: Right leg
  m_TagString: Untagged
  m_Icon: {fileID: 0}
  m_NavMeshLayer: 0
  m_StaticEditorFlags: 0
  m_IsActive: 1
--- !u!4 &371773530278472953
Transform:
  m_ObjectHideFlags: 0
  m_CorrespondingSourceObject: {fileID: 0}
  m_PrefabInstance: {fileID: 0}
  m_PrefabAsset: {fileID: 0}
  m_GameObject: {fileID: 371773530278472954}
  m_LocalRotation: {x: 0.9991076, y: -0.027031457, z: -0.027539667, w: -0.017175918}
  m_LocalPosition: {x: 0.0754959, y: -0.05417639, z: 0.0077880276}
  m_LocalScale: {x: 0.999971, y: 0.9999999, z: 0.9999899}
  m_Children:
  - {fileID: 371773530357306285}
  m_Father: {fileID: 371773530157805334}
  m_RootOrder: 1
  m_LocalEulerAnglesHint: {x: 0, y: 0, z: 0}
--- !u!1 &371773530336826813
GameObject:
  m_ObjectHideFlags: 0
  m_CorrespondingSourceObject: {fileID: 0}
  m_PrefabInstance: {fileID: 0}
  m_PrefabAsset: {fileID: 0}
  serializedVersion: 6
  m_Component:
  - component: {fileID: 371773530336826812}
  m_Layer: 0
  m_Name: MiddleFinger2_L
  m_TagString: Untagged
  m_Icon: {fileID: 0}
  m_NavMeshLayer: 0
  m_StaticEditorFlags: 0
  m_IsActive: 1
--- !u!4 &371773530336826812
Transform:
  m_ObjectHideFlags: 0
  m_CorrespondingSourceObject: {fileID: 0}
  m_PrefabInstance: {fileID: 0}
  m_PrefabAsset: {fileID: 0}
  m_GameObject: {fileID: 371773530336826813}
  m_LocalRotation: {x: -0.03414006, y: 0.037060294, z: -0.016585037, w: 0.998592}
  m_LocalPosition: {x: -0.0000000037252903, y: 0.03488486, z: -0.000000063329935}
  m_LocalScale: {x: 0.99999994, y: 0.9999998, z: 0.99999994}
  m_Children:
  - {fileID: 371773529856970505}
  m_Father: {fileID: 371773530876527789}
  m_RootOrder: 0
  m_LocalEulerAnglesHint: {x: 0, y: 0, z: 0}
--- !u!1 &371773530357306286
GameObject:
  m_ObjectHideFlags: 0
  m_CorrespondingSourceObject: {fileID: 0}
  m_PrefabInstance: {fileID: 0}
  m_PrefabAsset: {fileID: 0}
  serializedVersion: 6
  m_Component:
  - component: {fileID: 371773530357306285}
  m_Layer: 0
  m_Name: Right knee
  m_TagString: Untagged
  m_Icon: {fileID: 0}
  m_NavMeshLayer: 0
  m_StaticEditorFlags: 0
  m_IsActive: 1
--- !u!4 &371773530357306285
Transform:
  m_ObjectHideFlags: 0
  m_CorrespondingSourceObject: {fileID: 0}
  m_PrefabInstance: {fileID: 0}
  m_PrefabAsset: {fileID: 0}
  m_GameObject: {fileID: 371773530357306286}
  m_LocalRotation: {x: 0.017129049, y: 0.014359795, z: -0.015822101, w: 0.99962497}
  m_LocalPosition: {x: 0.000000014202669, y: 0.4555426, z: 0}
  m_LocalScale: {x: 1, y: 1, z: 0.9999999}
  m_Children:
  - {fileID: 371773529960711043}
  m_Father: {fileID: 371773530278472953}
  m_RootOrder: 0
  m_LocalEulerAnglesHint: {x: 0, y: 0, z: 0}
--- !u!1 &371773530363355344
GameObject:
  m_ObjectHideFlags: 0
  m_CorrespondingSourceObject: {fileID: 0}
  m_PrefabInstance: {fileID: 0}
  m_PrefabAsset: {fileID: 0}
  serializedVersion: 6
  m_Component:
  - component: {fileID: 371773530363355351}
  m_Layer: 0
  m_Name: Left leg
  m_TagString: Untagged
  m_Icon: {fileID: 0}
  m_NavMeshLayer: 0
  m_StaticEditorFlags: 0
  m_IsActive: 1
--- !u!4 &371773530363355351
Transform:
  m_ObjectHideFlags: 0
  m_CorrespondingSourceObject: {fileID: 0}
  m_PrefabInstance: {fileID: 0}
  m_PrefabAsset: {fileID: 0}
  m_GameObject: {fileID: 371773530363355344}
  m_LocalRotation: {x: 0.99911577, y: 0.02670375, z: 0.027548624, w: -0.017193884}
  m_LocalPosition: {x: -0.0754959, y: -0.05417639, z: 0.0077880463}
  m_LocalScale: {x: 0.99995166, y: 0.9999998, z: 0.9999834}
  m_Children:
  - {fileID: 371773529906136290}
  m_Father: {fileID: 371773530157805334}
  m_RootOrder: 0
  m_LocalEulerAnglesHint: {x: 0, y: 0, z: 0}
--- !u!1 &371773530435058777
GameObject:
  m_ObjectHideFlags: 0
  m_CorrespondingSourceObject: {fileID: 0}
  m_PrefabInstance: {fileID: 0}
  m_PrefabAsset: {fileID: 0}
  serializedVersion: 6
  m_Component:
  - component: {fileID: 371773530435058776}
  m_Layer: 0
  m_Name: Armature
  m_TagString: Untagged
  m_Icon: {fileID: 0}
  m_NavMeshLayer: 0
  m_StaticEditorFlags: 0
  m_IsActive: 1
--- !u!4 &371773530435058776
Transform:
  m_ObjectHideFlags: 0
  m_CorrespondingSourceObject: {fileID: 0}
  m_PrefabInstance: {fileID: 0}
  m_PrefabAsset: {fileID: 0}
  m_GameObject: {fileID: 371773530435058777}
  m_LocalRotation: {x: -0.7071068, y: 0, z: -0, w: 0.7071067}
  m_LocalPosition: {x: -0, y: 0, z: 0}
  m_LocalScale: {x: 1, y: 1, z: 1}
  m_Children:
  - {fileID: 371773530157805334}
  m_Father: {fileID: 371773530049164780}
  m_RootOrder: 0
  m_LocalEulerAnglesHint: {x: 0, y: 0, z: 0}
--- !u!1 &371773530443433886
GameObject:
  m_ObjectHideFlags: 0
  m_CorrespondingSourceObject: {fileID: 0}
  m_PrefabInstance: {fileID: 0}
  m_PrefabAsset: {fileID: 0}
  serializedVersion: 6
  m_Component:
  - component: {fileID: 371773530443433885}
  m_Layer: 0
  m_Name: MiddleFinger2_R
  m_TagString: Untagged
  m_Icon: {fileID: 0}
  m_NavMeshLayer: 0
  m_StaticEditorFlags: 0
  m_IsActive: 1
--- !u!4 &371773530443433885
Transform:
  m_ObjectHideFlags: 0
  m_CorrespondingSourceObject: {fileID: 0}
  m_PrefabInstance: {fileID: 0}
  m_PrefabAsset: {fileID: 0}
  m_GameObject: {fileID: 371773530443433886}
  m_LocalRotation: {x: -0.034139268, y: -0.037059397, z: 0.016585156, w: 0.9985921}
  m_LocalPosition: {x: 0.000000013038516, y: 0.034885038, z: -0.000000055297278}
  m_LocalScale: {x: 0.9999999, y: 0.9999999, z: 0.9999999}
  m_Children:
  - {fileID: 371773530615252253}
  m_Father: {fileID: 371773529245238418}
  m_RootOrder: 0
  m_LocalEulerAnglesHint: {x: 0, y: 0, z: 0}
--- !u!1 &371773530479336793
GameObject:
  m_ObjectHideFlags: 0
  m_CorrespondingSourceObject: {fileID: 0}
  m_PrefabInstance: {fileID: 0}
  m_PrefabAsset: {fileID: 0}
  serializedVersion: 6
  m_Component:
  - component: {fileID: 371773530479336792}
  m_Layer: 0
  m_Name: RingFinger3_R
  m_TagString: Untagged
  m_Icon: {fileID: 0}
  m_NavMeshLayer: 0
  m_StaticEditorFlags: 0
  m_IsActive: 1
--- !u!4 &371773530479336792
Transform:
  m_ObjectHideFlags: 0
  m_CorrespondingSourceObject: {fileID: 0}
  m_PrefabInstance: {fileID: 0}
  m_PrefabAsset: {fileID: 0}
  m_GameObject: {fileID: 371773530479336793}
  m_LocalRotation: {x: -0.010157228, y: -0.009872709, z: 0.010102586, w: 0.99984866}
  m_LocalPosition: {x: -0.0000000018626451, y: 0.018678922, z: 0.000000105646905}
  m_LocalScale: {x: 0.99999994, y: 0.99999994, z: 0.99999994}
  m_Children: []
  m_Father: {fileID: 371773529322310486}
  m_RootOrder: 0
  m_LocalEulerAnglesHint: {x: 0, y: 0, z: 0}
--- !u!1 &371773530498167561
GameObject:
  m_ObjectHideFlags: 0
  m_CorrespondingSourceObject: {fileID: 0}
  m_PrefabInstance: {fileID: 0}
  m_PrefabAsset: {fileID: 0}
  serializedVersion: 6
  m_Component:
  - component: {fileID: 371773530498167560}
  m_Layer: 0
  m_Name: HairJoint_36018f64_526d_4e13_b27a_9e70096cebec
  m_TagString: Untagged
  m_Icon: {fileID: 0}
  m_NavMeshLayer: 0
  m_StaticEditorFlags: 0
  m_IsActive: 1
--- !u!4 &371773530498167560
Transform:
  m_ObjectHideFlags: 0
  m_CorrespondingSourceObject: {fileID: 0}
  m_PrefabInstance: {fileID: 0}
  m_PrefabAsset: {fileID: 0}
  m_GameObject: {fileID: 371773530498167561}
  m_LocalRotation: {x: 0.94601697, y: -0.08787647, z: -0.08787636, w: -0.29934487}
  m_LocalPosition: {x: -0.085504524, y: 0.098733306, z: -0.006589695}
  m_LocalScale: {x: 1.0000001, y: 1, z: 1.0000004}
  m_Children:
  - {fileID: 371773529280821729}
  m_Father: {fileID: 371773529952469062}
  m_RootOrder: 5
  m_LocalEulerAnglesHint: {x: 0, y: 0, z: 0}
--- !u!1 &371773530506525950
GameObject:
  m_ObjectHideFlags: 0
  m_CorrespondingSourceObject: {fileID: 0}
  m_PrefabInstance: {fileID: 0}
  m_PrefabAsset: {fileID: 0}
  serializedVersion: 6
  m_Component:
  - component: {fileID: 371773530506525949}
  m_Layer: 0
  m_Name: RingFinger3_L
  m_TagString: Untagged
  m_Icon: {fileID: 0}
  m_NavMeshLayer: 0
  m_StaticEditorFlags: 0
  m_IsActive: 1
--- !u!4 &371773530506525949
Transform:
  m_ObjectHideFlags: 0
  m_CorrespondingSourceObject: {fileID: 0}
  m_PrefabInstance: {fileID: 0}
  m_PrefabAsset: {fileID: 0}
  m_GameObject: {fileID: 371773530506525950}
  m_LocalRotation: {x: -0.010154283, y: 0.009869689, z: -0.010102838, w: 0.9998487}
  m_LocalPosition: {x: 9.313226e-10, y: 0.018678965, z: 0.00000009080395}
  m_LocalScale: {x: 0.99999994, y: 0.99999994, z: 0.9999999}
  m_Children: []
  m_Father: {fileID: 371773528790162224}
  m_RootOrder: 0
  m_LocalEulerAnglesHint: {x: 0, y: 0, z: 0}
--- !u!1 &371773530507079553
GameObject:
  m_ObjectHideFlags: 0
  m_CorrespondingSourceObject: {fileID: 0}
  m_PrefabInstance: {fileID: 0}
  m_PrefabAsset: {fileID: 0}
  serializedVersion: 6
  m_Component:
  - component: {fileID: 371773530507079552}
  m_Layer: 0
  m_Name: Thumb1_L
  m_TagString: Untagged
  m_Icon: {fileID: 0}
  m_NavMeshLayer: 0
  m_StaticEditorFlags: 0
  m_IsActive: 1
--- !u!4 &371773530507079552
Transform:
  m_ObjectHideFlags: 0
  m_CorrespondingSourceObject: {fileID: 0}
  m_PrefabInstance: {fileID: 0}
  m_PrefabAsset: {fileID: 0}
  m_GameObject: {fileID: 371773530507079553}
  m_LocalRotation: {x: 0.008313608, y: -0.013315629, z: -0.036176912, w: 0.9992221}
  m_LocalPosition: {x: 0.000000018626451, y: 0.044689693, z: -0.000000015832484}
  m_LocalScale: {x: 0.99999994, y: 1.0000001, z: 1.0000001}
  m_Children:
  - {fileID: 371773529627267602}
  m_Father: {fileID: 371773530810207434}
  m_RootOrder: 0
  m_LocalEulerAnglesHint: {x: 0, y: 0, z: 0}
--- !u!1 &371773530561695221
GameObject:
  m_ObjectHideFlags: 0
  m_CorrespondingSourceObject: {fileID: 0}
  m_PrefabInstance: {fileID: 0}
  m_PrefabAsset: {fileID: 0}
  serializedVersion: 6
  m_Component:
  - component: {fileID: 371773530561695220}
  m_Layer: 0
  m_Name: Left shoulder
  m_TagString: Untagged
  m_Icon: {fileID: 0}
  m_NavMeshLayer: 0
  m_StaticEditorFlags: 0
  m_IsActive: 1
--- !u!4 &371773530561695220
Transform:
  m_ObjectHideFlags: 0
  m_CorrespondingSourceObject: {fileID: 0}
  m_PrefabInstance: {fileID: 0}
  m_PrefabAsset: {fileID: 0}
  m_GameObject: {fileID: 371773530561695221}
  m_LocalRotation: {x: 0.56120145, y: -0.48951206, z: -0.52192235, w: -0.41596627}
  m_LocalPosition: {x: -0.021913534, y: 0.17660548, z: 0.0031531774}
  m_LocalScale: {x: 1, y: 1, z: 0.99999994}
  m_Children:
  - {fileID: 371773530169652090}
  m_Father: {fileID: 371773529665206308}
  m_RootOrder: 0
  m_LocalEulerAnglesHint: {x: 0, y: 0, z: 0}
--- !u!1 &371773530562375463
GameObject:
  m_ObjectHideFlags: 0
  m_CorrespondingSourceObject: {fileID: 0}
  m_PrefabInstance: {fileID: 0}
  m_PrefabAsset: {fileID: 0}
  serializedVersion: 6
  m_Component:
  - component: {fileID: 371773530562375462}
  m_Layer: 0
  m_Name: IndexFinger3_L
  m_TagString: Untagged
  m_Icon: {fileID: 0}
  m_NavMeshLayer: 0
  m_StaticEditorFlags: 0
  m_IsActive: 1
--- !u!4 &371773530562375462
Transform:
  m_ObjectHideFlags: 0
  m_CorrespondingSourceObject: {fileID: 0}
  m_PrefabInstance: {fileID: 0}
  m_PrefabAsset: {fileID: 0}
  m_GameObject: {fileID: 371773530562375463}
  m_LocalRotation: {x: -0.002013267, y: 0.0026941535, z: -0.010685771, w: 0.9999373}
  m_LocalPosition: {x: 0.0000000037252903, y: 0.019282661, z: -0.000000024912879}
  m_LocalScale: {x: 0.99999994, y: 1, z: 0.9999999}
  m_Children: []
  m_Father: {fileID: 371773530016007942}
  m_RootOrder: 0
  m_LocalEulerAnglesHint: {x: 0, y: 0, z: 0}
--- !u!1 &371773530580859587
GameObject:
  m_ObjectHideFlags: 0
  m_CorrespondingSourceObject: {fileID: 0}
  m_PrefabInstance: {fileID: 0}
  m_PrefabAsset: {fileID: 0}
  serializedVersion: 6
  m_Component:
  - component: {fileID: 371773530580859586}
  m_Layer: 0
  m_Name: HairJoint_a6f9f1af_ac4e_4d78_921f_e81d4daa1e83
  m_TagString: Untagged
  m_Icon: {fileID: 0}
  m_NavMeshLayer: 0
  m_StaticEditorFlags: 0
  m_IsActive: 1
--- !u!4 &371773530580859586
Transform:
  m_ObjectHideFlags: 0
  m_CorrespondingSourceObject: {fileID: 0}
  m_PrefabInstance: {fileID: 0}
  m_PrefabAsset: {fileID: 0}
  m_GameObject: {fileID: 371773530580859587}
  m_LocalRotation: {x: 0.914608, y: 0.033135235, z: 0.033135235, w: -0.40161732}
  m_LocalPosition: {x: 0.08660733, y: 0.11553478, z: -0.04425139}
  m_LocalScale: {x: 1, y: 0.99999994, z: 0.9999998}
  m_Children:
  - {fileID: 371773529887899571}
  m_Father: {fileID: 371773529952469062}
  m_RootOrder: 7
  m_LocalEulerAnglesHint: {x: 0, y: 0, z: 0}
--- !u!1 &371773530615252254
GameObject:
  m_ObjectHideFlags: 0
  m_CorrespondingSourceObject: {fileID: 0}
  m_PrefabInstance: {fileID: 0}
  m_PrefabAsset: {fileID: 0}
  serializedVersion: 6
  m_Component:
  - component: {fileID: 371773530615252253}
  m_Layer: 0
  m_Name: MiddleFinger3_R
  m_TagString: Untagged
  m_Icon: {fileID: 0}
  m_NavMeshLayer: 0
  m_StaticEditorFlags: 0
  m_IsActive: 1
--- !u!4 &371773530615252253
Transform:
  m_ObjectHideFlags: 0
  m_CorrespondingSourceObject: {fileID: 0}
  m_PrefabInstance: {fileID: 0}
  m_PrefabAsset: {fileID: 0}
  m_GameObject: {fileID: 371773530615252254}
  m_LocalRotation: {x: 0.02114207, y: 0.021767234, z: 0.0002886689, w: 0.99953943}
  m_LocalPosition: {x: 0.000000011175871, y: 0.0215287, z: -0.000000047963113}
  m_LocalScale: {x: 1, y: 1.0000001, z: 0.99999994}
  m_Children: []
  m_Father: {fileID: 371773530443433885}
  m_RootOrder: 0
  m_LocalEulerAnglesHint: {x: 0, y: 0, z: 0}
--- !u!1 &371773530754120087
GameObject:
  m_ObjectHideFlags: 0
  m_CorrespondingSourceObject: {fileID: 0}
  m_PrefabInstance: {fileID: 0}
  m_PrefabAsset: {fileID: 0}
  serializedVersion: 6
  m_Component:
  - component: {fileID: 371773530754120086}
  m_Layer: 0
  m_Name: HairJoint_2fb35e2a_58f0_43a5_bce2_f0a0cd6dfa62
  m_TagString: Untagged
  m_Icon: {fileID: 0}
  m_NavMeshLayer: 0
  m_StaticEditorFlags: 0
  m_IsActive: 1
--- !u!4 &371773530754120086
Transform:
  m_ObjectHideFlags: 0
  m_CorrespondingSourceObject: {fileID: 0}
  m_PrefabInstance: {fileID: 0}
  m_PrefabAsset: {fileID: 0}
  m_GameObject: {fileID: 371773530754120087}
  m_LocalRotation: {x: 0.08621609, y: -0.028728105, z: 0.012294644, w: 0.9957863}
  m_LocalPosition: {x: 0.000000016065314, y: 0.03486733, z: 0.000000002386514}
  m_LocalScale: {x: 1, y: 1, z: 1}
  m_Children: []
  m_Father: {fileID: 371773530857039425}
  m_RootOrder: 0
  m_LocalEulerAnglesHint: {x: 0, y: 0, z: 0}
--- !u!1 &371773530810207435
GameObject:
  m_ObjectHideFlags: 0
  m_CorrespondingSourceObject: {fileID: 0}
  m_PrefabInstance: {fileID: 0}
  m_PrefabAsset: {fileID: 0}
  serializedVersion: 6
  m_Component:
  - component: {fileID: 371773530810207434}
  m_Layer: 0
  m_Name: Thumb0_L
  m_TagString: Untagged
  m_Icon: {fileID: 0}
  m_NavMeshLayer: 0
  m_StaticEditorFlags: 0
  m_IsActive: 1
--- !u!4 &371773530810207434
Transform:
  m_ObjectHideFlags: 0
  m_CorrespondingSourceObject: {fileID: 0}
  m_PrefabInstance: {fileID: 0}
  m_PrefabAsset: {fileID: 0}
  m_GameObject: {fileID: 371773530810207435}
  m_LocalRotation: {x: -0.07470232, y: 0.10595241, z: 0.38803855, w: 0.91248}
  m_LocalPosition: {x: -0.017602732, y: 0.0017398943, z: -0.006159652}
  m_LocalScale: {x: 1.0000001, y: 0.99999994, z: 1.0000001}
  m_Children:
  - {fileID: 371773530507079552}
  m_Father: {fileID: 371773529751934180}
  m_RootOrder: 4
  m_LocalEulerAnglesHint: {x: 0, y: 0, z: 0}
--- !u!1 &371773530848124110
GameObject:
  m_ObjectHideFlags: 0
  m_CorrespondingSourceObject: {fileID: 0}
  m_PrefabInstance: {fileID: 0}
  m_PrefabAsset: {fileID: 0}
  serializedVersion: 6
  m_Component:
  - component: {fileID: 371773530848124109}
  m_Layer: 0
  m_Name: IndexFinger2_R
  m_TagString: Untagged
  m_Icon: {fileID: 0}
  m_NavMeshLayer: 0
  m_StaticEditorFlags: 0
  m_IsActive: 1
--- !u!4 &371773530848124109
Transform:
  m_ObjectHideFlags: 0
  m_CorrespondingSourceObject: {fileID: 0}
  m_PrefabInstance: {fileID: 0}
  m_PrefabAsset: {fileID: 0}
  m_GameObject: {fileID: 371773530848124110}
  m_LocalRotation: {x: -0.01398399, y: -0.016615236, z: 0.023194974, w: 0.9994951}
  m_LocalPosition: {x: -0.000000013969839, y: 0.031324323, z: 0.000000013969839}
  m_LocalScale: {x: 0.9999999, y: 0.99999994, z: 1}
  m_Children:
  - {fileID: 371773529155235528}
  m_Father: {fileID: 371773530017466751}
  m_RootOrder: 0
  m_LocalEulerAnglesHint: {x: 0, y: 0, z: 0}
--- !u!1 &371773530857039426
GameObject:
  m_ObjectHideFlags: 0
  m_CorrespondingSourceObject: {fileID: 0}
  m_PrefabInstance: {fileID: 0}
  m_PrefabAsset: {fileID: 0}
  serializedVersion: 6
  m_Component:
  - component: {fileID: 371773530857039425}
  m_Layer: 0
  m_Name: HairJoint_eac327e9_ca53_4bde_916e_0296e4035041
  m_TagString: Untagged
  m_Icon: {fileID: 0}
  m_NavMeshLayer: 0
  m_StaticEditorFlags: 0
  m_IsActive: 1
--- !u!4 &371773530857039425
Transform:
  m_ObjectHideFlags: 0
  m_CorrespondingSourceObject: {fileID: 0}
  m_PrefabInstance: {fileID: 0}
  m_PrefabAsset: {fileID: 0}
  m_GameObject: {fileID: 371773530857039426}
  m_LocalRotation: {x: 0.9911169, y: -0.07565021, z: -0.07566526, w: 0.078988925}
  m_LocalPosition: {x: 0.0053795082, y: 0.12091327, z: 0.11087186}
  m_LocalScale: {x: 0.9999979, y: 0.9999998, z: 0.9999969}
  m_Children:
  - {fileID: 371773530754120086}
  m_Father: {fileID: 371773529952469062}
  m_RootOrder: 10
  m_LocalEulerAnglesHint: {x: 0, y: 0, z: 0}
--- !u!1 &371773530876527790
GameObject:
  m_ObjectHideFlags: 0
  m_CorrespondingSourceObject: {fileID: 0}
  m_PrefabInstance: {fileID: 0}
  m_PrefabAsset: {fileID: 0}
  serializedVersion: 6
  m_Component:
  - component: {fileID: 371773530876527789}
  m_Layer: 0
  m_Name: MiddleFinger1_L
  m_TagString: Untagged
  m_Icon: {fileID: 0}
  m_NavMeshLayer: 0
  m_StaticEditorFlags: 0
  m_IsActive: 1
--- !u!4 &371773530876527789
Transform:
  m_ObjectHideFlags: 0
  m_CorrespondingSourceObject: {fileID: 0}
  m_PrefabInstance: {fileID: 0}
  m_PrefabAsset: {fileID: 0}
  m_GameObject: {fileID: 371773530876527790}
  m_LocalRotation: {x: -0.055585913, y: 0.058416713, z: 0.020929232, w: 0.9965238}
  m_LocalPosition: {x: -0.003026926, y: 0.06283005, z: 0.003721262}
  m_LocalScale: {x: 1, y: 0.9999999, z: 1}
  m_Children:
  - {fileID: 371773530336826812}
  m_Father: {fileID: 371773529751934180}
  m_RootOrder: 2
  m_LocalEulerAnglesHint: {x: 0, y: 0, z: 0}
